EESchema Schematic File Version 2
LIBS:lasik-rescue
LIBS:power
LIBS:device
LIBS:switches
LIBS:relays
LIBS:transistors
LIBS:conn
LIBS:linear
LIBS:regul
LIBS:74xx
LIBS:cmos4000
LIBS:adc-dac
LIBS:memory
LIBS:xilinx
LIBS:microcontrollers
LIBS:dsp
LIBS:microchip
LIBS:analog_switches
LIBS:motorola
LIBS:texas
LIBS:intel
LIBS:audio
LIBS:interface
LIBS:digital-audio
LIBS:philips
LIBS:display
LIBS:cypress
LIBS:siliconi
LIBS:opto
LIBS:atmel
LIBS:contrib
LIBS:valves
LIBS:stm32duino_boards
LIBS:bluepill_breakouts
LIBS:lasik-cache
EELAYER 25 0
EELAYER END
$Descr A4 11693 8268
encoding utf-8
Sheet 8 51
Title ""
Date ""
Rev ""
Comp ""
Comment1 ""
Comment2 ""
Comment3 ""
Comment4 ""
$EndDescr
$Comp
L R_Small R802
U 1 1 5AFADD9F
P 4400 3400
F 0 "R802" H 4550 3450 50  0000 L CNN
F 1 "R_Small" H 4430 3360 50  0000 L CNN
F 2 "Resistors_SMD:R_0805_HandSoldering" H 4400 3400 50  0001 C CNN
F 3 "" H 4400 3400 50  0001 C CNN
	1    4400 3400
	-1   0    0    1   
$EndComp
$Comp
L MCP6004 U801
U 1 1 5AFADDA6
P 5000 3450
F 0 "U801" H 5050 3650 50  0000 C CNN
F 1 "TBD" H 5100 3800 50  0000 C CNN
F 2 "SMD_Packages:SOIC-14_N" H 4950 3550 50  0001 C CNN
F 3 "" H 5050 3650 50  0000 C CNN
	1    5000 3450
	1    0    0    1   
$EndComp
$Comp
L GNDPWR #PWR?
U 1 1 5AFADDB3
P 4900 3050
F 0 "#PWR?" H 4900 2850 50  0001 C CNN
F 1 "GNDPWR" H 4900 2920 50  0000 C CNN
F 2 "" H 4900 3000 50  0000 C CNN
F 3 "" H 4900 3000 50  0000 C CNN
	1    4900 3050
	-1   0    0    1   
$EndComp
$Comp
L C_Small C801
U 1 1 5AFADDB9
P 5550 3200
F 0 "C801" H 5650 3200 50  0000 L CNN
F 1 "C_Small" H 5600 3300 50  0000 L CNN
F 2 "Resistors_SMD:R_0805_HandSoldering" H 5550 3200 50  0001 C CNN
F 3 "" H 5550 3200 50  0001 C CNN
	1    5550 3200
	1    0    0    -1  
$EndComp
$Comp
L GNDPWR #PWR?
U 1 1 5AFADDC6
P 5550 3350
F 0 "#PWR?" H 5550 3150 50  0001 C CNN
F 1 "GNDPWR" H 5550 3220 50  0000 C CNN
F 2 "" H 5550 3300 50  0000 C CNN
F 3 "" H 5550 3300 50  0000 C CNN
	1    5550 3350
	1    0    0    -1  
$EndComp
$Comp
L R_Small R801
U 1 1 5AFADDCC
P 4350 3700
F 0 "R801" H 4500 3750 50  0000 L CNN
F 1 "R_Small" H 4380 3660 50  0000 L CNN
F 2 "Resistors_SMD:R_0805_HandSoldering" H 4350 3700 50  0001 C CNN
F 3 "" H 4350 3700 50  0001 C CNN
	1    4350 3700
	-1   0    0    1   
$EndComp
$Comp
L R_Small R804
U 1 1 5AFADDD3
P 5100 3100
F 0 "R804" V 5200 3000 50  0000 L CNN
F 1 "R_Small" V 5000 3000 50  0000 L CNN
F 2 "Resistors_SMD:R_0805_HandSoldering" H 5100 3100 50  0001 C CNN
F 3 "" H 5100 3100 50  0001 C CNN
	1    5100 3100
	0    1    1    0   
$EndComp
Text HLabel 5300 2750 1    60   Input ~ 0
bias
Wire Wire Line
	4900 3050 4900 3150
Wire Wire Line
	4900 3800 4900 3750
Wire Wire Line
	5550 3350 5550 3300
Wire Wire Line
	5550 3050 5550 3100
Wire Wire Line
	5300 2850 4650 2850
Wire Wire Line
	4650 2850 4650 3350
Wire Wire Line
	4650 3350 4700 3350
Connection ~ 5300 2850
Wire Wire Line
	4400 3250 4400 3300
$Comp
L GNDPWR #PWR?
U 1 1 5AFADF3A
P 4400 3850
F 0 "#PWR?" H 4400 3650 50  0001 C CNN
F 1 "GNDPWR" H 4400 3720 50  0000 C CNN
F 2 "" H 4400 3800 50  0000 C CNN
F 3 "" H 4400 3800 50  0000 C CNN
	1    4400 3850
	1    0    0    -1  
$EndComp
$Comp
L R_Small R803
U 1 1 5AFADF71
P 4450 3700
F 0 "R803" H 4480 3720 50  0000 L CNN
F 1 "R_Small" H 4480 3660 50  0000 L CNN
F 2 "Resistors_SMD:R_0805_HandSoldering" H 4450 3700 50  0001 C CNN
F 3 "" H 4450 3700 50  0001 C CNN
	1    4450 3700
	1    0    0    1   
$EndComp
Wire Wire Line
	4350 3800 4450 3800
Wire Wire Line
	4700 3550 4400 3550
Wire Wire Line
	4400 3500 4400 3600
Wire Wire Line
	4350 3600 4450 3600
Connection ~ 4400 3600
Connection ~ 4400 3550
Wire Wire Line
	4400 3850 4400 3800
Connection ~ 4400 3800
$Comp
L +5V #PWR?
U 1 1 5AFC835C
P 4900 3800
F 0 "#PWR?" H 4900 3650 50  0001 C CNN
F 1 "+5V" H 4900 3940 50  0000 C CNN
F 2 "" H 4900 3800 50  0000 C CNN
F 3 "" H 4900 3800 50  0000 C CNN
	1    4900 3800
	-1   0    0    1   
$EndComp
Wire Wire Line
	5300 3450 5300 2750
Wire Wire Line
	5200 3100 5300 3100
Connection ~ 5300 3100
Wire Wire Line
	5000 3100 4900 3100
Connection ~ 4900 3100
$Comp
L +5V #PWR?
U 1 1 5AFCD084
P 4400 3250
F 0 "#PWR?" H 4400 3100 50  0001 C CNN
F 1 "+5V" H 4400 3390 50  0000 C CNN
F 2 "" H 4400 3250 50  0000 C CNN
F 3 "" H 4400 3250 50  0000 C CNN
	1    4400 3250
	1    0    0    -1  
$EndComp
$Comp
L +5V #PWR?
U 1 1 5AFD02C6
P 5550 3050
F 0 "#PWR?" H 5550 2900 50  0001 C CNN
F 1 "+5V" H 5550 3190 50  0000 C CNN
F 2 "" H 5550 3050 50  0000 C CNN
F 3 "" H 5550 3050 50  0000 C CNN
	1    5550 3050
	1    0    0    -1  
$EndComp
$EndSCHEMATC
