EESchema Schematic File Version 4
LIBS:power
LIBS:74xx
LIBS:rfm69hcw
LIBS:bluepill_breakouts
LIBS:Lasik2-cache
EELAYER 26 0
EELAYER END
$Descr A4 11693 8268
encoding utf-8
Sheet 6 6
Title ""
Date ""
Rev ""
Comp ""
Comment1 ""
Comment2 ""
Comment3 ""
Comment4 ""
$EndDescr
$Comp
L Device:D_Photo D?
U 1 1 5C6063DA
P 4200 3850
AR Path="/5C5E4922/5C6063DA" Ref="D?"  Part="1" 
AR Path="/5C60014F/5C6063DA" Ref="D601"  Part="1" 
F 0 "D601" V 4200 4200 50  0000 R CNN
F 1 "D_Photo" V 4300 4200 50  0000 R CNN
F 2 "TerminalBlock_Phoenix:TerminalBlock_Phoenix_MPT-0,5-2-2.54_1x02_P2.54mm_Horizontal" H 4150 3850 50  0001 C CNN
F 3 "~" H 4150 3850 50  0001 C CNN
	1    4200 3850
	0    -1   1    0   
$EndComp
$Comp
L Device:R_Small R?
U 1 1 5C6063DB
P 4600 3500
AR Path="/5C5E4922/5C6063DB" Ref="R?"  Part="1" 
AR Path="/5C60014F/5C6063DB" Ref="R601"  Part="1" 
F 0 "R601" V 4650 3850 50  0000 C CNN
F 1 "R_Small" V 4550 3800 50  0000 C CNN
F 2 "Resistor_SMD:R_0805_2012Metric_Pad1.15x1.40mm_HandSolder" H 4600 3500 50  0001 C CNN
F 3 "~" H 4600 3500 50  0001 C CNN
	1    4600 3500
	0    -1   -1   0   
$EndComp
$Comp
L Device:L_Core_Ferrite_Coupled L?
U 1 1 5C6063DC
P 4600 3800
AR Path="/5C5E4922/5C6063DC" Ref="L?"  Part="1" 
AR Path="/5C60014F/5C6063DC" Ref="L601"  Part="1" 
F 0 "L601" V 4550 3500 50  0000 L CNN
F 1 "balun" V 4650 3500 50  0000 L CNN
F 2 "Lasik:SRF4530A" H 4600 3800 50  0001 C CNN
F 3 "~" H 4600 3800 50  0001 C CNN
	1    4600 3800
	0    1    1    0   
$EndComp
$Comp
L Device:R_Small R?
U 1 1 5C6063DD
P 4600 4100
AR Path="/5C5E4922/5C6063DD" Ref="R?"  Part="1" 
AR Path="/5C60014F/5C6063DD" Ref="R602"  Part="1" 
F 0 "R602" V 4600 4350 50  0000 C CNN
F 1 "R_Small" V 4500 4300 50  0000 C CNN
F 2 "Resistor_SMD:R_0805_2012Metric_Pad1.15x1.40mm_HandSolder" H 4600 4100 50  0001 C CNN
F 3 "~" H 4600 4100 50  0001 C CNN
	1    4600 4100
	0    -1   -1   0   
$EndComp
$Comp
L Device:C_Small C?
U 1 1 5C5E5121
P 4850 4350
AR Path="/5C5E4922/5C5E5121" Ref="C?"  Part="1" 
AR Path="/5C60014F/5C5E5121" Ref="C602"  Part="1" 
F 0 "C602" H 4942 4396 50  0000 L CNN
F 1 "C_Small" H 4950 4300 50  0000 L CNN
F 2 "Capacitor_SMD:C_0805_2012Metric_Pad1.15x1.40mm_HandSolder" H 4850 4350 50  0001 C CNN
F 3 "~" H 4850 4350 50  0001 C CNN
	1    4850 4350
	1    0    0    -1  
$EndComp
$Comp
L Device:R_Small R?
U 1 1 5C5E5128
P 4700 4350
AR Path="/5C5E4922/5C5E5128" Ref="R?"  Part="1" 
AR Path="/5C60014F/5C5E5128" Ref="R603"  Part="1" 
F 0 "R603" H 4450 4400 50  0000 C CNN
F 1 "R_Small" H 4500 4300 50  0000 C CNN
F 2 "Resistor_SMD:R_0805_2012Metric_Pad1.15x1.40mm_HandSolder" H 4700 4350 50  0001 C CNN
F 3 "~" H 4700 4350 50  0001 C CNN
	1    4700 4350
	1    0    0    -1  
$EndComp
$Comp
L Device:C_Small C?
U 1 1 5C5E512F
P 4800 3200
AR Path="/5C5E4922/5C5E512F" Ref="C?"  Part="1" 
AR Path="/5C60014F/5C5E512F" Ref="C601"  Part="1" 
F 0 "C601" V 5000 3100 50  0000 L CNN
F 1 "C_Small" V 4900 3000 50  0000 L CNN
F 2 "Capacitor_SMD:C_0805_2012Metric_Pad1.15x1.40mm_HandSolder" H 4800 3200 50  0001 C CNN
F 3 "~" H 4800 3200 50  0001 C CNN
	1    4800 3200
	0    -1   -1   0   
$EndComp
$Comp
L Device:R_Small R?
U 1 1 5C5E5136
P 4800 3350
AR Path="/5C5E4922/5C5E5136" Ref="R?"  Part="1" 
AR Path="/5C60014F/5C5E5136" Ref="R604"  Part="1" 
F 0 "R604" V 4900 3700 50  0000 C CNN
F 1 "R_Small" V 4800 3650 50  0000 C CNN
F 2 "Resistor_SMD:R_0805_2012Metric_Pad1.15x1.40mm_HandSolder" H 4800 3350 50  0001 C CNN
F 3 "~" H 4800 3350 50  0001 C CNN
	1    4800 3350
	0    -1   -1   0   
$EndComp
Wire Wire Line
	4200 3650 4200 3600
Wire Wire Line
	4200 3600 4500 3600
Wire Wire Line
	4200 3950 4200 4000
Wire Wire Line
	4200 4000 4500 4000
Wire Wire Line
	4500 3500 4500 3600
Connection ~ 4500 3600
Wire Wire Line
	4700 3500 4700 3600
Wire Wire Line
	4700 4000 4800 4000
Wire Wire Line
	4500 4100 4500 4000
Connection ~ 4500 4000
Wire Wire Line
	4700 4100 4700 4000
Connection ~ 4700 4000
Wire Wire Line
	4800 3900 4800 4000
Wire Wire Line
	4800 3700 4800 3600
Wire Wire Line
	4800 3600 4700 3600
Connection ~ 4700 3600
Wire Wire Line
	4900 3350 4900 3200
Wire Wire Line
	4700 3350 4700 3200
Wire Wire Line
	4850 4250 4700 4250
Wire Wire Line
	4850 4450 4700 4450
Wire Wire Line
	4700 4250 4700 4100
Connection ~ 4700 4250
Connection ~ 4700 4100
Wire Wire Line
	4700 3350 4700 3500
Connection ~ 4700 3350
Connection ~ 4700 3500
Wire Wire Line
	4900 3200 5400 3200
Wire Wire Line
	5400 3200 5400 3800
Connection ~ 4900 3200
$Comp
L Device:C_Small C?
U 1 1 5C5E5161
P 5700 3800
AR Path="/5C5E4922/5C5E5161" Ref="C?"  Part="1" 
AR Path="/5C60014F/5C5E5161" Ref="C603"  Part="1" 
F 0 "C603" V 5900 3750 50  0000 L CNN
F 1 "C_Small" V 5800 3650 50  0000 L CNN
F 2 "Capacitor_SMD:C_0805_2012Metric_Pad1.15x1.40mm_HandSolder" H 5700 3800 50  0001 C CNN
F 3 "~" H 5700 3800 50  0001 C CNN
	1    5700 3800
	0    -1   -1   0   
$EndComp
$Comp
L Device:R_Small R?
U 1 1 5C6063E3
P 5500 4000
AR Path="/5C5E4922/5C6063E3" Ref="R?"  Part="1" 
AR Path="/5C60014F/5C6063E3" Ref="R605"  Part="1" 
F 0 "R605" H 5350 4050 50  0000 C CNN
F 1 "R_Small" H 5300 3950 50  0000 C CNN
F 2 "Resistor_SMD:R_0805_2012Metric_Pad1.15x1.40mm_HandSolder" H 5500 4000 50  0001 C CNN
F 3 "~" H 5500 4000 50  0001 C CNN
	1    5500 4000
	1    0    0    -1  
$EndComp
$Comp
L Device:R_Small R?
U 1 1 5C5E516F
P 6050 4000
AR Path="/5C5E4922/5C5E516F" Ref="R?"  Part="1" 
AR Path="/5C60014F/5C5E516F" Ref="R606"  Part="1" 
F 0 "R606" H 5900 4050 50  0000 C CNN
F 1 "R_Small" H 5850 3950 50  0000 C CNN
F 2 "Resistor_SMD:R_0805_2012Metric_Pad1.15x1.40mm_HandSolder" H 6050 4000 50  0001 C CNN
F 3 "~" H 6050 4000 50  0001 C CNN
	1    6050 4000
	1    0    0    -1  
$EndComp
Wire Wire Line
	5500 3900 5500 3800
Wire Wire Line
	5500 3800 5600 3800
Wire Wire Line
	5400 3800 5500 3800
Connection ~ 5500 3800
Wire Wire Line
	5800 3800 6050 3800
Wire Wire Line
	6050 3800 6050 3900
Connection ~ 6050 3800
Wire Wire Line
	6050 3800 6250 3800
$Comp
L Device:R_Small R?
U 1 1 5C5E517F
P 6150 4000
AR Path="/5C5E4922/5C5E517F" Ref="R?"  Part="1" 
AR Path="/5C60014F/5C5E517F" Ref="R608"  Part="1" 
F 0 "R608" H 5950 4050 50  0000 C CNN
F 1 "R_Small" H 6000 4150 50  0000 C CNN
F 2 "Resistor_SMD:R_0805_2012Metric_Pad1.15x1.40mm_HandSolder" H 6150 4000 50  0001 C CNN
F 3 "~" H 6150 4000 50  0001 C CNN
	1    6150 4000
	-1   0    0    1   
$EndComp
$Comp
L Device:R_Small R?
U 1 1 5C6063E6
P 6150 3650
AR Path="/5C5E4922/5C6063E6" Ref="R?"  Part="1" 
AR Path="/5C60014F/5C6063E6" Ref="R607"  Part="1" 
F 0 "R607" H 6150 3400 50  0000 C CNN
F 1 "R_Small" H 6200 3500 50  0000 C CNN
F 2 "Resistor_SMD:R_0805_2012Metric_Pad1.15x1.40mm_HandSolder" H 6150 3650 50  0001 C CNN
F 3 "~" H 6150 3650 50  0001 C CNN
	1    6150 3650
	-1   0    0    1   
$EndComp
Wire Wire Line
	6150 4100 6100 4100
Wire Wire Line
	6150 3900 6150 3750
$Comp
L Device:R_Small R?
U 1 1 5C6063E7
P 7050 3700
AR Path="/5C5E4922/5C6063E7" Ref="R?"  Part="1" 
AR Path="/5C60014F/5C6063E7" Ref="R610"  Part="1" 
F 0 "R610" V 7250 3750 50  0000 C CNN
F 1 "R_Small" V 7150 3700 50  0000 C CNN
F 2 "Resistor_SMD:R_0805_2012Metric_Pad1.15x1.40mm_HandSolder" H 7050 3700 50  0001 C CNN
F 3 "~" H 7050 3700 50  0001 C CNN
	1    7050 3700
	0    -1   -1   0   
$EndComp
$Comp
L Device:C_Small C?
U 1 1 5C6063E8
P 7300 3800
AR Path="/5C5E4922/5C6063E8" Ref="C?"  Part="1" 
AR Path="/5C60014F/5C6063E8" Ref="C604"  Part="1" 
F 0 "C604" H 7000 3800 50  0000 L CNN
F 1 "C_Small" H 6950 3700 50  0000 L CNN
F 2 "Capacitor_SMD:C_0805_2012Metric_Pad1.15x1.40mm_HandSolder" H 7300 3800 50  0001 C CNN
F 3 "~" H 7300 3800 50  0001 C CNN
	1    7300 3800
	1    0    0    -1  
$EndComp
$Comp
L Device:R_Small R?
U 1 1 5C6063E9
P 7500 3300
AR Path="/5C5E4922/5C6063E9" Ref="R?"  Part="1" 
AR Path="/5C60014F/5C6063E9" Ref="R611"  Part="1" 
F 0 "R611" H 7650 3350 50  0000 C CNN
F 1 "R_Small" H 7700 3250 50  0000 C CNN
F 2 "Resistor_SMD:R_0805_2012Metric_Pad1.15x1.40mm_HandSolder" H 7500 3300 50  0001 C CNN
F 3 "~" H 7500 3300 50  0001 C CNN
	1    7500 3300
	1    0    0    -1  
$EndComp
$Comp
L Device:R_Small R?
U 1 1 5C6063EA
P 7700 3150
AR Path="/5C5E4922/5C6063EA" Ref="R?"  Part="1" 
AR Path="/5C60014F/5C6063EA" Ref="R612"  Part="1" 
F 0 "R612" V 7900 3200 50  0000 C CNN
F 1 "R_Small" V 7800 3150 50  0000 C CNN
F 2 "Resistor_SMD:R_0805_2012Metric_Pad1.15x1.40mm_HandSolder" H 7700 3150 50  0001 C CNN
F 3 "~" H 7700 3150 50  0001 C CNN
	1    7700 3150
	0    -1   -1   0   
$EndComp
Wire Wire Line
	7500 3500 7500 3400
Wire Wire Line
	7500 3200 7500 3150
$Comp
L power:Earth #PWR?
U 1 1 5C5E51B4
P 5500 4150
AR Path="/5C5E4922/5C5E51B4" Ref="#PWR?"  Part="1" 
AR Path="/5C60014F/5C5E51B4" Ref="#PWR0604"  Part="1" 
F 0 "#PWR0604" H 5500 3900 50  0001 C CNN
F 1 "Earth" H 5500 4000 50  0001 C CNN
F 2 "" H 5500 4150 50  0001 C CNN
F 3 "~" H 5500 4150 50  0001 C CNN
	1    5500 4150
	1    0    0    -1  
$EndComp
$Comp
L power:Earth #PWR?
U 1 1 5C5E51BA
P 7300 3950
AR Path="/5C5E4922/5C5E51BA" Ref="#PWR?"  Part="1" 
AR Path="/5C60014F/5C5E51BA" Ref="#PWR0608"  Part="1" 
F 0 "#PWR0608" H 7300 3700 50  0001 C CNN
F 1 "Earth" H 7300 3800 50  0001 C CNN
F 2 "" H 7300 3950 50  0001 C CNN
F 3 "~" H 7300 3950 50  0001 C CNN
	1    7300 3950
	1    0    0    -1  
$EndComp
Wire Wire Line
	5500 4150 5500 4100
Wire Wire Line
	7300 3950 7300 3900
$Comp
L power:VAA #PWR?
U 1 1 5C5E51EC
P 6100 4150
AR Path="/5C5E4922/5C5E51EC" Ref="#PWR?"  Part="1" 
AR Path="/5C60014F/5C5E51EC" Ref="#PWR0605"  Part="1" 
F 0 "#PWR0605" H 6100 4000 50  0001 C CNN
F 1 "VAA" H 6118 4323 50  0000 C CNN
F 2 "" H 6100 4150 50  0001 C CNN
F 3 "" H 6100 4150 50  0001 C CNN
	1    6100 4150
	-1   0    0    1   
$EndComp
Wire Wire Line
	6100 4150 6100 4100
Connection ~ 6100 4100
Wire Wire Line
	6100 4100 6050 4100
$Comp
L power:VAA #PWR?
U 1 1 5C5E51F5
P 7950 3100
AR Path="/5C5E4922/5C5E51F5" Ref="#PWR?"  Part="1" 
AR Path="/5C60014F/5C5E51F5" Ref="#PWR0609"  Part="1" 
F 0 "#PWR0609" H 7950 2950 50  0001 C CNN
F 1 "VAA" V 7968 3227 50  0000 L CNN
F 2 "" H 7950 3100 50  0001 C CNN
F 3 "" H 7950 3100 50  0001 C CNN
	1    7950 3100
	1    0    0    -1  
$EndComp
Text HLabel 8200 3600 2    50   Input ~ 0
3-stage_triggered-out
Wire Wire Line
	6250 3600 6250 3550
Wire Wire Line
	6250 3550 6150 3550
$Comp
L Device:R_Small R?
U 1 1 5C6063EF
P 6800 4100
AR Path="/5C5E4922/5C6063EF" Ref="R?"  Part="1" 
AR Path="/5C60014F/5C6063EF" Ref="R609"  Part="1" 
F 0 "R609" V 7000 4150 50  0000 C CNN
F 1 "R_bypass" V 6900 4100 50  0000 C CNN
F 2 "Resistor_SMD:R_0805_2012Metric_Pad1.15x1.40mm_HandSolder" H 6800 4100 50  0001 C CNN
F 3 "~" H 6800 4100 50  0001 C CNN
F 4 "bypass second amp" V 6800 4100 50  0001 C CNN "Note"
	1    6800 4100
	0    1    1    0   
$EndComp
Wire Wire Line
	6250 3800 6250 4100
Wire Wire Line
	6250 4100 6700 4100
Wire Wire Line
	7500 3700 7300 3700
Wire Wire Line
	7150 3700 7300 3700
Connection ~ 7300 3700
Text HLabel 8100 3150 2    50   Input ~ 0
VAA
Text HLabel 5100 4150 2    50   Input ~ 0
GND
$Comp
L power:VAA #PWR?
U 1 1 5C6063F0
P 4700 4500
AR Path="/5C5E4922/5C6063F0" Ref="#PWR?"  Part="1" 
AR Path="/5C60014F/5C6063F0" Ref="#PWR0601"  Part="1" 
F 0 "#PWR0601" H 4700 4350 50  0001 C CNN
F 1 "VAA" H 4718 4673 50  0000 C CNN
F 2 "" H 4700 4500 50  0001 C CNN
F 3 "" H 4700 4500 50  0001 C CNN
	1    4700 4500
	-1   0    0    1   
$EndComp
Wire Wire Line
	4700 4450 4700 4500
Connection ~ 4700 4450
$Comp
L Comparator:LM393 U?
U 2 1 5C6063F1
P 7800 3600
AR Path="/5C5EEFD0/5C6063F1" Ref="U?"  Part="2" 
AR Path="/5C5E4922/5C6063F1" Ref="U?"  Part="1" 
AR Path="/5C60014F/5C6063F1" Ref="U203"  Part="2" 
F 0 "U203" H 7850 3400 50  0000 C CNN
F 1 "TS3702" H 7850 3300 50  0000 C CNN
F 2 "Package_SO:SOIC-8_3.9x4.9mm_P1.27mm" H 7800 3600 50  0001 C CNN
F 3 "https://www.mouser.be/datasheet/2/389/ts3702-957242.pdf" H 7800 3600 50  0001 C CNN
	2    7800 3600
	1    0    0    -1  
$EndComp
$Comp
L Amplifier_Operational:TSV911xxLx U?
U 1 1 5C6063F2
P 5100 3800
AR Path="/5C5E4922/5C6063F2" Ref="U?"  Part="1" 
AR Path="/5C60014F/5C6063F2" Ref="U601"  Part="1" 
F 0 "U601" H 5050 4050 50  0000 L CNN
F 1 "TLV9061" H 5050 3950 50  0000 L CNN
F 2 "Package_TO_SOT_SMD:SOT-23-5" H 5000 3600 50  0001 L CNN
F 3 "https://www.ti.com/lit/ds/symlink/tlv9061.pdf" H 5100 4000 50  0001 C CNN
	1    5100 3800
	1    0    0    -1  
$EndComp
Connection ~ 5400 3800
$Comp
L Amplifier_Operational:TSV911xxLx U?
U 1 1 5C5F527C
P 6550 3700
AR Path="/5C5E4922/5C5F527C" Ref="U?"  Part="1" 
AR Path="/5C60014F/5C5F527C" Ref="U602"  Part="1" 
F 0 "U602" H 6500 3950 50  0000 L CNN
F 1 "TLV9061" H 6500 3850 50  0000 L CNN
F 2 "Package_TO_SOT_SMD:SOT-23-5" H 6450 3500 50  0001 L CNN
F 3 "https://www.ti.com/lit/ds/symlink/tlv9061.pdf" H 6550 3900 50  0001 C CNN
	1    6550 3700
	1    0    0    -1  
$EndComp
Connection ~ 6250 3800
$Comp
L power:Earth #PWR?
U 1 1 5C5F52EA
P 5000 4150
AR Path="/5C5E4922/5C5F52EA" Ref="#PWR?"  Part="1" 
AR Path="/5C60014F/5C5F52EA" Ref="#PWR0603"  Part="1" 
F 0 "#PWR0603" H 5000 3900 50  0001 C CNN
F 1 "Earth" H 5000 4000 50  0001 C CNN
F 2 "" H 5000 4150 50  0001 C CNN
F 3 "~" H 5000 4150 50  0001 C CNN
	1    5000 4150
	1    0    0    -1  
$EndComp
Wire Wire Line
	5000 4100 5000 4150
$Comp
L power:Earth #PWR?
U 1 1 5C5F5B40
P 6550 4000
AR Path="/5C5E4922/5C5F5B40" Ref="#PWR?"  Part="1" 
AR Path="/5C60014F/5C5F5B40" Ref="#PWR0607"  Part="1" 
F 0 "#PWR0607" H 6550 3750 50  0001 C CNN
F 1 "Earth" H 6550 3850 50  0001 C CNN
F 2 "" H 6550 4000 50  0001 C CNN
F 3 "~" H 6550 4000 50  0001 C CNN
	1    6550 4000
	0    -1   -1   0   
$EndComp
Wire Wire Line
	6450 4000 6550 4000
$Comp
L power:+3V3 #PWR?
U 1 1 5C5F64A2
P 5000 3450
AR Path="/5C5E4922/5C5F64A2" Ref="#PWR?"  Part="1" 
AR Path="/5C60014F/5C5F64A2" Ref="#PWR0602"  Part="1" 
F 0 "#PWR0602" H 5000 3300 50  0001 C CNN
F 1 "+3V3" H 5015 3623 50  0000 C CNN
F 2 "" H 5000 3450 50  0001 C CNN
F 3 "" H 5000 3450 50  0001 C CNN
	1    5000 3450
	1    0    0    -1  
$EndComp
Wire Wire Line
	5000 3450 5000 3500
$Comp
L power:+3V3 #PWR?
U 1 1 5C5F6EFC
P 6450 3350
AR Path="/5C5E4922/5C5F6EFC" Ref="#PWR?"  Part="1" 
AR Path="/5C60014F/5C5F6EFC" Ref="#PWR0606"  Part="1" 
F 0 "#PWR0606" H 6450 3200 50  0001 C CNN
F 1 "+3V3" H 6465 3523 50  0000 C CNN
F 2 "" H 6450 3350 50  0001 C CNN
F 3 "" H 6450 3350 50  0001 C CNN
	1    6450 3350
	1    0    0    -1  
$EndComp
Wire Wire Line
	6450 3350 6450 3400
Wire Wire Line
	8100 3150 7950 3150
Wire Wire Line
	7950 3100 7950 3150
Connection ~ 7950 3150
Wire Wire Line
	7950 3150 7800 3150
Wire Wire Line
	7600 3150 7500 3150
Wire Wire Line
	5100 4150 5000 4150
Connection ~ 5000 4150
Wire Wire Line
	6900 3700 6950 3700
Wire Wire Line
	6850 3700 6900 3700
Connection ~ 6900 3700
Wire Wire Line
	6900 4100 6900 3700
Wire Notes Line
	5900 3100 7400 3100
Wire Notes Line
	7400 3100 7400 4400
Wire Notes Line
	7400 4400 5900 4400
Wire Notes Line
	5900 3100 5900 4400
Text Notes 6450 3050 0    50   ~ 0
Optional
Text HLabel 5100 3450 2    50   Input ~ 0
3V3
Wire Wire Line
	5100 3450 5000 3450
Connection ~ 5000 3450
Wire Wire Line
	8100 3600 8200 3600
$EndSCHEMATC
