EESchema Schematic File Version 4
LIBS:power
LIBS:Lasik1.5-cache
EELAYER 26 0
EELAYER END
$Descr A4 11693 8268
encoding utf-8
Sheet 8 17
Title ""
Date ""
Rev ""
Comp ""
Comment1 ""
Comment2 ""
Comment3 ""
Comment4 ""
$EndDescr
Wire Wire Line
	3700 3500 3650 3500
Wire Wire Line
	5650 3100 7000 3100
Wire Notes Line
	6800 2950 6800 4250
Wire Notes Line
	5100 2950 5100 4250
Wire Notes Line
	5100 2950 6800 2950
Wire Wire Line
	7000 3100 7000 3850
Wire Notes Line
	5100 4250 6800 4250
Wire Wire Line
	6050 3350 6050 3250
Wire Wire Line
	6250 3850 6250 3400
$Comp
L Device:Opamp_Dual_Generic U?
U 2 1 5C635271
P 5900 3850
AR Path="/5C5FAFFD/5C635271" Ref="U?"  Part="2" 
AR Path="/5C5E4922/5C635271" Ref="U?"  Part="2" 
AR Path="/5C62C3B9/5C635271" Ref="U?"  Part="2" 
AR Path="/5C661B09/5C661DA8/5C635271" Ref="U?"  Part="2" 
AR Path="/5C661B09/5C661DAE/5C635271" Ref="U?"  Part="2" 
AR Path="/5C661B09/5C662123/5C635271" Ref="U?"  Part="2" 
AR Path="/5C661B09/5C662129/5C635271" Ref="U?"  Part="2" 
AR Path="/5C666787/5C662123/5C635271" Ref="U?"  Part="2" 
AR Path="/5C666787/5C662129/5C635271" Ref="U?"  Part="2" 
AR Path="/5C689EFA/5C662123/5C635271" Ref="U?"  Part="2" 
AR Path="/5C689EFA/5C662129/5C635271" Ref="U?"  Part="2" 
AR Path="/5C68A269/5C68A2E1/5C662123/5C635271" Ref="U401"  Part="2" 
AR Path="/5C68A269/5C68A2E1/5C662129/5C635271" Ref="U501"  Part="2" 
AR Path="/5C68A269/5C68A301/5C662123/5C635271" Ref="U701"  Part="2" 
AR Path="/5C68A269/5C68A301/5C662129/5C635271" Ref="U801"  Part="2" 
F 0 "U801" H 6000 4050 50  0000 C CNN
F 1 "TLV9062" H 6000 4150 50  0000 C CNN
F 2 "Package_SO:SOIC-8_3.9x4.9mm_P1.27mm" H 5900 3850 50  0001 C CNN
F 3 "https://www.ti.com/lit/ds/symlink/tlv9062.pdf" H 5900 3850 50  0001 C CNN
	2    5900 3850
	1    0    0    1   
$EndComp
$Comp
L Device:Opamp_Dual_Generic U?
U 1 1 5C63526A
P 4050 3950
AR Path="/5C5FAFFD/5C63526A" Ref="U?"  Part="1" 
AR Path="/5C5E4922/5C63526A" Ref="U?"  Part="1" 
AR Path="/5C62C3B9/5C63526A" Ref="U?"  Part="1" 
AR Path="/5C661B09/5C661DA8/5C63526A" Ref="U?"  Part="1" 
AR Path="/5C661B09/5C661DAE/5C63526A" Ref="U?"  Part="1" 
AR Path="/5C661B09/5C662123/5C63526A" Ref="U?"  Part="1" 
AR Path="/5C661B09/5C662129/5C63526A" Ref="U?"  Part="1" 
AR Path="/5C666787/5C662123/5C63526A" Ref="U?"  Part="1" 
AR Path="/5C666787/5C662129/5C63526A" Ref="U?"  Part="1" 
AR Path="/5C689EFA/5C662123/5C63526A" Ref="U?"  Part="1" 
AR Path="/5C689EFA/5C662129/5C63526A" Ref="U?"  Part="1" 
AR Path="/5C68A269/5C68A2E1/5C662123/5C63526A" Ref="U401"  Part="1" 
AR Path="/5C68A269/5C68A2E1/5C662129/5C63526A" Ref="U501"  Part="1" 
AR Path="/5C68A269/5C68A301/5C662123/5C63526A" Ref="U701"  Part="1" 
AR Path="/5C68A269/5C68A301/5C662129/5C63526A" Ref="U801"  Part="1" 
F 0 "U801" H 4100 4150 50  0000 C CNN
F 1 "TLV9062" H 4100 4250 50  0000 C CNN
F 2 "Package_SO:SOIC-8_3.9x4.9mm_P1.27mm" H 4050 3950 50  0001 C CNN
F 3 "https://www.ti.com/lit/ds/symlink/tlv9062.pdf" H 4050 3950 50  0001 C CNN
	1    4050 3950
	1    0    0    1   
$EndComp
Wire Wire Line
	7750 3100 7750 3150
Wire Wire Line
	5600 3350 5500 3350
Wire Wire Line
	5600 3350 5600 3750
Connection ~ 5600 3350
Wire Wire Line
	6050 3350 5600 3350
Wire Wire Line
	6250 3850 6350 3850
Wire Wire Line
	7000 3850 7100 3850
Connection ~ 7000 3850
$Comp
L Device:R_Small R?
U 1 1 5C648148
P 5400 3350
AR Path="/5C5E4922/5C648148" Ref="R?"  Part="1" 
AR Path="/5C60014F/5C648148" Ref="R?"  Part="1" 
AR Path="/5C62C3B9/5C648148" Ref="R?"  Part="1" 
AR Path="/5C661B09/5C661DA8/5C648148" Ref="R?"  Part="1" 
AR Path="/5C661B09/5C661DAE/5C648148" Ref="R?"  Part="1" 
AR Path="/5C661B09/5C662123/5C648148" Ref="R?"  Part="1" 
AR Path="/5C661B09/5C662129/5C648148" Ref="R?"  Part="1" 
AR Path="/5C666787/5C662123/5C648148" Ref="R?"  Part="1" 
AR Path="/5C666787/5C662129/5C648148" Ref="R?"  Part="1" 
AR Path="/5C689EFA/5C662123/5C648148" Ref="R?"  Part="1" 
AR Path="/5C689EFA/5C662129/5C648148" Ref="R?"  Part="1" 
AR Path="/5C68A269/5C68A2E1/5C662123/5C648148" Ref="R407"  Part="1" 
AR Path="/5C68A269/5C68A2E1/5C662129/5C648148" Ref="R507"  Part="1" 
AR Path="/5C68A269/5C68A301/5C662123/5C648148" Ref="R707"  Part="1" 
AR Path="/5C68A269/5C68A301/5C662129/5C648148" Ref="R807"  Part="1" 
F 0 "R807" V 5600 3400 50  0000 C CNN
F 1 "470R" V 5500 3350 50  0000 C CNN
F 2 "Resistor_SMD:R_0805_2012Metric_Pad1.15x1.40mm_HandSolder" H 5400 3350 50  0001 C CNN
F 3 "~" H 5400 3350 50  0001 C CNN
	1    5400 3350
	0    -1   1    0   
$EndComp
Text Notes 5800 2900 0    50   ~ 0
Optional
Wire Wire Line
	4750 3950 4850 3950
Connection ~ 5000 3950
Wire Wire Line
	5000 3100 5000 3950
Wire Wire Line
	5450 3100 5000 3100
Wire Notes Line
	5100 3300 6800 3300
Wire Wire Line
	7750 3400 7750 3350
Wire Wire Line
	7100 3400 7100 3650
Wire Wire Line
	7750 3400 7100 3400
Wire Wire Line
	7750 3750 7850 3750
Wire Wire Line
	7750 3650 7750 3750
Connection ~ 7750 3400
Wire Wire Line
	7750 3450 7750 3400
$Comp
L Device:R_Small R?
U 1 1 5C625DBF
P 7750 3250
AR Path="/5C5E4922/5C625DBF" Ref="R?"  Part="1" 
AR Path="/5C60014F/5C625DBF" Ref="R?"  Part="1" 
AR Path="/5C62C3B9/5C625DBF" Ref="R?"  Part="1" 
AR Path="/5C661B09/5C661DA8/5C625DBF" Ref="R?"  Part="1" 
AR Path="/5C661B09/5C661DAE/5C625DBF" Ref="R?"  Part="1" 
AR Path="/5C661B09/5C662123/5C625DBF" Ref="R?"  Part="1" 
AR Path="/5C661B09/5C662129/5C625DBF" Ref="R?"  Part="1" 
AR Path="/5C666787/5C662123/5C625DBF" Ref="R?"  Part="1" 
AR Path="/5C666787/5C662129/5C625DBF" Ref="R?"  Part="1" 
AR Path="/5C689EFA/5C662123/5C625DBF" Ref="R?"  Part="1" 
AR Path="/5C689EFA/5C662129/5C625DBF" Ref="R?"  Part="1" 
AR Path="/5C68A269/5C68A2E1/5C662123/5C625DBF" Ref="R411"  Part="1" 
AR Path="/5C68A269/5C68A2E1/5C662129/5C625DBF" Ref="R511"  Part="1" 
AR Path="/5C68A269/5C68A301/5C662123/5C625DBF" Ref="R711"  Part="1" 
AR Path="/5C68A269/5C68A301/5C662129/5C625DBF" Ref="R811"  Part="1" 
F 0 "R811" H 7950 3300 50  0000 C CNN
F 1 "150R" H 7950 3200 50  0000 C CNN
F 2 "Resistor_SMD:R_0805_2012Metric_Pad1.15x1.40mm_HandSolder" H 7750 3250 50  0001 C CNN
F 3 "~" H 7750 3250 50  0001 C CNN
	1    7750 3250
	1    0    0    -1  
$EndComp
Connection ~ 6250 3850
Wire Wire Line
	6200 3850 6250 3850
Connection ~ 7750 3750
Wire Wire Line
	7700 3750 7750 3750
Text Notes 5250 3050 0    50   ~ 0
These two or everything but R_bypass
$Comp
L Comparator:LM393 U?
U 1 1 5C5F2F61
P 7400 3750
AR Path="/5C5EEFD0/5C5F2F61" Ref="U?"  Part="2" 
AR Path="/5C5E4922/5C5F2F61" Ref="U?"  Part="1" 
AR Path="/5C60014F/5C5F2F61" Ref="U?"  Part="1" 
AR Path="/5C62C3B9/5C5F2F61" Ref="U?"  Part="2" 
AR Path="/5C661B09/5C661DA8/5C5F2F61" Ref="U?"  Part="2" 
AR Path="/5C661B09/5C661DAE/5C5F2F61" Ref="U?"  Part="2" 
AR Path="/5C661B09/5C662123/5C5F2F61" Ref="U?"  Part="2" 
AR Path="/5C661B09/5C662129/5C5F2F61" Ref="U?"  Part="1" 
AR Path="/5C666787/5C662123/5C5F2F61" Ref="U?"  Part="2" 
AR Path="/5C666787/5C662129/5C5F2F61" Ref="U?"  Part="1" 
AR Path="/5C689EFA/5C662123/5C5F2F61" Ref="U?"  Part="1" 
AR Path="/5C689EFA/5C662129/5C5F2F61" Ref="U?"  Part="1" 
AR Path="/5C68A269/5C68A2E1/5C662123/5C5F2F61" Ref="U301"  Part="2" 
AR Path="/5C68A269/5C68A2E1/5C662129/5C5F2F61" Ref="U301"  Part="1" 
AR Path="/5C68A269/5C68A301/5C662123/5C5F2F61" Ref="U601"  Part="2" 
AR Path="/5C68A269/5C68A301/5C662129/5C5F2F61" Ref="U601"  Part="1" 
F 0 "U601" H 7550 3600 50  0000 C CNN
F 1 "TLV3202" H 7550 3500 50  0000 C CNN
F 2 "Package_SO:SOIC-8_3.9x4.9mm_P1.27mm" H 7400 3750 50  0001 C CNN
F 3 "https://www.ti.com/lit/ds/symlink/tlv3201.pdf" H 7400 3750 50  0001 C CNN
F 4 "" H 100 0   50  0001 C CNN "Note"
	1    7400 3750
	1    0    0    -1  
$EndComp
Wire Wire Line
	3650 4500 3650 4550
$Comp
L power:VAA #PWR?
U 1 1 5C5EAE93
P 3650 4550
AR Path="/5C5E4922/5C5EAE93" Ref="#PWR?"  Part="1" 
AR Path="/5C60014F/5C5EAE93" Ref="#PWR?"  Part="1" 
AR Path="/5C62C3B9/5C5EAE93" Ref="#PWR?"  Part="1" 
AR Path="/5C661B09/5C661DA8/5C5EAE93" Ref="#PWR?"  Part="1" 
AR Path="/5C661B09/5C661DAE/5C5EAE93" Ref="#PWR?"  Part="1" 
AR Path="/5C661B09/5C662123/5C5EAE93" Ref="#PWR?"  Part="1" 
AR Path="/5C661B09/5C662129/5C5EAE93" Ref="#PWR?"  Part="1" 
AR Path="/5C666787/5C662123/5C5EAE93" Ref="#PWR?"  Part="1" 
AR Path="/5C666787/5C662129/5C5EAE93" Ref="#PWR?"  Part="1" 
AR Path="/5C689EFA/5C662123/5C5EAE93" Ref="#PWR?"  Part="1" 
AR Path="/5C689EFA/5C662129/5C5EAE93" Ref="#PWR?"  Part="1" 
AR Path="/5C68A269/5C68A2E1/5C662123/5C5EAE93" Ref="#PWR0401"  Part="1" 
AR Path="/5C68A269/5C68A2E1/5C662129/5C5EAE93" Ref="#PWR0501"  Part="1" 
AR Path="/5C68A269/5C68A301/5C662123/5C5EAE93" Ref="#PWR0701"  Part="1" 
AR Path="/5C68A269/5C68A301/5C662129/5C5EAE93" Ref="#PWR0801"  Part="1" 
F 0 "#PWR0801" H 3650 4400 50  0001 C CNN
F 1 "VAA" H 3668 4723 50  0000 C CNN
F 2 "" H 3650 4550 50  0001 C CNN
F 3 "" H 3650 4550 50  0001 C CNN
	1    3650 4550
	-1   0    0    1   
$EndComp
$Comp
L Device:R_Small R?
U 1 1 5C5EA2E8
P 5550 3100
AR Path="/5C5E4922/5C5EA2E8" Ref="R?"  Part="1" 
AR Path="/5C60014F/5C5EA2E8" Ref="R?"  Part="1" 
AR Path="/5C62C3B9/5C5EA2E8" Ref="R?"  Part="1" 
AR Path="/5C661B09/5C661DA8/5C5EA2E8" Ref="R?"  Part="1" 
AR Path="/5C661B09/5C661DAE/5C5EA2E8" Ref="R?"  Part="1" 
AR Path="/5C661B09/5C662123/5C5EA2E8" Ref="R?"  Part="1" 
AR Path="/5C661B09/5C662129/5C5EA2E8" Ref="R?"  Part="1" 
AR Path="/5C666787/5C662123/5C5EA2E8" Ref="R?"  Part="1" 
AR Path="/5C666787/5C662129/5C5EA2E8" Ref="R?"  Part="1" 
AR Path="/5C689EFA/5C662123/5C5EA2E8" Ref="R?"  Part="1" 
AR Path="/5C689EFA/5C662129/5C5EA2E8" Ref="R?"  Part="1" 
AR Path="/5C68A269/5C68A2E1/5C662123/5C5EA2E8" Ref="R408"  Part="1" 
AR Path="/5C68A269/5C68A2E1/5C662129/5C5EA2E8" Ref="R508"  Part="1" 
AR Path="/5C68A269/5C68A301/5C662123/5C5EA2E8" Ref="R708"  Part="1" 
AR Path="/5C68A269/5C68A301/5C662129/5C5EA2E8" Ref="R808"  Part="1" 
F 0 "R808" V 5634 3245 50  0000 C CNN
F 1 "open" V 5633 2960 50  0000 C CNN
F 2 "Resistor_SMD:R_0805_2012Metric_Pad1.15x1.40mm_HandSolder" H 5550 3100 50  0001 C CNN
F 3 "~" H 5550 3100 50  0001 C CNN
F 4 "bypass second amp" V 5550 3100 50  0001 C CNN "Note"
	1    5550 3100
	0    1    1    0   
$EndComp
Text HLabel 7850 3750 2    50   Input ~ 0
3-stage_triggered-out
$Comp
L power:VAA #PWR?
U 1 1 5C6063EE
P 7750 3100
AR Path="/5C5E4922/5C6063EE" Ref="#PWR?"  Part="1" 
AR Path="/5C60014F/5C6063EE" Ref="#PWR?"  Part="1" 
AR Path="/5C62C3B9/5C6063EE" Ref="#PWR?"  Part="1" 
AR Path="/5C661B09/5C661DA8/5C6063EE" Ref="#PWR?"  Part="1" 
AR Path="/5C661B09/5C661DAE/5C6063EE" Ref="#PWR?"  Part="1" 
AR Path="/5C661B09/5C662123/5C6063EE" Ref="#PWR?"  Part="1" 
AR Path="/5C661B09/5C662129/5C6063EE" Ref="#PWR?"  Part="1" 
AR Path="/5C666787/5C662123/5C6063EE" Ref="#PWR?"  Part="1" 
AR Path="/5C666787/5C662129/5C6063EE" Ref="#PWR?"  Part="1" 
AR Path="/5C689EFA/5C662123/5C6063EE" Ref="#PWR?"  Part="1" 
AR Path="/5C689EFA/5C662129/5C6063EE" Ref="#PWR?"  Part="1" 
AR Path="/5C68A269/5C68A2E1/5C662123/5C6063EE" Ref="#PWR0406"  Part="1" 
AR Path="/5C68A269/5C68A2E1/5C662129/5C6063EE" Ref="#PWR0506"  Part="1" 
AR Path="/5C68A269/5C68A301/5C662123/5C6063EE" Ref="#PWR0706"  Part="1" 
AR Path="/5C68A269/5C68A301/5C662129/5C6063EE" Ref="#PWR0806"  Part="1" 
F 0 "#PWR0806" H 7750 2950 50  0001 C CNN
F 1 "VAA" V 7768 3227 50  0000 L CNN
F 2 "" H 7750 3100 50  0001 C CNN
F 3 "" H 7750 3100 50  0001 C CNN
	1    7750 3100
	-1   0    0    -1  
$EndComp
Wire Wire Line
	4450 4300 4450 4250
$Comp
L power:Earth #PWR?
U 1 1 5C6063EB
P 4450 4300
AR Path="/5C5E4922/5C6063EB" Ref="#PWR?"  Part="1" 
AR Path="/5C60014F/5C6063EB" Ref="#PWR?"  Part="1" 
AR Path="/5C62C3B9/5C6063EB" Ref="#PWR?"  Part="1" 
AR Path="/5C661B09/5C661DA8/5C6063EB" Ref="#PWR?"  Part="1" 
AR Path="/5C661B09/5C661DAE/5C6063EB" Ref="#PWR?"  Part="1" 
AR Path="/5C661B09/5C662123/5C6063EB" Ref="#PWR?"  Part="1" 
AR Path="/5C661B09/5C662129/5C6063EB" Ref="#PWR?"  Part="1" 
AR Path="/5C666787/5C662123/5C6063EB" Ref="#PWR?"  Part="1" 
AR Path="/5C666787/5C662129/5C6063EB" Ref="#PWR?"  Part="1" 
AR Path="/5C689EFA/5C662123/5C6063EB" Ref="#PWR?"  Part="1" 
AR Path="/5C689EFA/5C662129/5C6063EB" Ref="#PWR?"  Part="1" 
AR Path="/5C68A269/5C68A2E1/5C662123/5C6063EB" Ref="#PWR0402"  Part="1" 
AR Path="/5C68A269/5C68A2E1/5C662129/5C6063EB" Ref="#PWR0502"  Part="1" 
AR Path="/5C68A269/5C68A301/5C662123/5C6063EB" Ref="#PWR0702"  Part="1" 
AR Path="/5C68A269/5C68A301/5C662129/5C6063EB" Ref="#PWR0802"  Part="1" 
F 0 "#PWR0802" H 4450 4050 50  0001 C CNN
F 1 "Earth" H 4450 4150 50  0001 C CNN
F 2 "" H 4450 4300 50  0001 C CNN
F 3 "~" H 4450 4300 50  0001 C CNN
	1    4450 4300
	1    0    0    -1  
$EndComp
$Comp
L Device:R_Small R?
U 1 1 5C5E51A3
P 7750 3550
AR Path="/5C5E4922/5C5E51A3" Ref="R?"  Part="1" 
AR Path="/5C60014F/5C5E51A3" Ref="R?"  Part="1" 
AR Path="/5C62C3B9/5C5E51A3" Ref="R?"  Part="1" 
AR Path="/5C661B09/5C661DA8/5C5E51A3" Ref="R?"  Part="1" 
AR Path="/5C661B09/5C661DAE/5C5E51A3" Ref="R?"  Part="1" 
AR Path="/5C661B09/5C662123/5C5E51A3" Ref="R?"  Part="1" 
AR Path="/5C661B09/5C662129/5C5E51A3" Ref="R?"  Part="1" 
AR Path="/5C666787/5C662123/5C5E51A3" Ref="R?"  Part="1" 
AR Path="/5C666787/5C662129/5C5E51A3" Ref="R?"  Part="1" 
AR Path="/5C689EFA/5C662123/5C5E51A3" Ref="R?"  Part="1" 
AR Path="/5C689EFA/5C662129/5C5E51A3" Ref="R?"  Part="1" 
AR Path="/5C68A269/5C68A2E1/5C662123/5C5E51A3" Ref="R412"  Part="1" 
AR Path="/5C68A269/5C68A2E1/5C662129/5C5E51A3" Ref="R512"  Part="1" 
AR Path="/5C68A269/5C68A301/5C662123/5C5E51A3" Ref="R712"  Part="1" 
AR Path="/5C68A269/5C68A301/5C662129/5C5E51A3" Ref="R812"  Part="1" 
F 0 "R812" H 7950 3600 50  0000 C CNN
F 1 "10K" H 7950 3500 50  0000 C CNN
F 2 "Resistor_SMD:R_0805_2012Metric_Pad1.15x1.40mm_HandSolder" H 7750 3550 50  0001 C CNN
F 3 "~" H 7750 3550 50  0001 C CNN
	1    7750 3550
	1    0    0    -1  
$EndComp
Wire Wire Line
	6650 3850 7000 3850
Wire Wire Line
	6550 3850 6650 3850
Connection ~ 6650 3850
$Comp
L Device:C_Small C?
U 1 1 5C5E5199
P 6650 3950
AR Path="/5C5E4922/5C5E5199" Ref="C?"  Part="1" 
AR Path="/5C60014F/5C5E5199" Ref="C?"  Part="1" 
AR Path="/5C62C3B9/5C5E5199" Ref="C?"  Part="1" 
AR Path="/5C661B09/5C661DA8/5C5E5199" Ref="C?"  Part="1" 
AR Path="/5C661B09/5C661DAE/5C5E5199" Ref="C?"  Part="1" 
AR Path="/5C661B09/5C662123/5C5E5199" Ref="C?"  Part="1" 
AR Path="/5C661B09/5C662129/5C5E5199" Ref="C?"  Part="1" 
AR Path="/5C666787/5C662123/5C5E5199" Ref="C?"  Part="1" 
AR Path="/5C666787/5C662129/5C5E5199" Ref="C?"  Part="1" 
AR Path="/5C689EFA/5C662123/5C5E5199" Ref="C?"  Part="1" 
AR Path="/5C689EFA/5C662129/5C5E5199" Ref="C?"  Part="1" 
AR Path="/5C68A269/5C68A2E1/5C662123/5C5E5199" Ref="C404"  Part="1" 
AR Path="/5C68A269/5C68A2E1/5C662129/5C5E5199" Ref="C504"  Part="1" 
AR Path="/5C68A269/5C68A301/5C662123/5C5E5199" Ref="C704"  Part="1" 
AR Path="/5C68A269/5C68A301/5C662129/5C5E5199" Ref="C804"  Part="1" 
F 0 "C804" H 6450 4250 50  0000 L CNN
F 1 "100p" H 6450 4150 50  0000 L CNN
F 2 "Capacitor_SMD:C_0805_2012Metric_Pad1.15x1.40mm_HandSolder" H 6650 3950 50  0001 C CNN
F 3 "~" H 6650 3950 50  0001 C CNN
F 4 "" H 0   0   50  0001 C CNN "Note"
	1    6650 3950
	1    0    0    -1  
$EndComp
$Comp
L Device:R_Small R?
U 1 1 5C5E5191
P 6450 3850
AR Path="/5C5E4922/5C5E5191" Ref="R?"  Part="1" 
AR Path="/5C60014F/5C5E5191" Ref="R?"  Part="1" 
AR Path="/5C62C3B9/5C5E5191" Ref="R?"  Part="1" 
AR Path="/5C661B09/5C661DA8/5C5E5191" Ref="R?"  Part="1" 
AR Path="/5C661B09/5C661DAE/5C5E5191" Ref="R?"  Part="1" 
AR Path="/5C661B09/5C662123/5C5E5191" Ref="R?"  Part="1" 
AR Path="/5C661B09/5C662129/5C5E5191" Ref="R?"  Part="1" 
AR Path="/5C666787/5C662123/5C5E5191" Ref="R?"  Part="1" 
AR Path="/5C666787/5C662129/5C5E5191" Ref="R?"  Part="1" 
AR Path="/5C689EFA/5C662123/5C5E5191" Ref="R?"  Part="1" 
AR Path="/5C689EFA/5C662129/5C5E5191" Ref="R?"  Part="1" 
AR Path="/5C68A269/5C68A2E1/5C662123/5C5E5191" Ref="R410"  Part="1" 
AR Path="/5C68A269/5C68A2E1/5C662129/5C5E5191" Ref="R510"  Part="1" 
AR Path="/5C68A269/5C68A301/5C662123/5C5E5191" Ref="R710"  Part="1" 
AR Path="/5C68A269/5C68A301/5C662129/5C5E5191" Ref="R810"  Part="1" 
F 0 "R810" V 6350 3900 50  0000 C CNN
F 1 "1K" V 6250 3900 50  0000 C CNN
F 2 "Resistor_SMD:R_0805_2012Metric_Pad1.15x1.40mm_HandSolder" H 6450 3850 50  0001 C CNN
F 3 "~" H 6450 3850 50  0001 C CNN
	1    6450 3850
	0    -1   -1   0   
$EndComp
$Comp
L Device:R_Small R?
U 1 1 5C5E5186
P 6150 3250
AR Path="/5C5E4922/5C5E5186" Ref="R?"  Part="1" 
AR Path="/5C60014F/5C5E5186" Ref="R?"  Part="1" 
AR Path="/5C62C3B9/5C5E5186" Ref="R?"  Part="1" 
AR Path="/5C661B09/5C661DA8/5C5E5186" Ref="R?"  Part="1" 
AR Path="/5C661B09/5C661DAE/5C5E5186" Ref="R?"  Part="1" 
AR Path="/5C661B09/5C662123/5C5E5186" Ref="R?"  Part="1" 
AR Path="/5C661B09/5C662129/5C5E5186" Ref="R?"  Part="1" 
AR Path="/5C666787/5C662123/5C5E5186" Ref="R?"  Part="1" 
AR Path="/5C666787/5C662129/5C5E5186" Ref="R?"  Part="1" 
AR Path="/5C689EFA/5C662123/5C5E5186" Ref="R?"  Part="1" 
AR Path="/5C689EFA/5C662129/5C5E5186" Ref="R?"  Part="1" 
AR Path="/5C68A269/5C68A2E1/5C662123/5C5E5186" Ref="R409"  Part="1" 
AR Path="/5C68A269/5C68A2E1/5C662129/5C5E5186" Ref="R509"  Part="1" 
AR Path="/5C68A269/5C68A301/5C662123/5C5E5186" Ref="R709"  Part="1" 
AR Path="/5C68A269/5C68A301/5C662129/5C5E5186" Ref="R809"  Part="1" 
F 0 "R809" V 6150 3000 50  0000 C CNN
F 1 "4K7" V 6250 3200 50  0000 C CNN
F 2 "Resistor_SMD:R_0805_2012Metric_Pad1.15x1.40mm_HandSolder" H 6150 3250 50  0001 C CNN
F 3 "~" H 6150 3250 50  0001 C CNN
	1    6150 3250
	0    -1   -1   0   
$EndComp
Wire Wire Line
	4350 3950 4450 3950
Wire Wire Line
	4450 3950 4550 3950
Connection ~ 4450 3950
Wire Wire Line
	4450 4050 4450 3950
$Comp
L Device:R_Small R?
U 1 1 5C6063E4
P 4850 3550
AR Path="/5C5E4922/5C6063E4" Ref="R?"  Part="1" 
AR Path="/5C60014F/5C6063E4" Ref="R?"  Part="1" 
AR Path="/5C62C3B9/5C6063E4" Ref="R?"  Part="1" 
AR Path="/5C661B09/5C661DA8/5C6063E4" Ref="R?"  Part="1" 
AR Path="/5C661B09/5C661DAE/5C6063E4" Ref="R?"  Part="1" 
AR Path="/5C661B09/5C662123/5C6063E4" Ref="R?"  Part="1" 
AR Path="/5C661B09/5C662129/5C6063E4" Ref="R?"  Part="1" 
AR Path="/5C666787/5C662123/5C6063E4" Ref="R?"  Part="1" 
AR Path="/5C666787/5C662129/5C6063E4" Ref="R?"  Part="1" 
AR Path="/5C689EFA/5C662123/5C6063E4" Ref="R?"  Part="1" 
AR Path="/5C689EFA/5C662129/5C6063E4" Ref="R?"  Part="1" 
AR Path="/5C68A269/5C68A2E1/5C662123/5C6063E4" Ref="R406"  Part="1" 
AR Path="/5C68A269/5C68A2E1/5C662129/5C6063E4" Ref="R506"  Part="1" 
AR Path="/5C68A269/5C68A301/5C662123/5C6063E4" Ref="R706"  Part="1" 
AR Path="/5C68A269/5C68A301/5C662129/5C6063E4" Ref="R806"  Part="1" 
F 0 "R806" H 5000 3600 50  0000 C CNN
F 1 "1K" H 5050 3500 50  0000 C CNN
F 2 "Resistor_SMD:R_0805_2012Metric_Pad1.15x1.40mm_HandSolder" H 4850 3550 50  0001 C CNN
F 3 "~" H 4850 3550 50  0001 C CNN
	1    4850 3550
	-1   0    0    -1  
$EndComp
$Comp
L Device:R_Small R?
U 1 1 5C5E5168
P 4450 4150
AR Path="/5C5E4922/5C5E5168" Ref="R?"  Part="1" 
AR Path="/5C60014F/5C5E5168" Ref="R?"  Part="1" 
AR Path="/5C62C3B9/5C5E5168" Ref="R?"  Part="1" 
AR Path="/5C661B09/5C661DA8/5C5E5168" Ref="R?"  Part="1" 
AR Path="/5C661B09/5C661DAE/5C5E5168" Ref="R?"  Part="1" 
AR Path="/5C661B09/5C662123/5C5E5168" Ref="R?"  Part="1" 
AR Path="/5C661B09/5C662129/5C5E5168" Ref="R?"  Part="1" 
AR Path="/5C666787/5C662123/5C5E5168" Ref="R?"  Part="1" 
AR Path="/5C666787/5C662129/5C5E5168" Ref="R?"  Part="1" 
AR Path="/5C689EFA/5C662123/5C5E5168" Ref="R?"  Part="1" 
AR Path="/5C689EFA/5C662129/5C5E5168" Ref="R?"  Part="1" 
AR Path="/5C68A269/5C68A2E1/5C662123/5C5E5168" Ref="R405"  Part="1" 
AR Path="/5C68A269/5C68A2E1/5C662129/5C5E5168" Ref="R505"  Part="1" 
AR Path="/5C68A269/5C68A301/5C662123/5C5E5168" Ref="R705"  Part="1" 
AR Path="/5C68A269/5C68A301/5C662129/5C5E5168" Ref="R805"  Part="1" 
F 0 "R805" H 4650 4200 50  0000 C CNN
F 1 "open" H 4700 4100 50  0000 C CNN
F 2 "Resistor_SMD:R_0805_2012Metric_Pad1.15x1.40mm_HandSolder" H 4450 4150 50  0001 C CNN
F 3 "~" H 4450 4150 50  0001 C CNN
	1    4450 4150
	1    0    0    -1  
$EndComp
$Comp
L Device:C_Small C?
U 1 1 5C6063E2
P 4650 3950
AR Path="/5C5E4922/5C6063E2" Ref="C?"  Part="1" 
AR Path="/5C60014F/5C6063E2" Ref="C?"  Part="1" 
AR Path="/5C62C3B9/5C6063E2" Ref="C?"  Part="1" 
AR Path="/5C661B09/5C661DA8/5C6063E2" Ref="C?"  Part="1" 
AR Path="/5C661B09/5C661DAE/5C6063E2" Ref="C?"  Part="1" 
AR Path="/5C661B09/5C662123/5C6063E2" Ref="C?"  Part="1" 
AR Path="/5C661B09/5C662129/5C6063E2" Ref="C?"  Part="1" 
AR Path="/5C666787/5C662123/5C6063E2" Ref="C?"  Part="1" 
AR Path="/5C666787/5C662129/5C6063E2" Ref="C?"  Part="1" 
AR Path="/5C689EFA/5C662123/5C6063E2" Ref="C?"  Part="1" 
AR Path="/5C689EFA/5C662129/5C6063E2" Ref="C?"  Part="1" 
AR Path="/5C68A269/5C68A2E1/5C662123/5C6063E2" Ref="C403"  Part="1" 
AR Path="/5C68A269/5C68A2E1/5C662129/5C6063E2" Ref="C503"  Part="1" 
AR Path="/5C68A269/5C68A301/5C662123/5C6063E2" Ref="C703"  Part="1" 
AR Path="/5C68A269/5C68A301/5C662129/5C6063E2" Ref="C803"  Part="1" 
F 0 "C803" V 4850 3900 50  0000 L CNN
F 1 "10n" V 4750 3850 50  0000 L CNN
F 2 "Capacitor_SMD:C_0805_2012Metric_Pad1.15x1.40mm_HandSolder" H 4650 3950 50  0001 C CNN
F 3 "~" H 4650 3950 50  0001 C CNN
F 4 "" H -150 0   50  0001 C CNN "Note"
	1    4650 3950
	0    -1   -1   0   
$EndComp
Connection ~ 4350 3950
Wire Wire Line
	4350 3500 4350 3950
Wire Wire Line
	3900 3500 4350 3500
Wire Wire Line
	3800 4500 3650 4500
Wire Wire Line
	3800 4300 3650 4300
Wire Wire Line
	3900 3650 3900 3500
Wire Wire Line
	3150 4150 3400 4150
Wire Wire Line
	3150 3750 3400 3750
$Comp
L Device:R_Small R?
U 1 1 5C6063E1
P 3800 3650
AR Path="/5C5E4922/5C6063E1" Ref="R?"  Part="1" 
AR Path="/5C60014F/5C6063E1" Ref="R?"  Part="1" 
AR Path="/5C62C3B9/5C6063E1" Ref="R?"  Part="1" 
AR Path="/5C661B09/5C661DA8/5C6063E1" Ref="R?"  Part="1" 
AR Path="/5C661B09/5C661DAE/5C6063E1" Ref="R?"  Part="1" 
AR Path="/5C661B09/5C662123/5C6063E1" Ref="R?"  Part="1" 
AR Path="/5C661B09/5C662129/5C6063E1" Ref="R?"  Part="1" 
AR Path="/5C666787/5C662123/5C6063E1" Ref="R?"  Part="1" 
AR Path="/5C666787/5C662129/5C6063E1" Ref="R?"  Part="1" 
AR Path="/5C689EFA/5C662123/5C6063E1" Ref="R?"  Part="1" 
AR Path="/5C689EFA/5C662129/5C6063E1" Ref="R?"  Part="1" 
AR Path="/5C68A269/5C68A2E1/5C662123/5C6063E1" Ref="R404"  Part="1" 
AR Path="/5C68A269/5C68A2E1/5C662129/5C6063E1" Ref="R504"  Part="1" 
AR Path="/5C68A269/5C68A301/5C662123/5C6063E1" Ref="R704"  Part="1" 
AR Path="/5C68A269/5C68A301/5C662129/5C6063E1" Ref="R804"  Part="1" 
F 0 "R804" V 3850 3400 50  0000 C CNN
F 1 "4K7" V 3750 3350 50  0000 C CNN
F 2 "Resistor_SMD:R_0805_2012Metric_Pad1.15x1.40mm_HandSolder" H 3800 3650 50  0001 C CNN
F 3 "~" H 3800 3650 50  0001 C CNN
	1    3800 3650
	0    -1   -1   0   
$EndComp
Connection ~ 3900 3500
$Comp
L Device:C_Small C?
U 1 1 5C6063E0
P 3800 3500
AR Path="/5C5E4922/5C6063E0" Ref="C?"  Part="1" 
AR Path="/5C60014F/5C6063E0" Ref="C?"  Part="1" 
AR Path="/5C62C3B9/5C6063E0" Ref="C?"  Part="1" 
AR Path="/5C661B09/5C661DA8/5C6063E0" Ref="C?"  Part="1" 
AR Path="/5C661B09/5C661DAE/5C6063E0" Ref="C?"  Part="1" 
AR Path="/5C661B09/5C662123/5C6063E0" Ref="C?"  Part="1" 
AR Path="/5C661B09/5C662129/5C6063E0" Ref="C?"  Part="1" 
AR Path="/5C666787/5C662123/5C6063E0" Ref="C?"  Part="1" 
AR Path="/5C666787/5C662129/5C6063E0" Ref="C?"  Part="1" 
AR Path="/5C689EFA/5C662123/5C6063E0" Ref="C?"  Part="1" 
AR Path="/5C689EFA/5C662129/5C6063E0" Ref="C?"  Part="1" 
AR Path="/5C68A269/5C68A2E1/5C662123/5C6063E0" Ref="C401"  Part="1" 
AR Path="/5C68A269/5C68A2E1/5C662129/5C6063E0" Ref="C501"  Part="1" 
AR Path="/5C68A269/5C68A301/5C662123/5C6063E0" Ref="C701"  Part="1" 
AR Path="/5C68A269/5C68A301/5C662129/5C6063E0" Ref="C801"  Part="1" 
F 0 "C801" V 3950 3150 50  0000 L CNN
F 1 "22p" V 3850 3150 50  0000 L CNN
F 2 "Capacitor_SMD:C_0805_2012Metric_Pad1.15x1.40mm_HandSolder" H 3800 3500 50  0001 C CNN
F 3 "~" H 3800 3500 50  0001 C CNN
F 4 "" H -150 0   50  0001 C CNN "Note"
	1    3800 3500
	0    -1   -1   0   
$EndComp
Connection ~ 3650 4500
Connection ~ 3650 4300
$Comp
L Device:R_Small R?
U 1 1 5C6063DF
P 3650 4400
AR Path="/5C5E4922/5C6063DF" Ref="R?"  Part="1" 
AR Path="/5C60014F/5C6063DF" Ref="R?"  Part="1" 
AR Path="/5C62C3B9/5C6063DF" Ref="R?"  Part="1" 
AR Path="/5C661B09/5C661DA8/5C6063DF" Ref="R?"  Part="1" 
AR Path="/5C661B09/5C661DAE/5C6063DF" Ref="R?"  Part="1" 
AR Path="/5C661B09/5C662123/5C6063DF" Ref="R?"  Part="1" 
AR Path="/5C661B09/5C662129/5C6063DF" Ref="R?"  Part="1" 
AR Path="/5C666787/5C662123/5C6063DF" Ref="R?"  Part="1" 
AR Path="/5C666787/5C662129/5C6063DF" Ref="R?"  Part="1" 
AR Path="/5C689EFA/5C662123/5C6063DF" Ref="R?"  Part="1" 
AR Path="/5C689EFA/5C662129/5C6063DF" Ref="R?"  Part="1" 
AR Path="/5C68A269/5C68A2E1/5C662123/5C6063DF" Ref="R403"  Part="1" 
AR Path="/5C68A269/5C68A2E1/5C662129/5C6063DF" Ref="R503"  Part="1" 
AR Path="/5C68A269/5C68A301/5C662123/5C6063DF" Ref="R703"  Part="1" 
AR Path="/5C68A269/5C68A301/5C662129/5C6063DF" Ref="R803"  Part="1" 
F 0 "R803" H 3450 4350 50  0000 C CNN
F 1 "4K7" H 3400 4250 50  0000 C CNN
F 2 "Resistor_SMD:R_0805_2012Metric_Pad1.15x1.40mm_HandSolder" H 3650 4400 50  0001 C CNN
F 3 "~" H 3650 4400 50  0001 C CNN
	1    3650 4400
	1    0    0    -1  
$EndComp
$Comp
L Device:C_Small C?
U 1 1 5C6063DE
P 3800 4400
AR Path="/5C5E4922/5C6063DE" Ref="C?"  Part="1" 
AR Path="/5C60014F/5C6063DE" Ref="C?"  Part="1" 
AR Path="/5C62C3B9/5C6063DE" Ref="C?"  Part="1" 
AR Path="/5C661B09/5C661DA8/5C6063DE" Ref="C?"  Part="1" 
AR Path="/5C661B09/5C661DAE/5C6063DE" Ref="C?"  Part="1" 
AR Path="/5C661B09/5C662123/5C6063DE" Ref="C?"  Part="1" 
AR Path="/5C661B09/5C662129/5C6063DE" Ref="C?"  Part="1" 
AR Path="/5C666787/5C662123/5C6063DE" Ref="C?"  Part="1" 
AR Path="/5C666787/5C662129/5C6063DE" Ref="C?"  Part="1" 
AR Path="/5C689EFA/5C662123/5C6063DE" Ref="C?"  Part="1" 
AR Path="/5C689EFA/5C662129/5C6063DE" Ref="C?"  Part="1" 
AR Path="/5C68A269/5C68A2E1/5C662123/5C6063DE" Ref="C402"  Part="1" 
AR Path="/5C68A269/5C68A2E1/5C662129/5C6063DE" Ref="C502"  Part="1" 
AR Path="/5C68A269/5C68A301/5C662123/5C6063DE" Ref="C702"  Part="1" 
AR Path="/5C68A269/5C68A301/5C662129/5C6063DE" Ref="C802"  Part="1" 
F 0 "C802" H 3900 4350 50  0000 L CNN
F 1 "22p" H 3900 4250 50  0000 L CNN
F 2 "Capacitor_SMD:C_0805_2012Metric_Pad1.15x1.40mm_HandSolder" H 3800 4400 50  0001 C CNN
F 3 "~" H 3800 4400 50  0001 C CNN
F 4 "" H -150 -100 50  0001 C CNN "Note"
	1    3800 4400
	1    0    0    -1  
$EndComp
$Comp
L Device:R_Small R?
U 1 1 5C5E511A
P 3550 4150
AR Path="/5C5E4922/5C5E511A" Ref="R?"  Part="1" 
AR Path="/5C60014F/5C5E511A" Ref="R?"  Part="1" 
AR Path="/5C62C3B9/5C5E511A" Ref="R?"  Part="1" 
AR Path="/5C661B09/5C661DA8/5C5E511A" Ref="R?"  Part="1" 
AR Path="/5C661B09/5C661DAE/5C5E511A" Ref="R?"  Part="1" 
AR Path="/5C661B09/5C662123/5C5E511A" Ref="R?"  Part="1" 
AR Path="/5C661B09/5C662129/5C5E511A" Ref="R?"  Part="1" 
AR Path="/5C666787/5C662123/5C5E511A" Ref="R?"  Part="1" 
AR Path="/5C666787/5C662129/5C5E511A" Ref="R?"  Part="1" 
AR Path="/5C689EFA/5C662123/5C5E511A" Ref="R?"  Part="1" 
AR Path="/5C689EFA/5C662129/5C5E511A" Ref="R?"  Part="1" 
AR Path="/5C68A269/5C68A2E1/5C662123/5C5E511A" Ref="R402"  Part="1" 
AR Path="/5C68A269/5C68A2E1/5C662129/5C5E511A" Ref="R502"  Part="1" 
AR Path="/5C68A269/5C68A301/5C662123/5C5E511A" Ref="R702"  Part="1" 
AR Path="/5C68A269/5C68A301/5C662129/5C5E511A" Ref="R802"  Part="1" 
F 0 "R802" V 3500 4400 50  0000 C CNN
F 1 "0R" V 3400 4350 50  0000 C CNN
F 2 "Resistor_SMD:R_0805_2012Metric_Pad1.15x1.40mm_HandSolder" H 3550 4150 50  0001 C CNN
F 3 "~" H 3550 4150 50  0001 C CNN
	1    3550 4150
	0    -1   -1   0   
$EndComp
$Comp
L Device:R_Small R?
U 1 1 5C5E510C
P 3550 3750
AR Path="/5C5E4922/5C5E510C" Ref="R?"  Part="1" 
AR Path="/5C60014F/5C5E510C" Ref="R?"  Part="1" 
AR Path="/5C62C3B9/5C5E510C" Ref="R?"  Part="1" 
AR Path="/5C661B09/5C661DA8/5C5E510C" Ref="R?"  Part="1" 
AR Path="/5C661B09/5C661DAE/5C5E510C" Ref="R?"  Part="1" 
AR Path="/5C661B09/5C662123/5C5E510C" Ref="R?"  Part="1" 
AR Path="/5C661B09/5C662129/5C5E510C" Ref="R?"  Part="1" 
AR Path="/5C666787/5C662123/5C5E510C" Ref="R?"  Part="1" 
AR Path="/5C666787/5C662129/5C5E510C" Ref="R?"  Part="1" 
AR Path="/5C689EFA/5C662123/5C5E510C" Ref="R?"  Part="1" 
AR Path="/5C689EFA/5C662129/5C5E510C" Ref="R?"  Part="1" 
AR Path="/5C68A269/5C68A2E1/5C662123/5C5E510C" Ref="R401"  Part="1" 
AR Path="/5C68A269/5C68A2E1/5C662129/5C5E510C" Ref="R501"  Part="1" 
AR Path="/5C68A269/5C68A301/5C662123/5C5E510C" Ref="R701"  Part="1" 
AR Path="/5C68A269/5C68A301/5C662129/5C5E510C" Ref="R801"  Part="1" 
F 0 "R801" V 3750 3900 50  0000 C CNN
F 1 "0R" V 3650 3850 50  0000 C CNN
F 2 "Resistor_SMD:R_0805_2012Metric_Pad1.15x1.40mm_HandSolder" H 3550 3750 50  0001 C CNN
F 3 "~" H 3550 3750 50  0001 C CNN
	1    3550 3750
	0    -1   -1   0   
$EndComp
Text HLabel 7850 4250 2    50   Input ~ 0
VAA
Text HLabel 7850 4350 2    50   Input ~ 0
GND
Text HLabel 7850 4150 2    50   Input ~ 0
V_analog
$Comp
L power:Earth #PWR?
U 1 1 5C65DB4A
P 7750 4400
AR Path="/5C5E4922/5C65DB4A" Ref="#PWR?"  Part="1" 
AR Path="/5C60014F/5C65DB4A" Ref="#PWR?"  Part="1" 
AR Path="/5C62C3B9/5C65DB4A" Ref="#PWR?"  Part="1" 
AR Path="/5C661B09/5C661DA8/5C65DB4A" Ref="#PWR?"  Part="1" 
AR Path="/5C661B09/5C661DAE/5C65DB4A" Ref="#PWR?"  Part="1" 
AR Path="/5C661B09/5C662123/5C65DB4A" Ref="#PWR?"  Part="1" 
AR Path="/5C661B09/5C662129/5C65DB4A" Ref="#PWR?"  Part="1" 
AR Path="/5C666787/5C662123/5C65DB4A" Ref="#PWR?"  Part="1" 
AR Path="/5C666787/5C662129/5C65DB4A" Ref="#PWR?"  Part="1" 
AR Path="/5C689EFA/5C662123/5C65DB4A" Ref="#PWR?"  Part="1" 
AR Path="/5C689EFA/5C662129/5C65DB4A" Ref="#PWR?"  Part="1" 
AR Path="/5C68A269/5C68A2E1/5C662123/5C65DB4A" Ref="#PWR0408"  Part="1" 
AR Path="/5C68A269/5C68A2E1/5C662129/5C65DB4A" Ref="#PWR0508"  Part="1" 
AR Path="/5C68A269/5C68A301/5C662123/5C65DB4A" Ref="#PWR0708"  Part="1" 
AR Path="/5C68A269/5C68A301/5C662129/5C65DB4A" Ref="#PWR0808"  Part="1" 
F 0 "#PWR0808" H 7750 4150 50  0001 C CNN
F 1 "Earth" H 7750 4250 50  0001 C CNN
F 2 "" H 7750 4400 50  0001 C CNN
F 3 "~" H 7750 4400 50  0001 C CNN
	1    7750 4400
	1    0    0    -1  
$EndComp
Wire Wire Line
	7850 4350 7750 4350
Wire Wire Line
	7750 4400 7750 4350
$Comp
L power:VAA #PWR?
U 1 1 5C66B70A
P 7750 4250
AR Path="/5C5E4922/5C66B70A" Ref="#PWR?"  Part="1" 
AR Path="/5C60014F/5C66B70A" Ref="#PWR?"  Part="1" 
AR Path="/5C62C3B9/5C66B70A" Ref="#PWR?"  Part="1" 
AR Path="/5C661B09/5C661DA8/5C66B70A" Ref="#PWR?"  Part="1" 
AR Path="/5C661B09/5C661DAE/5C66B70A" Ref="#PWR?"  Part="1" 
AR Path="/5C661B09/5C662123/5C66B70A" Ref="#PWR?"  Part="1" 
AR Path="/5C661B09/5C662129/5C66B70A" Ref="#PWR?"  Part="1" 
AR Path="/5C666787/5C662123/5C66B70A" Ref="#PWR?"  Part="1" 
AR Path="/5C666787/5C662129/5C66B70A" Ref="#PWR?"  Part="1" 
AR Path="/5C689EFA/5C662123/5C66B70A" Ref="#PWR?"  Part="1" 
AR Path="/5C689EFA/5C662129/5C66B70A" Ref="#PWR?"  Part="1" 
AR Path="/5C68A269/5C68A2E1/5C662123/5C66B70A" Ref="#PWR0407"  Part="1" 
AR Path="/5C68A269/5C68A2E1/5C662129/5C66B70A" Ref="#PWR0507"  Part="1" 
AR Path="/5C68A269/5C68A301/5C662123/5C66B70A" Ref="#PWR0707"  Part="1" 
AR Path="/5C68A269/5C68A301/5C662129/5C66B70A" Ref="#PWR0807"  Part="1" 
F 0 "#PWR0807" H 7750 4100 50  0001 C CNN
F 1 "VAA" V 7751 4362 50  0000 L CNN
F 2 "" H 7750 4250 50  0001 C CNN
F 3 "" H 7750 4250 50  0001 C CNN
	1    7750 4250
	0    -1   1    0   
$EndComp
Wire Wire Line
	7850 4250 7750 4250
$Comp
L Device:Opamp_Dual_Generic U?
U 3 1 5C635278
P 6950 4450
AR Path="/5C5FAFFD/5C635278" Ref="U?"  Part="3" 
AR Path="/5C5E4922/5C635278" Ref="U?"  Part="3" 
AR Path="/5C62C3B9/5C635278" Ref="U?"  Part="3" 
AR Path="/5C661B09/5C661DA8/5C635278" Ref="U?"  Part="3" 
AR Path="/5C661B09/5C661DAE/5C635278" Ref="U?"  Part="3" 
AR Path="/5C661B09/5C662123/5C635278" Ref="U?"  Part="3" 
AR Path="/5C661B09/5C662129/5C635278" Ref="U?"  Part="3" 
AR Path="/5C666787/5C662123/5C635278" Ref="U?"  Part="3" 
AR Path="/5C666787/5C662129/5C635278" Ref="U?"  Part="3" 
AR Path="/5C689EFA/5C662123/5C635278" Ref="U?"  Part="3" 
AR Path="/5C689EFA/5C662129/5C635278" Ref="U?"  Part="3" 
AR Path="/5C68A269/5C68A2E1/5C662123/5C635278" Ref="U401"  Part="3" 
AR Path="/5C68A269/5C68A2E1/5C662129/5C635278" Ref="U501"  Part="3" 
AR Path="/5C68A269/5C68A301/5C662123/5C635278" Ref="U701"  Part="3" 
AR Path="/5C68A269/5C68A301/5C662129/5C635278" Ref="U801"  Part="3" 
F 0 "U801" H 7250 4500 50  0000 R CNN
F 1 "TLV9062" H 7250 4400 50  0000 R CNN
F 2 "Package_SO:SOIC-8_3.9x4.9mm_P1.27mm" H 6950 4450 50  0001 C CNN
F 3 "https://www.ti.com/lit/ds/symlink/tlv9062.pdf" H 6950 4450 50  0001 C CNN
	3    6950 4450
	-1   0    0    -1  
$EndComp
Wire Wire Line
	7050 4150 7150 4150
Wire Wire Line
	7050 4750 7150 4750
Wire Wire Line
	7550 4750 7550 4350
Connection ~ 7750 4350
Wire Wire Line
	7550 4350 7750 4350
$Comp
L Device:C_Small C505
U 1 1 5C63AD67
P 7150 4450
AR Path="/5C68A269/5C68A2E1/5C662129/5C63AD67" Ref="C505"  Part="1" 
AR Path="/5C68A269/5C68A2E1/5C662123/5C63AD67" Ref="C405"  Part="1" 
AR Path="/5C68A269/5C68A301/5C662123/5C63AD67" Ref="C705"  Part="1" 
AR Path="/5C68A269/5C68A301/5C662129/5C63AD67" Ref="C805"  Part="1" 
F 0 "C805" H 7250 4450 50  0000 L CNN
F 1 "100n" H 7200 4350 50  0000 L CNN
F 2 "Capacitor_SMD:C_0805_2012Metric_Pad1.15x1.40mm_HandSolder" H 7150 4450 50  0001 C CNN
F 3 "~" H 7150 4450 50  0001 C CNN
F 4 "" H 100 0   50  0001 C CNN "Note"
	1    7150 4450
	1    0    0    -1  
$EndComp
Wire Wire Line
	7150 4550 7150 4750
Connection ~ 7150 4750
Wire Wire Line
	7150 4750 7550 4750
Wire Wire Line
	7150 4350 7150 4150
Connection ~ 7150 4150
$Comp
L power:VAA #PWR?
U 1 1 5C643C1A
P 6650 4150
AR Path="/5C5E4922/5C643C1A" Ref="#PWR?"  Part="1" 
AR Path="/5C60014F/5C643C1A" Ref="#PWR?"  Part="1" 
AR Path="/5C62C3B9/5C643C1A" Ref="#PWR?"  Part="1" 
AR Path="/5C661B09/5C661DA8/5C643C1A" Ref="#PWR?"  Part="1" 
AR Path="/5C661B09/5C661DAE/5C643C1A" Ref="#PWR?"  Part="1" 
AR Path="/5C661B09/5C662123/5C643C1A" Ref="#PWR?"  Part="1" 
AR Path="/5C661B09/5C662129/5C643C1A" Ref="#PWR?"  Part="1" 
AR Path="/5C666787/5C662123/5C643C1A" Ref="#PWR?"  Part="1" 
AR Path="/5C666787/5C662129/5C643C1A" Ref="#PWR?"  Part="1" 
AR Path="/5C689EFA/5C662123/5C643C1A" Ref="#PWR?"  Part="1" 
AR Path="/5C689EFA/5C662129/5C643C1A" Ref="#PWR?"  Part="1" 
AR Path="/5C68A269/5C68A2E1/5C662123/5C643C1A" Ref="#PWR0405"  Part="1" 
AR Path="/5C68A269/5C68A2E1/5C662129/5C643C1A" Ref="#PWR0505"  Part="1" 
AR Path="/5C68A269/5C68A301/5C662123/5C643C1A" Ref="#PWR0705"  Part="1" 
AR Path="/5C68A269/5C68A301/5C662129/5C643C1A" Ref="#PWR0805"  Part="1" 
F 0 "#PWR0805" H 6650 4000 50  0001 C CNN
F 1 "VAA" V 6650 4350 50  0000 C CNN
F 2 "" H 6650 4150 50  0001 C CNN
F 3 "" H 6650 4150 50  0001 C CNN
	1    6650 4150
	0    -1   -1   0   
$EndComp
Wire Wire Line
	6650 4050 6650 4150
$Comp
L Lasik:Balun L501
U 1 1 5C65F761
P 3550 3950
AR Path="/5C68A269/5C68A2E1/5C662129/5C65F761" Ref="L501"  Part="1" 
AR Path="/5C68A269/5C68A2E1/5C662123/5C65F761" Ref="L401"  Part="1" 
AR Path="/5C68A269/5C68A301/5C662123/5C65F761" Ref="L701"  Part="1" 
AR Path="/5C68A269/5C68A301/5C662129/5C65F761" Ref="L801"  Part="1" 
F 0 "L801" V 3600 3850 50  0000 R CNN
F 1 "open" V 3500 3850 50  0000 R CNN
F 2 "Lasik:SRF4530A" H 3550 3950 50  0001 C CNN
F 3 "https://www.mouser.be/datasheet/2/54/bourns_12182018_SRF4530A-1510784.pdf" H 3550 3950 50  0001 C CNN
	1    3550 3950
	0    1    1    0   
$EndComp
Wire Wire Line
	3650 3500 3650 3650
Wire Wire Line
	3700 3650 3650 3650
Connection ~ 3650 3650
Wire Wire Line
	3650 3650 3650 3750
Wire Wire Line
	3500 3850 3500 3800
Wire Wire Line
	3500 3800 3400 3800
Wire Wire Line
	3400 3800 3400 3750
Connection ~ 3400 3750
Wire Wire Line
	3400 3750 3450 3750
Wire Wire Line
	3600 3850 3650 3850
Wire Wire Line
	3650 3750 3650 3850
Connection ~ 3650 3750
Connection ~ 3650 3850
Wire Wire Line
	3650 3850 3750 3850
Wire Wire Line
	3650 4150 3650 4300
Wire Wire Line
	3600 4050 3650 4050
Wire Wire Line
	3650 4150 3650 4050
Connection ~ 3650 4150
Connection ~ 3650 4050
Wire Wire Line
	3650 4050 3750 4050
Wire Wire Line
	3500 4050 3500 4100
Wire Wire Line
	3500 4100 3400 4100
Wire Wire Line
	3400 4100 3400 4150
Connection ~ 3400 4150
Wire Wire Line
	3400 4150 3450 4150
Wire Wire Line
	7150 4150 7850 4150
Text HLabel 3150 4150 0    50   Input ~ 0
PV+
Text HLabel 3150 3750 0    50   Input ~ 0
PV-
Connection ~ 7000 3100
Connection ~ 6250 3400
Wire Wire Line
	6250 3400 6250 3250
Connection ~ 4350 3500
$Comp
L Connector_Generic:Conn_01x05 J501
U 1 1 5C71F954
P 5150 2450
AR Path="/5C68A269/5C68A2E1/5C662129/5C71F954" Ref="J501"  Part="1" 
AR Path="/5C68A269/5C68A2E1/5C662123/5C71F954" Ref="J401"  Part="1" 
AR Path="/5C68A269/5C68A301/5C662123/5C71F954" Ref="J701"  Part="1" 
AR Path="/5C68A269/5C68A301/5C662129/5C71F954" Ref="J801"  Part="1" 
F 0 "J801" V 5350 2700 50  0000 R CNN
F 1 "Conn_01x05" V 5250 2700 50  0000 R CNN
F 2 "Connector_PinHeader_2.54mm:PinHeader_1x05_P2.54mm_Vertical" H 5150 2450 50  0001 C CNN
F 3 "~" H 5150 2450 50  0001 C CNN
	1    5150 2450
	0    -1   -1   0   
$EndComp
$Comp
L power:Earth #PWR?
U 1 1 5C71FAFF
P 4950 2700
AR Path="/5C5E4922/5C71FAFF" Ref="#PWR?"  Part="1" 
AR Path="/5C60014F/5C71FAFF" Ref="#PWR?"  Part="1" 
AR Path="/5C62C3B9/5C71FAFF" Ref="#PWR?"  Part="1" 
AR Path="/5C661B09/5C661DA8/5C71FAFF" Ref="#PWR?"  Part="1" 
AR Path="/5C661B09/5C661DAE/5C71FAFF" Ref="#PWR?"  Part="1" 
AR Path="/5C661B09/5C662123/5C71FAFF" Ref="#PWR?"  Part="1" 
AR Path="/5C661B09/5C662129/5C71FAFF" Ref="#PWR?"  Part="1" 
AR Path="/5C666787/5C662123/5C71FAFF" Ref="#PWR?"  Part="1" 
AR Path="/5C666787/5C662129/5C71FAFF" Ref="#PWR?"  Part="1" 
AR Path="/5C689EFA/5C662123/5C71FAFF" Ref="#PWR?"  Part="1" 
AR Path="/5C689EFA/5C662129/5C71FAFF" Ref="#PWR?"  Part="1" 
AR Path="/5C68A269/5C68A2E1/5C662123/5C71FAFF" Ref="#PWR0403"  Part="1" 
AR Path="/5C68A269/5C68A2E1/5C662129/5C71FAFF" Ref="#PWR0503"  Part="1" 
AR Path="/5C68A269/5C68A301/5C662123/5C71FAFF" Ref="#PWR0703"  Part="1" 
AR Path="/5C68A269/5C68A301/5C662129/5C71FAFF" Ref="#PWR0803"  Part="1" 
F 0 "#PWR0803" H 4950 2450 50  0001 C CNN
F 1 "Earth" H 4950 2550 50  0001 C CNN
F 2 "" H 4950 2700 50  0001 C CNN
F 3 "~" H 4950 2700 50  0001 C CNN
	1    4950 2700
	1    0    0    -1  
$EndComp
Wire Wire Line
	4950 2700 4950 2650
Wire Wire Line
	4350 2850 5050 2850
Wire Wire Line
	5050 2850 5050 2650
Wire Wire Line
	4350 2850 4350 3500
Wire Wire Line
	5000 3100 5000 2900
Wire Wire Line
	5000 2900 5150 2900
Wire Wire Line
	5150 2900 5150 2650
Wire Wire Line
	6900 3400 6900 2750
Wire Wire Line
	6900 2750 5250 2750
Wire Wire Line
	5250 2750 5250 2650
Wire Wire Line
	6250 3400 6900 3400
Wire Wire Line
	7000 2650 5350 2650
Wire Wire Line
	7000 2650 7000 3100
Wire Wire Line
	4850 3650 4850 3950
Connection ~ 4850 3950
Wire Wire Line
	4850 3950 5000 3950
$Comp
L power:VAA #PWR?
U 1 1 5C8C0E98
P 4850 3300
AR Path="/5C5E4922/5C8C0E98" Ref="#PWR?"  Part="1" 
AR Path="/5C60014F/5C8C0E98" Ref="#PWR?"  Part="1" 
AR Path="/5C62C3B9/5C8C0E98" Ref="#PWR?"  Part="1" 
AR Path="/5C661B09/5C661DA8/5C8C0E98" Ref="#PWR?"  Part="1" 
AR Path="/5C661B09/5C661DAE/5C8C0E98" Ref="#PWR?"  Part="1" 
AR Path="/5C661B09/5C662123/5C8C0E98" Ref="#PWR?"  Part="1" 
AR Path="/5C661B09/5C662129/5C8C0E98" Ref="#PWR?"  Part="1" 
AR Path="/5C666787/5C662123/5C8C0E98" Ref="#PWR?"  Part="1" 
AR Path="/5C666787/5C662129/5C8C0E98" Ref="#PWR?"  Part="1" 
AR Path="/5C689EFA/5C662123/5C8C0E98" Ref="#PWR?"  Part="1" 
AR Path="/5C689EFA/5C662129/5C8C0E98" Ref="#PWR?"  Part="1" 
AR Path="/5C68A269/5C68A2E1/5C662123/5C8C0E98" Ref="#PWR?"  Part="1" 
AR Path="/5C68A269/5C68A2E1/5C662129/5C8C0E98" Ref="#PWR?"  Part="1" 
AR Path="/5C68A269/5C68A301/5C662123/5C8C0E98" Ref="#PWR?"  Part="1" 
AR Path="/5C68A269/5C68A301/5C662129/5C8C0E98" Ref="#PWR?"  Part="1" 
F 0 "#PWR?" H 4850 3150 50  0001 C CNN
F 1 "VAA" H 4700 3400 50  0000 C CNN
F 2 "" H 4850 3300 50  0001 C CNN
F 3 "" H 4850 3300 50  0001 C CNN
	1    4850 3300
	1    0    0    -1  
$EndComp
Wire Wire Line
	4850 3300 4850 3350
Wire Wire Line
	5000 3950 5600 3950
Connection ~ 5000 3100
Wire Wire Line
	4850 3350 5300 3350
Connection ~ 4850 3350
Wire Wire Line
	4850 3350 4850 3450
$EndSCHEMATC
