EESchema Schematic File Version 4
LIBS:power
LIBS:Lasik1.5-cache
EELAYER 26 0
EELAYER END
$Descr A4 11693 8268
encoding utf-8
Sheet 15 17
Title ""
Date ""
Rev ""
Comp ""
Comment1 ""
Comment2 ""
Comment3 ""
Comment4 ""
$EndDescr
Text HLabel 5550 3200 0    50   Input ~ 0
3V3
Text HLabel 5550 3450 0    50   Input ~ 0
Laser_enable
Text HLabel 5550 4150 0    50   Input ~ 0
GND
Wire Wire Line
	6400 3200 6400 3250
$Comp
L Device:C_Small C?
U 1 1 5C6029F6
P 5950 3800
AR Path="/5C602347/5C6029F6" Ref="C?"  Part="1" 
AR Path="/5C64728C/5C6029F6" Ref="C?"  Part="1" 
AR Path="/5C647A43/5C6029F6" Ref="C?"  Part="1" 
AR Path="/5C648B3B/5C6029F6" Ref="C?"  Part="1" 
AR Path="/5C6A8974/5C6AB623/5C6029F6" Ref="C1301"  Part="1" 
AR Path="/5C6A8974/5C6AB628/5C6029F6" Ref="C?"  Part="1" 
AR Path="/5C6A8974/5C6AB633/5C6029F6" Ref="C?"  Part="1" 
AR Path="/5C6A8974/5C6AB640/5C6029F6" Ref="C?"  Part="1" 
AR Path="/5C6A8974/5C6AC0E5/5C6029F6" Ref="C1401"  Part="1" 
AR Path="/5C6A8974/5C6AC0EA/5C6029F6" Ref="C1501"  Part="1" 
AR Path="/5C6A8974/5C6AC0EF/5C6029F6" Ref="C1601"  Part="1" 
F 0 "C1501" H 6042 3846 50  0000 L CNN
F 1 "open" H 6042 3755 50  0000 L CNN
F 2 "Capacitor_SMD:C_0805_2012Metric_Pad1.15x1.40mm_HandSolder" H 5950 3800 50  0001 C CNN
F 3 "~" H 5950 3800 50  0001 C CNN
F 4 "" H 3850 1450 50  0001 C CNN "Note"
	1    5950 3800
	1    0    0    1   
$EndComp
$Comp
L Device:R_Small R?
U 1 1 5C602A72
P 5750 3450
AR Path="/5C602347/5C602A72" Ref="R?"  Part="1" 
AR Path="/5C64728C/5C602A72" Ref="R?"  Part="1" 
AR Path="/5C647A43/5C602A72" Ref="R?"  Part="1" 
AR Path="/5C648B3B/5C602A72" Ref="R?"  Part="1" 
AR Path="/5C6A8974/5C6AB623/5C602A72" Ref="R1301"  Part="1" 
AR Path="/5C6A8974/5C6AB628/5C602A72" Ref="R?"  Part="1" 
AR Path="/5C6A8974/5C6AB633/5C602A72" Ref="R?"  Part="1" 
AR Path="/5C6A8974/5C6AB640/5C602A72" Ref="R?"  Part="1" 
AR Path="/5C6A8974/5C6AC0E5/5C602A72" Ref="R1401"  Part="1" 
AR Path="/5C6A8974/5C6AC0EA/5C602A72" Ref="R1501"  Part="1" 
AR Path="/5C6A8974/5C6AC0EF/5C602A72" Ref="R1601"  Part="1" 
F 0 "R1501" V 5554 3450 50  0000 C CNN
F 1 "0R" V 5645 3450 50  0000 C CNN
F 2 "Resistor_SMD:R_0805_2012Metric_Pad1.15x1.40mm_HandSolder" H 5750 3450 50  0001 C CNN
F 3 "~" H 5750 3450 50  0001 C CNN
	1    5750 3450
	0    1    -1   0   
$EndComp
$Comp
L Device:R_Small R?
U 1 1 5C6733E3
P 6400 4000
AR Path="/5C602347/5C6733E3" Ref="R?"  Part="1" 
AR Path="/5C64728C/5C6733E3" Ref="R?"  Part="1" 
AR Path="/5C647A43/5C6733E3" Ref="R?"  Part="1" 
AR Path="/5C648B3B/5C6733E3" Ref="R?"  Part="1" 
AR Path="/5C6A8974/5C6AB623/5C6733E3" Ref="R1302"  Part="1" 
AR Path="/5C6A8974/5C6AB628/5C6733E3" Ref="R?"  Part="1" 
AR Path="/5C6A8974/5C6AB633/5C6733E3" Ref="R?"  Part="1" 
AR Path="/5C6A8974/5C6AB640/5C6733E3" Ref="R?"  Part="1" 
AR Path="/5C6A8974/5C6AC0E5/5C6733E3" Ref="R1402"  Part="1" 
AR Path="/5C6A8974/5C6AC0EA/5C6733E3" Ref="R1502"  Part="1" 
AR Path="/5C6A8974/5C6AC0EF/5C6733E3" Ref="R1602"  Part="1" 
F 0 "R1502" H 6459 4046 50  0000 L CNN
F 1 "56R" H 6459 3955 50  0000 L CNN
F 2 "Resistor_SMD:R_0805_2012Metric_Pad1.15x1.40mm_HandSolder" H 6400 4000 50  0001 C CNN
F 3 "~" H 6400 4000 50  0001 C CNN
	1    6400 4000
	-1   0    0    1   
$EndComp
Text HLabel 6450 3700 2    50   Input ~ 0
LD+
Text HLabel 6450 3850 2    50   Input ~ 0
LD-
Wire Wire Line
	6450 3850 6400 3850
Wire Wire Line
	6400 3900 6400 3850
Wire Wire Line
	6450 3700 6400 3700
Wire Wire Line
	6400 3700 6400 3650
$Comp
L Device:Q_PMOS_GSD Q?
U 1 1 5C7292AF
P 6300 3450
AR Path="/5C67B796/5C7292AF" Ref="Q?"  Part="1" 
AR Path="/5C6A8974/5C6AB623/5C7292AF" Ref="Q1301"  Part="1" 
AR Path="/5C6A8974/5C6AC0E5/5C7292AF" Ref="Q1401"  Part="1" 
AR Path="/5C6A8974/5C6AC0EA/5C7292AF" Ref="Q1501"  Part="1" 
AR Path="/5C6A8974/5C6AC0EF/5C7292AF" Ref="Q1601"  Part="1" 
F 0 "Q1501" H 6650 3500 50  0000 C CNN
F 1 "DMP3099L-7" H 6750 3400 50  0000 C CNN
F 2 "Package_TO_SOT_SMD:SOT-23_Handsoldering" H 6500 3550 50  0001 C CNN
F 3 "https://www.diodes.com/assets/Datasheets/DMP3099L.pdf" H 6300 3450 50  0001 C CNN
F 4 "" H 400 -50 50  0001 C CNN "Note"
	1    6300 3450
	1    0    0    1   
$EndComp
Wire Wire Line
	6400 4100 6400 4150
Wire Wire Line
	5550 3450 5650 3450
Wire Wire Line
	5550 4150 5950 4150
Wire Wire Line
	5850 3450 5950 3450
Wire Wire Line
	5550 3200 6400 3200
Wire Wire Line
	5950 3700 5950 3450
Connection ~ 5950 3450
Wire Wire Line
	5950 3450 6100 3450
Wire Wire Line
	5950 3900 5950 4150
Connection ~ 5950 4150
Wire Wire Line
	5950 4150 6400 4150
$EndSCHEMATC
