EESchema Schematic File Version 4
LIBS:power
LIBS:Lasik1.5-cache
EELAYER 26 0
EELAYER END
$Descr A4 11693 8268
encoding utf-8
Sheet 1 17
Title ""
Date ""
Rev ""
Comp ""
Comment1 ""
Comment2 ""
Comment3 ""
Comment4 ""
$EndDescr
$Sheet
S 1500 950  700  900 
U 5C68A269
F0 "4_inputs" 50
F1 "4_inputs.sch" 50
F2 "OUT1" I R 2200 1750 50 
F3 "OUT2" I R 2200 1650 50 
F4 "OUT3" I R 2200 1550 50 
F5 "OUT4" I R 2200 1450 50 
F6 "GND" I R 2200 1100 50 
F7 "VAA" I R 2200 1000 50 
F8 "V_analog" I R 2200 1200 50 
F9 "in2+" I L 1500 1550 50 
F10 "in2-" I L 1500 1450 50 
F11 "in1+" I L 1500 1750 50 
F12 "in1-" I L 1500 1650 50 
F13 "in4+" I L 1500 1150 50 
F14 "in4-" I L 1500 1050 50 
F15 "in3+" I L 1500 1350 50 
F16 "in3-" I L 1500 1250 50 
$EndSheet
$Sheet
S 2400 950  900  350 
U 5C696261
F0 "sheet5C69625C" 50
F1 "VAA-servo.sch" 50
F2 "VAA" I L 2400 1000 50 
F3 "V_analog" I L 2400 1200 50 
F4 "GND" I L 2400 1100 50 
$EndSheet
Wire Wire Line
	2200 1100 2300 1100
Wire Wire Line
	2200 1200 2350 1200
Wire Wire Line
	2350 1400 2350 1200
Connection ~ 2350 1200
Wire Wire Line
	2350 1200 2400 1200
Wire Wire Line
	2200 1450 3050 1450
Wire Wire Line
	2200 1550 2950 1550
Wire Wire Line
	2200 1650 2850 1650
Wire Wire Line
	2200 1750 2750 1750
$Comp
L Device:R_Small R?
U 1 1 5C6673D2
P 4950 1800
AR Path="/5C5E4922/5C6673D2" Ref="R?"  Part="1" 
AR Path="/5C60014F/5C6673D2" Ref="R?"  Part="1" 
AR Path="/5C62C3B9/5C6673D2" Ref="R?"  Part="1" 
AR Path="/5C661B09/5C661DA8/5C6673D2" Ref="R?"  Part="1" 
AR Path="/5C661B09/5C661DAE/5C6673D2" Ref="R?"  Part="1" 
AR Path="/5C661B09/5C662123/5C6673D2" Ref="R?"  Part="1" 
AR Path="/5C661B09/5C662129/5C6673D2" Ref="R?"  Part="1" 
AR Path="/5C666787/5C662123/5C6673D2" Ref="R?"  Part="1" 
AR Path="/5C666787/5C662129/5C6673D2" Ref="R?"  Part="1" 
AR Path="/5C689EFA/5C662123/5C6673D2" Ref="R?"  Part="1" 
AR Path="/5C689EFA/5C662129/5C6673D2" Ref="R?"  Part="1" 
AR Path="/5C68A269/5C68A2E1/5C662123/5C6673D2" Ref="R?"  Part="1" 
AR Path="/5C68A269/5C68A2E1/5C662129/5C6673D2" Ref="R?"  Part="1" 
AR Path="/5C68A269/5C68A301/5C662123/5C6673D2" Ref="R?"  Part="1" 
AR Path="/5C68A269/5C68A301/5C662129/5C6673D2" Ref="R?"  Part="1" 
AR Path="/5C6673D2" Ref="R102"  Part="1" 
F 0 "R102" H 5100 1850 50  0000 C CNN
F 1 "10K" H 5150 1750 50  0000 C CNN
F 2 "Resistor_SMD:R_0805_2012Metric_Pad1.15x1.40mm_HandSolder" H 4950 1800 50  0001 C CNN
F 3 "~" H 4950 1800 50  0001 C CNN
	1    4950 1800
	-1   0    0    -1  
$EndComp
$Comp
L Device:R_Small R?
U 1 1 5C6673D9
P 4950 2100
AR Path="/5C5E4922/5C6673D9" Ref="R?"  Part="1" 
AR Path="/5C60014F/5C6673D9" Ref="R?"  Part="1" 
AR Path="/5C62C3B9/5C6673D9" Ref="R?"  Part="1" 
AR Path="/5C661B09/5C661DA8/5C6673D9" Ref="R?"  Part="1" 
AR Path="/5C661B09/5C661DAE/5C6673D9" Ref="R?"  Part="1" 
AR Path="/5C661B09/5C662123/5C6673D9" Ref="R?"  Part="1" 
AR Path="/5C661B09/5C662129/5C6673D9" Ref="R?"  Part="1" 
AR Path="/5C666787/5C662123/5C6673D9" Ref="R?"  Part="1" 
AR Path="/5C666787/5C662129/5C6673D9" Ref="R?"  Part="1" 
AR Path="/5C689EFA/5C662123/5C6673D9" Ref="R?"  Part="1" 
AR Path="/5C689EFA/5C662129/5C6673D9" Ref="R?"  Part="1" 
AR Path="/5C68A269/5C68A2E1/5C662123/5C6673D9" Ref="R?"  Part="1" 
AR Path="/5C68A269/5C68A2E1/5C662129/5C6673D9" Ref="R?"  Part="1" 
AR Path="/5C68A269/5C68A301/5C662123/5C6673D9" Ref="R?"  Part="1" 
AR Path="/5C68A269/5C68A301/5C662129/5C6673D9" Ref="R?"  Part="1" 
AR Path="/5C6673D9" Ref="R103"  Part="1" 
F 0 "R103" H 5150 2150 50  0000 C CNN
F 1 "10K" H 5150 2050 50  0000 C CNN
F 2 "Resistor_SMD:R_0805_2012Metric_Pad1.15x1.40mm_HandSolder" H 4950 2100 50  0001 C CNN
F 3 "~" H 4950 2100 50  0001 C CNN
	1    4950 2100
	-1   0    0    -1  
$EndComp
$Sheet
S 6550 1000 700  250 
U 5C67B796
F0 "bat_chrg" 50
F1 "bat_chrg.sch" 50
F2 "V_in" I L 6550 1050 50 
F3 "GND" I L 6550 1200 50 
$EndSheet
$Sheet
S 1500 2000 700  800 
U 5C6A8974
F0 "4_lasers" 50
F1 "4_lasers.sch" 50
F2 "L1" I R 2200 2700 50 
F3 "L2" I R 2200 2600 50 
F4 "L3" I R 2200 2500 50 
F5 "L4" I R 2200 2400 50 
F6 "3V3" I R 2200 2100 50 
F7 "GND" I R 2200 2200 50 
F8 "LD1+" I L 1500 2650 50 
F9 "LD1-" I L 1500 2750 50 
F10 "LD2+" I L 1500 2450 50 
F11 "LD2-" I L 1500 2550 50 
F12 "LD3+" I L 1500 2250 50 
F13 "LD3-" I L 1500 2350 50 
F14 "LD4+" I L 1500 2050 50 
F15 "LD4-" I L 1500 2150 50 
$EndSheet
Wire Wire Line
	6400 1700 6400 1600
Wire Wire Line
	6300 1700 6300 1600
Wire Wire Line
	6200 1700 6200 1600
Wire Wire Line
	6100 1700 6100 1600
Wire Wire Line
	2200 1000 2400 1000
Wire Wire Line
	7050 1600 7100 1600
Wire Wire Line
	7100 1600 7100 1700
Wire Wire Line
	6950 1600 7000 1600
Wire Wire Line
	7000 1600 7000 1700
Wire Wire Line
	6850 1600 6900 1600
Wire Wire Line
	6900 1600 6900 1700
Wire Wire Line
	6800 1700 6800 1600
Wire Wire Line
	6800 1600 6750 1600
Wire Wire Line
	6700 1700 6700 1600
Wire Wire Line
	6700 1600 6650 1600
Wire Wire Line
	6600 1700 6600 1600
Wire Wire Line
	6600 1600 6550 1600
Wire Wire Line
	6500 1600 6450 1600
Wire Wire Line
	6400 1600 6350 1600
Wire Wire Line
	6300 1600 6250 1600
Wire Wire Line
	6200 1600 6150 1600
Wire Wire Line
	6100 1600 6050 1600
Wire Wire Line
	4950 2400 4950 2350
Connection ~ 4950 2350
Wire Wire Line
	4950 2350 5000 2350
Wire Wire Line
	4950 2500 4950 2450
Wire Wire Line
	4950 2450 5000 2450
Wire Wire Line
	4950 2600 4950 2550
Wire Wire Line
	4950 2550 5000 2550
Wire Wire Line
	4950 2700 4950 2650
Wire Wire Line
	4950 2650 5000 2650
Wire Wire Line
	4950 2750 4950 2800
Wire Wire Line
	4950 2750 5000 2750
Wire Wire Line
	4950 2900 4950 2850
Wire Wire Line
	4950 2850 5000 2850
Wire Wire Line
	5000 2950 4950 2950
Wire Wire Line
	4950 2950 4950 3000
Wire Wire Line
	4950 3100 4950 3050
Wire Wire Line
	4950 3050 5000 3050
Wire Wire Line
	5000 3150 4950 3150
Wire Wire Line
	4950 3150 4950 3200
Wire Wire Line
	4950 3300 4950 3250
Wire Wire Line
	4950 3250 5000 3250
Wire Wire Line
	6200 3900 6200 3950
Wire Wire Line
	6200 3950 6250 3950
Wire Wire Line
	6300 3900 6300 3950
Wire Wire Line
	6300 3950 6350 3950
Wire Wire Line
	6400 3900 6400 3950
Wire Wire Line
	6400 3950 6450 3950
Wire Wire Line
	6500 3900 6500 3950
Wire Wire Line
	6500 3950 6550 3950
Wire Wire Line
	6600 3900 6600 3950
Wire Wire Line
	6600 3950 6650 3950
Wire Wire Line
	6700 3900 6700 3950
Wire Wire Line
	6700 3950 6750 3950
Wire Wire Line
	6800 3900 6800 3950
Wire Wire Line
	6800 3950 6850 3950
Wire Wire Line
	6900 3900 6900 3950
Wire Wire Line
	6900 3950 6950 3950
Wire Wire Line
	7050 3950 7000 3950
Wire Wire Line
	7000 3950 7000 3900
Wire Wire Line
	7100 3900 7100 3950
Wire Wire Line
	7100 3950 7150 3950
Wire Wire Line
	7200 3900 7200 3950
Wire Wire Line
	7200 3950 7250 3950
Wire Wire Line
	7300 3900 7300 3950
Wire Wire Line
	7300 3950 7350 3950
Wire Wire Line
	7400 3900 7400 3950
Wire Wire Line
	7400 3950 7450 3950
Wire Wire Line
	7500 3900 7500 3950
Wire Wire Line
	7500 3950 7550 3950
Wire Wire Line
	6100 3950 6100 3900
Wire Wire Line
	6150 3950 6100 3950
Wire Wire Line
	7200 1600 7200 1700
Wire Wire Line
	7150 1600 7200 1600
Wire Wire Line
	7600 3900 7600 3950
$Comp
L power:Earth #PWR0105
U 1 1 5C751064
P 7750 3950
F 0 "#PWR0105" H 7750 3700 50  0001 C CNN
F 1 "Earth" H 7750 3800 50  0001 C CNN
F 2 "" H 7750 3950 50  0001 C CNN
F 3 "~" H 7750 3950 50  0001 C CNN
	1    7750 3950
	1    0    0    -1  
$EndComp
$Comp
L power:Earth #PWR0104
U 1 1 5C7551F8
P 7300 1600
F 0 "#PWR0104" H 7300 1350 50  0001 C CNN
F 1 "Earth" H 7300 1450 50  0001 C CNN
F 2 "" H 7300 1600 50  0001 C CNN
F 3 "~" H 7300 1600 50  0001 C CNN
	1    7300 1600
	1    0    0    -1  
$EndComp
$Comp
L power:Earth #PWR0101
U 1 1 5C75544F
P 3800 1850
F 0 "#PWR0101" H 3800 1600 50  0001 C CNN
F 1 "Earth" H 3800 1700 50  0001 C CNN
F 2 "" H 3800 1850 50  0001 C CNN
F 3 "~" H 3800 1850 50  0001 C CNN
	1    3800 1850
	1    0    0    -1  
$EndComp
$Comp
L power:Earth #PWR0103
U 1 1 5C755628
P 6000 3950
F 0 "#PWR0103" H 6000 3700 50  0001 C CNN
F 1 "Earth" H 6000 3800 50  0001 C CNN
F 2 "" H 6000 3950 50  0001 C CNN
F 3 "~" H 6000 3950 50  0001 C CNN
	1    6000 3950
	1    0    0    -1  
$EndComp
Wire Wire Line
	6000 3950 6100 3950
Connection ~ 6100 3950
Connection ~ 7200 1600
$Comp
L Connector:Conn_01x12_Male J107
U 1 1 5C7624B3
P 6550 1400
F 0 "J107" V 6600 650 50  0000 C CNN
F 1 "Conn_01x12_Male" V 6500 1050 50  0000 C CNN
F 2 "Lasik:PinHeader_1x12_P2.54mm_Vertical(swapped_square_pin)" H 6550 1400 50  0001 C CNN
F 3 "~" H 6550 1400 50  0001 C CNN
F 4 "Optional" H 650 -200 50  0001 C CNN "Note"
	1    6550 1400
	0    -1   1    0   
$EndComp
$Comp
L Connector:Conn_01x16_Male J108
U 1 1 5C79E53F
P 6950 4150
F 0 "J108" V 6750 4550 50  0000 C CNN
F 1 "Conn_01x16_Male" V 6850 4800 50  0000 C CNN
F 2 "Lasik:PinHeader_1x16_P2.54mm_Vertical(double_square_pin)" H 6950 4150 50  0001 C CNN
F 3 "~" H 6950 4150 50  0001 C CNN
F 4 "Optional" H 650 -250 50  0001 C CNN "Note"
	1    6950 4150
	0    1    -1   0   
$EndComp
Wire Wire Line
	7600 3950 7650 3950
Connection ~ 7650 3950
Wire Wire Line
	7650 3950 7750 3950
Wire Wire Line
	7200 1600 7300 1600
$Comp
L Connector:Conn_01x11_Male J104
U 1 1 5C7ABBB5
P 4750 2800
F 0 "J104" H 4750 3400 50  0000 R CNN
F 1 "Conn_01x11_Male" H 5200 3500 50  0000 R CNN
F 2 "Lasik:PinHeader_1x11_P2.54mm_Vertical(swapped_square_pin)" H 4750 2800 50  0001 C CNN
F 3 "~" H 4750 2800 50  0001 C CNN
F 4 "Optional" H 650 -250 50  0001 C CNN "Note"
	1    4750 2800
	1    0    0    1   
$EndComp
Wire Wire Line
	3850 2350 3850 2400
Connection ~ 7200 3950
Connection ~ 7100 3950
Wire Wire Line
	3700 2250 3800 2250
$Comp
L Connector_Generic:Conn_01x08 J106
U 1 1 5C8CE973
P 6250 5600
F 0 "J106" V 6350 5300 50  0000 C CNN
F 1 "Conn_01x08" V 6350 5700 50  0000 C CNN
F 2 "Lasik:PinHeader_1x08_P2.54mm_Vertical(swapped_square_pin)" H 6250 5600 50  0001 C CNN
F 3 "~" H 6250 5600 50  0001 C CNN
F 4 "SWD header row" H 1250 150 50  0001 C CNN "Note"
	1    6250 5600
	0    -1   1    0   
$EndComp
Wire Wire Line
	6150 5400 6150 5350
Wire Wire Line
	6150 5350 6050 5350
Wire Wire Line
	5950 5350 5950 5400
Wire Wire Line
	6050 5400 6050 5350
Connection ~ 6050 5350
Wire Wire Line
	6050 5350 5950 5350
Wire Wire Line
	2300 2200 2200 2200
Connection ~ 2300 1100
Wire Wire Line
	2300 1100 2400 1100
Wire Wire Line
	2300 3250 3800 3250
Connection ~ 4950 3250
Wire Wire Line
	2400 3150 3800 3150
Connection ~ 4950 3150
Wire Wire Line
	2500 3050 3800 3050
Connection ~ 4950 3050
Wire Wire Line
	2600 2950 3800 2950
Connection ~ 4950 2950
Wire Wire Line
	3050 1450 3050 2450
Wire Wire Line
	2950 1550 2950 2550
Wire Wire Line
	2850 1650 2850 2650
Wire Wire Line
	2750 1750 2750 2750
Wire Wire Line
	3050 2450 3800 2450
Connection ~ 4950 2450
Wire Wire Line
	2950 2550 3800 2550
Connection ~ 4950 2550
Wire Wire Line
	2850 2650 3800 2650
Connection ~ 4950 2650
Wire Wire Line
	2750 2750 3800 2750
Connection ~ 4950 2750
Wire Wire Line
	4950 1900 4950 1950
Wire Wire Line
	6500 1600 6500 1700
Connection ~ 4950 1950
Wire Wire Line
	4950 1950 4950 2000
Connection ~ 4950 2850
Wire Wire Line
	4950 1700 4950 1650
$Comp
L Switch:SW_Push SW101
U 1 1 5C67A051
P 6450 4700
F 0 "SW101" H 6250 4850 50  0000 C CNN
F 1 "SW_Push" H 6700 4850 50  0000 C CNN
F 2 "Button_Switch_SMD:SW_SPST_TL3305A" H 6450 4900 50  0001 C CNN
F 3 "https://www.mouser.be/ProductDetail/E-Switch/TL3305AF260QG?qs=sGAEpiMZZMsgGjVA3toVBKeJCRa1nG8XqQWVbJ3%2fajg%3d" H 6450 4900 50  0001 C CNN
	1    6450 4700
	1    0    0    -1  
$EndComp
$Comp
L Connector_Generic:Conn_01x08 J101
U 1 1 5C6BC7E6
P 1150 1450
F 0 "J101" H 1200 850 50  0000 C CNN
F 1 "Conn_01x08" H 1100 950 50  0000 C CNN
F 2 "Lasik:TerminalBlock_Phoenix_MKDS-1,5-8-5.08_1x08_P5.08mm_Horizontal(no_square_pin)" H 1150 1450 50  0001 C CNN
F 3 "~" H 1150 1450 50  0001 C CNN
	1    1150 1450
	-1   0    0    1   
$EndComp
Wire Wire Line
	1350 1050 1500 1050
Wire Wire Line
	1500 1150 1350 1150
Wire Wire Line
	1350 1250 1500 1250
Wire Wire Line
	1500 1350 1350 1350
Wire Wire Line
	1350 1450 1500 1450
Wire Wire Line
	1500 1550 1350 1550
Wire Wire Line
	1350 1650 1500 1650
Wire Wire Line
	1500 1750 1350 1750
$Comp
L Connector_Generic:Conn_01x08 J102
U 1 1 5C716702
P 1150 2450
F 0 "J102" H 1150 2900 50  0000 C CNN
F 1 "Conn_01x08" H 1050 3000 50  0000 C CNN
F 2 "Lasik:TerminalBlock_Phoenix_MKDS-1,5-8-5.08_1x08_P5.08mm_Horizontal(no_square_pin)" H 1150 2450 50  0001 C CNN
F 3 "~" H 1150 2450 50  0001 C CNN
	1    1150 2450
	-1   0    0    1   
$EndComp
Wire Wire Line
	2200 2700 2300 2700
Wire Wire Line
	2300 2700 2300 3250
Wire Wire Line
	2200 2600 2400 2600
Wire Wire Line
	2400 2600 2400 3150
Wire Wire Line
	2200 2500 2500 2500
Wire Wire Line
	2500 2500 2500 3050
Wire Wire Line
	2200 2400 2600 2400
Wire Wire Line
	2600 2400 2600 2950
Wire Wire Line
	1350 2050 1500 2050
Wire Wire Line
	1500 2150 1350 2150
Wire Wire Line
	1350 2250 1500 2250
Wire Wire Line
	1500 2350 1350 2350
Wire Wire Line
	1350 2450 1500 2450
Wire Wire Line
	1500 2550 1350 2550
Wire Wire Line
	1350 2650 1500 2650
Wire Wire Line
	1500 2750 1350 2750
$Comp
L Connector:Conn_01x11_Male J103
U 1 1 5C7C4091
P 3600 2800
F 0 "J103" H 3650 3400 50  0000 R CNN
F 1 "Conn_01x11_Male" H 4100 3500 50  0000 R CNN
F 2 "Lasik:PinHeader_1x11_P2.54mm_Vertical(swapped_square_pin)" H 3600 2800 50  0001 C CNN
F 3 "~" H 3600 2800 50  0001 C CNN
F 4 "Optional" H -500 -250 50  0001 C CNN "Note"
	1    3600 2800
	1    0    0    1   
$EndComp
Wire Wire Line
	3800 2300 3800 2250
Connection ~ 3800 2250
Wire Wire Line
	3800 2250 4500 2250
Wire Wire Line
	3800 2400 3850 2400
Wire Wire Line
	3800 2500 3800 2450
Connection ~ 3800 2450
Wire Wire Line
	3800 2450 4950 2450
Wire Wire Line
	3800 2600 3800 2550
Connection ~ 3800 2550
Wire Wire Line
	3800 2550 4950 2550
Wire Wire Line
	3800 2700 3800 2650
Connection ~ 3800 2650
Wire Wire Line
	3800 2650 4950 2650
Wire Wire Line
	3800 2800 3800 2750
Connection ~ 3800 2750
Wire Wire Line
	3800 2750 4950 2750
Wire Wire Line
	3800 2900 3800 2850
Wire Wire Line
	3800 3000 3800 2950
Connection ~ 3800 2950
Wire Wire Line
	3800 2950 4950 2950
Wire Wire Line
	3800 3100 3800 3050
Connection ~ 3800 3050
Wire Wire Line
	3800 3050 4950 3050
Wire Wire Line
	3800 3200 3800 3150
Connection ~ 3800 3150
Wire Wire Line
	3800 3150 4950 3150
Wire Wire Line
	3800 3300 3800 3250
Connection ~ 3800 3250
Wire Wire Line
	3800 3250 4950 3250
Wire Notes Line
	4400 800  8000 800 
Wire Notes Line
	8000 800  8000 5850
Wire Notes Line
	8000 5850 4400 5850
Wire Notes Line
	4400 800  4400 5850
Text Notes 7100 900  0    50   ~ 0
Lasik1.5 motherboard
$Comp
L Regulator_Linear:TLV75533PDBV U?
U 1 1 5C76081D
P 5150 1150
AR Path="/5C5FC5C6/5C76081D" Ref="U?"  Part="1" 
AR Path="/5C76081D" Ref="U102"  Part="1" 
F 0 "U102" H 5700 1350 50  0000 C CNN
F 1 "TLV75533PDBV" H 5250 1400 50  0000 C CNN
F 2 "Package_TO_SOT_SMD:SOT-23-5_HandSoldering" H 5150 1450 50  0001 C CIN
F 3 "http://www.ti.com/lit/ds/symlink/tlv755p.pdf" H 5150 1150 50  0001 C CNN
	1    5150 1150
	-1   0    0    -1  
$EndComp
$Comp
L Regulator_Linear:TLV75533PDBV U?
U 1 1 5C760824
P 3700 1500
AR Path="/5C5FC5C6/5C760824" Ref="U?"  Part="1" 
AR Path="/5C760824" Ref="U101"  Part="1" 
F 0 "U101" H 3700 1842 50  0000 C CNN
F 1 "MIC94310" H 3700 1751 50  0000 C CNN
F 2 "Package_TO_SOT_SMD:SOT-23-5_HandSoldering" H 3700 1800 50  0001 C CIN
F 3 "http://ww1.microchip.com/downloads/en/DeviceDoc/MIC94310.pdf" H 3700 1500 50  0001 C CNN
	1    3700 1500
	-1   0    0    -1  
$EndComp
Wire Wire Line
	5450 1150 5450 1050
Wire Wire Line
	5600 1050 5450 1050
Connection ~ 5450 1050
Wire Wire Line
	4850 1050 4800 1050
$Comp
L Device:R_Small R?
U 1 1 5C760834
P 3700 1050
AR Path="/5C5FC5C6/5C760834" Ref="R?"  Part="1" 
AR Path="/5C760834" Ref="R101"  Part="1" 
F 0 "R101" V 3600 900 50  0000 C CNN
F 1 "open" V 3600 1200 50  0000 C CNN
F 2 "Resistor_SMD:R_0805_2012Metric_Pad1.15x1.40mm_HandSolder" H 3700 1050 50  0001 C CNN
F 3 "~" H 3700 1050 50  0001 C CNN
	1    3700 1050
	0    -1   1    0   
$EndComp
Wire Wire Line
	3800 1050 4000 1050
$Comp
L Device:C_Small C?
U 1 1 5C76083E
P 5600 1250
AR Path="/5C5E4922/5C76083E" Ref="C?"  Part="1" 
AR Path="/5C60014F/5C76083E" Ref="C?"  Part="1" 
AR Path="/5C5FC5C6/5C76083E" Ref="C?"  Part="1" 
AR Path="/5C76083E" Ref="C105"  Part="1" 
F 0 "C105" H 5450 1650 50  0000 L CNN
F 1 "4u7" H 5450 1550 50  0000 L CNN
F 2 "Capacitor_SMD:C_0805_2012Metric_Pad1.15x1.40mm_HandSolder" H 5600 1250 50  0001 C CNN
F 3 "~" H 5600 1250 50  0001 C CNN
F 4 "" H 800 -1950 50  0001 C CNN "Note"
	1    5600 1250
	-1   0    0    -1  
$EndComp
$Comp
L power:Earth #PWR?
U 1 1 5C760845
P 5600 1500
AR Path="/5C5E4922/5C760845" Ref="#PWR?"  Part="1" 
AR Path="/5C60014F/5C760845" Ref="#PWR?"  Part="1" 
AR Path="/5C5FC5C6/5C760845" Ref="#PWR?"  Part="1" 
AR Path="/5C760845" Ref="#PWR0102"  Part="1" 
F 0 "#PWR0102" H 5600 1250 50  0001 C CNN
F 1 "Earth" H 5600 1350 50  0001 C CNN
F 2 "" H 5600 1500 50  0001 C CNN
F 3 "~" H 5600 1500 50  0001 C CNN
	1    5600 1500
	-1   0    0    -1  
$EndComp
Wire Wire Line
	5600 1500 5600 1450
Wire Wire Line
	5600 1150 5600 1050
Wire Wire Line
	5150 1450 5600 1450
Connection ~ 5600 1450
Wire Wire Line
	5600 1450 5600 1350
$Comp
L Device:C_Small C?
U 1 1 5C760851
P 4800 1250
AR Path="/5C5E4922/5C760851" Ref="C?"  Part="1" 
AR Path="/5C60014F/5C760851" Ref="C?"  Part="1" 
AR Path="/5C5FC5C6/5C760851" Ref="C?"  Part="1" 
AR Path="/5C760851" Ref="C104"  Part="1" 
F 0 "C104" H 4500 1150 50  0000 L CNN
F 1 "4u7" H 4500 1350 50  0000 L CNN
F 2 "Capacitor_SMD:C_0805_2012Metric_Pad1.15x1.40mm_HandSolder" H 4800 1250 50  0001 C CNN
F 3 "~" H 4800 1250 50  0001 C CNN
F 4 "" H -1050 -1950 50  0001 C CNN "Note"
	1    4800 1250
	1    0    0    -1  
$EndComp
$Comp
L Device:C_Small C?
U 1 1 5C760859
P 3350 1650
AR Path="/5C5E4922/5C760859" Ref="C?"  Part="1" 
AR Path="/5C60014F/5C760859" Ref="C?"  Part="1" 
AR Path="/5C5FC5C6/5C760859" Ref="C?"  Part="1" 
AR Path="/5C760859" Ref="C101"  Part="1" 
F 0 "C101" H 3350 2000 50  0000 L CNN
F 1 "4u7" H 3350 1900 50  0000 L CNN
F 2 "Capacitor_SMD:C_0805_2012Metric_Pad1.15x1.40mm_HandSolder" H 3350 1650 50  0001 C CNN
F 3 "~" H 3350 1650 50  0001 C CNN
F 4 "" H -3250 -1600 50  0001 C CNN "Note"
	1    3350 1650
	1    0    0    1   
$EndComp
Wire Wire Line
	4800 1150 4800 1050
Wire Wire Line
	4800 1350 4800 1450
Wire Wire Line
	4800 1450 5150 1450
Connection ~ 3700 1800
Connection ~ 5150 1450
Wire Wire Line
	3350 1800 3350 1750
Wire Wire Line
	3700 1800 3350 1800
Wire Wire Line
	3350 1550 3350 1400
Connection ~ 3350 1400
Wire Wire Line
	3350 1400 3400 1400
Wire Wire Line
	3600 1050 3350 1050
$Comp
L Device:C_Small C?
U 1 1 5C760874
P 4100 1600
AR Path="/5C5E4922/5C760874" Ref="C?"  Part="1" 
AR Path="/5C60014F/5C760874" Ref="C?"  Part="1" 
AR Path="/5C5FC5C6/5C760874" Ref="C?"  Part="1" 
AR Path="/5C760874" Ref="C102"  Part="1" 
F 0 "C102" H 4050 1200 50  0000 L CNN
F 1 "4u7" H 4050 1300 50  0000 L CNN
F 2 "Capacitor_SMD:C_0805_2012Metric_Pad1.15x1.40mm_HandSolder" H 4100 1600 50  0001 C CNN
F 3 "~" H 4100 1600 50  0001 C CNN
F 4 "" H -1750 -1600 50  0001 C CNN "Note"
	1    4100 1600
	-1   0    0    -1  
$EndComp
Wire Wire Line
	4100 1700 4100 1800
Wire Wire Line
	4100 1500 4100 1400
Wire Wire Line
	4100 1800 3800 1800
Wire Wire Line
	6550 1200 5700 1200
Wire Wire Line
	5700 1200 5700 1450
Wire Wire Line
	5700 1450 5600 1450
Wire Wire Line
	6550 1050 5800 1050
Connection ~ 5600 1050
Wire Wire Line
	4800 1050 4450 1050
Wire Wire Line
	4450 1050 4450 2350
Connection ~ 4800 1050
Connection ~ 4450 2350
Wire Wire Line
	4450 2350 4950 2350
Wire Wire Line
	4800 1450 4500 1450
Wire Wire Line
	4500 1450 4500 2250
Connection ~ 4800 1450
Wire Wire Line
	4550 1950 4550 2850
Wire Wire Line
	4550 1950 4950 1950
Wire Wire Line
	4950 1650 5800 1650
Wire Wire Line
	5800 1650 5800 1050
Connection ~ 5800 1050
Wire Wire Line
	5800 1050 5600 1050
Connection ~ 4550 2850
Wire Wire Line
	4550 2850 4950 2850
Wire Wire Line
	3800 2850 4550 2850
$Comp
L Lasik:BL651-BL651 BL101
U 1 1 5C673F92
P 4850 3900
F 0 "BL101" H 5300 4200 50  0000 L CNN
F 1 "BL651" H 5300 4300 50  0000 L CNN
F 2 "Lasik:BL651" H 5100 4000 50  0001 C CNN
F 3 "https://connectivity-staging.s3.us-east-2.amazonaws.com/2019-02/CS-DS-BL651%20%20v1_1.pdf" H 5100 4000 50  0001 C CNN
	1    4850 3900
	1    0    0    -1  
$EndComp
Wire Wire Line
	4500 2250 4950 2250
Connection ~ 4500 2250
Wire Wire Line
	4950 2300 4950 2250
Connection ~ 4950 2250
Wire Wire Line
	4950 2250 5000 2250
Wire Wire Line
	4950 2200 4950 2250
Wire Wire Line
	3850 2350 2350 2350
Wire Wire Line
	2350 2350 2350 2100
Wire Wire Line
	2200 2100 2350 2100
Connection ~ 3850 2350
Wire Wire Line
	4000 1400 4000 1500
Wire Wire Line
	4000 1050 4000 1400
Connection ~ 4000 1400
Wire Wire Line
	4000 1400 4100 1400
Wire Wire Line
	3350 1050 3350 1400
Wire Wire Line
	2300 1100 2300 2200
Wire Wire Line
	4100 1400 4200 1400
Connection ~ 4100 1400
Wire Notes Line
	950  3600 950  800 
Wire Notes Line
	950  800  4300 800 
Text Notes 1000 3550 0    50   ~ 0
Lasik1.5 daughterboard
Wire Wire Line
	3850 2350 4200 2350
Wire Wire Line
	4200 1400 4200 2350
Connection ~ 4200 2350
Wire Wire Line
	4200 2350 4450 2350
Wire Wire Line
	3800 1850 3800 1800
Connection ~ 3800 1800
Wire Wire Line
	3800 1800 3700 1800
Wire Wire Line
	3700 1800 3700 2200
Wire Wire Line
	2300 2200 2450 2200
Connection ~ 2300 2200
Connection ~ 3700 2200
Wire Wire Line
	3700 2200 3700 2250
Wire Wire Line
	2350 1400 3350 1400
Wire Notes Line
	4300 800  4300 3600
Wire Notes Line
	950  3600 4300 3600
$Sheet
S 5050 3800 550  450 
U 5C6CC2A7
F0 "LEDs" 50
F1 "LEDs.sch" 50
F2 "GND" I L 5050 4150 50 
F3 "LED4" I R 5600 3850 50 
F4 "LED3" I R 5600 3950 50 
F5 "LED2" I R 5600 4050 50 
F6 "LED1" I R 5600 4150 50 
$EndSheet
Wire Wire Line
	5750 4400 5750 4150
Wire Wire Line
	5750 4150 5600 4150
Wire Wire Line
	5800 4350 5800 4050
Wire Wire Line
	5800 4050 5600 4050
Wire Wire Line
	6300 3950 6300 4300
Wire Wire Line
	6300 4300 5850 4300
Wire Wire Line
	5850 4300 5850 3950
Wire Wire Line
	5850 3950 5600 3950
Connection ~ 6300 3950
Wire Wire Line
	6200 3950 6200 4250
Wire Wire Line
	6200 4250 5900 4250
Wire Wire Line
	5900 4250 5900 3850
Wire Wire Line
	5900 3850 5600 3850
Connection ~ 6200 3950
$Comp
L Connector:Conn_ARM_JTAG_SWD_10 J105
U 1 1 5C9BF5D4
P 4900 5150
F 0 "J105" H 5500 4800 50  0000 R CNN
F 1 "SWD_HEADER" H 5800 4700 50  0000 R CNN
F 2 "Connector_PinHeader_1.27mm:PinHeader_2x05_P1.27mm_Vertical_SMD" H 4950 4600 50  0001 L TNN
F 3 "http://infocenter.arm.com/help/topic/com.arm.doc.faqs/attached/13634/cortex_debug_connectors.pdf" V 4550 3900 50  0001 C CNN
	1    4900 5150
	1    0    0    -1  
$EndComp
Wire Wire Line
	4450 5750 4800 5750
Wire Wire Line
	4800 5750 4900 5750
Connection ~ 4800 5750
Wire Wire Line
	4450 4150 4500 4150
Wire Wire Line
	4450 5750 4450 4150
Wire Wire Line
	4900 4550 4900 4500
Wire Wire Line
	4900 4050 4450 4050
Wire Wire Line
	4450 4050 4450 3650
Wire Wire Line
	7000 3950 7000 4850
Connection ~ 7000 3950
Wire Wire Line
	7100 5050 6350 5050
Wire Wire Line
	7100 3950 7100 5050
Wire Wire Line
	7200 3950 7200 5150
Wire Wire Line
	6800 3950 6800 5250
Wire Wire Line
	6800 5250 6450 5250
Connection ~ 6800 3950
Wire Wire Line
	5950 5350 5950 4500
Connection ~ 5950 5350
Connection ~ 4900 4500
Wire Wire Line
	4900 4500 4900 4050
Wire Wire Line
	6450 5400 6450 5250
Connection ~ 6450 5250
Wire Wire Line
	6450 5250 5400 5250
Wire Wire Line
	5400 4850 6250 4850
Wire Wire Line
	6250 4700 6250 4850
Wire Wire Line
	6650 5400 6800 5400
Wire Wire Line
	6800 5400 6800 5750
Wire Wire Line
	6800 5750 4900 5750
Connection ~ 4900 5750
NoConn ~ 5400 5350
Wire Wire Line
	5400 5150 6250 5150
Wire Wire Line
	6250 5400 6250 5150
Connection ~ 6250 5150
Wire Wire Line
	6250 5150 7200 5150
Wire Wire Line
	6350 5400 6350 5050
Connection ~ 6350 5050
Wire Wire Line
	6350 5050 5400 5050
Wire Wire Line
	4500 2250 4500 3850
Connection ~ 4500 4150
Wire Wire Line
	4500 4150 5050 4150
Wire Wire Line
	6500 4350 6500 3950
Wire Wire Line
	5800 4350 6500 4350
Connection ~ 6500 3950
Wire Wire Line
	6700 4400 6700 3950
Wire Wire Line
	5750 4400 6700 4400
Connection ~ 6700 3950
Connection ~ 6250 4850
Wire Wire Line
	6250 4850 6550 4850
Wire Wire Line
	6550 5400 6550 4850
Wire Wire Line
	7000 4850 6550 4850
Connection ~ 6550 4850
Wire Wire Line
	6650 4700 6650 5400
Connection ~ 6650 5400
$Comp
L Graphic:SYM_LASER_Large #SYM101
U 1 1 5C7623B3
P 1850 3100
F 0 "#SYM101" H 1850 3300 50  0001 C CNN
F 1 "SYM_LASER_Large" H 1850 2835 50  0001 C CNN
F 2 "" H 1840 2925 50  0001 C CNN
F 3 "~" H 1880 2900 50  0001 C CNN
	1    1850 3100
	1    0    0    -1  
$EndComp
$Comp
L Connector:TestPoint TP101
U 1 1 5C7C6FBA
P 2450 2150
F 0 "TP101" H 2350 2500 50  0000 L CNN
F 1 "TestPoint" H 2350 2400 50  0000 L CNN
F 2 "MountingHole:MountingHole_3mm_Pad_Via" H 2650 2150 50  0001 C CNN
F 3 "~" H 2650 2150 50  0001 C CNN
	1    2450 2150
	1    0    0    -1  
$EndComp
Wire Wire Line
	2450 2150 2450 2200
Connection ~ 2450 2200
Wire Wire Line
	2450 2200 3700 2200
$Comp
L Device:C_Small C?
U 1 1 5C79DA73
P 4600 3750
AR Path="/5C5E4922/5C79DA73" Ref="C?"  Part="1" 
AR Path="/5C60014F/5C79DA73" Ref="C?"  Part="1" 
AR Path="/5C5FC5C6/5C79DA73" Ref="C?"  Part="1" 
AR Path="/5C79DA73" Ref="C103"  Part="1" 
F 0 "C103" H 4300 3750 50  0000 L CNN
F 1 "100n" H 4250 3850 50  0000 L CNN
F 2 "Capacitor_SMD:C_0805_2012Metric_Pad1.15x1.40mm_HandSolder" H 4600 3750 50  0001 C CNN
F 3 "~" H 4600 3750 50  0001 C CNN
F 4 "" H -200 550 50  0001 C CNN "Note"
	1    4600 3750
	-1   0    0    -1  
$EndComp
Wire Wire Line
	4600 3850 4500 3850
Connection ~ 4500 3850
Wire Wire Line
	4500 3850 4500 4150
Wire Wire Line
	4600 3650 4450 3650
Connection ~ 4450 3650
Wire Wire Line
	4450 3650 4450 2350
Wire Wire Line
	4900 4500 5950 4500
$EndSCHEMATC
