(module Evils (layer F.Cu) (tedit 5C72B1CA)
  (fp_text reference REF** (at 10.922 6.477) (layer F.SilkS) hide
    (effects (font (size 1 1) (thickness 0.15)))
  )
  (fp_text value Evils (at 0 -0.5) (layer F.Fab)
    (effects (font (size 1 1) (thickness 0.15)))
  )
  (fp_line (start 4 10.75) (end 8.55 7.85) (layer F.Cu) (width 1))
  (fp_line (start 9.5 10.5) (end 4 14) (layer F.Cu) (width 1))
  (fp_line (start 9.5 4) (end 4 7.5) (layer F.Cu) (width 1))
  (fp_line (start 7 4.5) (end 7 13.5) (layer F.Cu) (width 1))
  (fp_line (start 5 5.5) (end 5 14.5) (layer F.Cu) (width 1))
)
