(module HSG_Compact (layer F.Cu) (tedit 5C9C1072)
  (fp_text reference G*** (at 0 0) (layer F.SilkS) hide
    (effects (font (size 1.524 1.524) (thickness 0.3)))
  )
  (fp_text value HSG_Compact (at 0.75 0) (layer F.SilkS) hide
    (effects (font (size 1.524 1.524) (thickness 0.3)))
  )
  (fp_poly (pts (xy -12.28725 -10.31875) (xy -16.970375 -10.31875) (xy -16.970375 -13.668375) (xy -12.28725 -13.668375)
    (xy -12.28725 -10.31875)) (layer F.Paste) (width 0.01))
  (fp_poly (pts (xy 1.127125 -11.659602) (xy 1.127125 -8.98525) (xy -2.238375 -8.98525) (xy -2.238375 -9.992771)
    (xy -2.563246 -10.31875) (xy -2.905125 -10.31875) (xy -2.905125 -13.668375) (xy -0.880724 -13.668376)) (layer F.Paste) (width 0.01))
  (fp_poly (pts (xy 27.84475 -13.668375) (xy 27.84475 -10.31875) (xy 23.849986 -10.31875) (xy 23.704243 -10.152783)
    (xy 23.5585 -9.986815) (xy 23.5585 -2.95275) (xy 20.208875 -2.95275) (xy 20.208875 -11.660282)
    (xy 22.217155 -13.668376) (xy 25.030952 -13.668376) (xy 27.84475 -13.668375)) (layer F.Paste) (width 0.01))
  (fp_poly (pts (xy 19.542125 -2.95275) (xy 15.509875 -2.95275) (xy 15.509875 -6.302375) (xy 19.542125 -6.302375)
    (xy 19.542125 -2.95275)) (layer F.Paste) (width 0.01))
  (fp_poly (pts (xy 14.843125 -10.31875) (xy 14.467861 -10.31875) (xy 14.322118 -10.152783) (xy 14.176375 -9.986815)
    (xy 14.176375 -9.652) (xy 16.176625 -9.652) (xy 16.176625 -9.99388) (xy 15.850645 -10.31875)
    (xy 15.509875 -10.31875) (xy 15.509875 -13.668375) (xy 17.534276 -13.668375) (xy 19.54223 -11.659497)
    (xy 19.538209 -9.31828) (xy 19.534187 -6.977063) (xy 14.176375 -6.969033) (xy 14.176375 -6.592909)
    (xy 14.344575 -6.447642) (xy 14.512775 -6.302376) (xy 14.67795 -6.302375) (xy 14.843125 -6.302375)
    (xy 14.843125 -2.95275) (xy 12.834843 -2.95275) (xy 11.830796 -3.956891) (xy 10.82675 -4.961031)
    (xy 10.82675 -11.660282) (xy 11.83089 -12.664329) (xy 12.83503 -13.668375) (xy 14.843125 -13.668375)
    (xy 14.843125 -10.31875)) (layer F.Paste) (width 0.01))
  (fp_poly (pts (xy 9.227865 -13.668308) (xy 9.457524 -13.668112) (xy 9.676177 -13.667795) (xy 9.881848 -13.667367)
    (xy 10.072561 -13.666835) (xy 10.246342 -13.666209) (xy 10.401214 -13.665496) (xy 10.535203 -13.664706)
    (xy 10.646333 -13.663847) (xy 10.732627 -13.662928) (xy 10.792112 -13.661956) (xy 10.822812 -13.660941)
    (xy 10.82675 -13.660419) (xy 10.819762 -13.64563) (xy 10.799261 -13.603838) (xy 10.76594 -13.536434)
    (xy 10.720494 -13.44481) (xy 10.663615 -13.330356) (xy 10.595997 -13.194465) (xy 10.518335 -13.038527)
    (xy 10.43132 -12.863934) (xy 10.335647 -12.672076) (xy 10.23201 -12.464346) (xy 10.121102 -12.242135)
    (xy 10.003617 -12.006833) (xy 9.880248 -11.759832) (xy 9.751688 -11.502523) (xy 9.618632 -11.236298)
    (xy 9.491271 -10.981544) (xy 8.155793 -8.310626) (xy 9.491271 -5.639613) (xy 9.62789 -5.366329)
    (xy 9.760657 -5.100667) (xy 9.888881 -4.844016) (xy 10.011867 -4.597769) (xy 10.128922 -4.363317)
    (xy 10.239352 -4.142051) (xy 10.342464 -3.935361) (xy 10.437564 -3.744641) (xy 10.523959 -3.57128)
    (xy 10.600955 -3.416669) (xy 10.667859 -3.282201) (xy 10.723976 -3.169266) (xy 10.768615 -3.079256)
    (xy 10.80108 -3.013562) (xy 10.820678 -2.973575) (xy 10.82675 -2.960675) (xy 10.811204 -2.959646)
    (xy 10.765883 -2.958656) (xy 10.692764 -2.957713) (xy 10.593821 -2.956826) (xy 10.47103 -2.956003)
    (xy 10.326366 -2.955254) (xy 10.161805 -2.954586) (xy 9.979322 -2.954008) (xy 9.780892 -2.953529)
    (xy 9.568492 -2.953156) (xy 9.344096 -2.9529) (xy 9.109681 -2.952767) (xy 8.989174 -2.95275)
    (xy 7.151599 -2.95275) (xy 6.480924 -4.294213) (xy 5.81025 -5.635675) (xy 5.81025 -10.985451)
    (xy 6.480924 -12.326913) (xy 7.151599 -13.668375) (xy 8.989174 -13.668375) (xy 9.227865 -13.668308)) (layer F.Paste) (width 0.01))
  (fp_poly (pts (xy 5.1435 -2.95275) (xy 1.793875 -2.95275) (xy 1.793875 -17.795875) (xy 5.1435 -17.795875)
    (xy 5.1435 -2.95275)) (layer F.Paste) (width 0.01))
  (fp_poly (pts (xy 1.127125 -4.97672) (xy 0.115047 -3.964735) (xy -0.89703 -2.95275) (xy -2.905125 -2.95275)
    (xy -2.905125 -6.302375) (xy -2.564355 -6.302375) (xy -2.401365 -6.464811) (xy -2.238375 -6.627246)
    (xy -2.238375 -7.635875) (xy 1.127125 -7.635875) (xy 1.127125 -4.97672)) (layer F.Paste) (width 0.01))
  (fp_poly (pts (xy -3.571875 -10.31875) (xy -3.947139 -10.31875) (xy -4.092882 -10.152783) (xy -4.238625 -9.986815)
    (xy -4.238625 -6.592909) (xy -4.070425 -6.447642) (xy -3.902225 -6.302376) (xy -3.73705 -6.302375)
    (xy -3.571875 -6.302375) (xy -3.571875 -2.95275) (xy -5.580157 -2.95275) (xy -6.584204 -3.956891)
    (xy -7.58825 -4.961031) (xy -7.58825 -11.660282) (xy -6.58411 -12.664329) (xy -5.57997 -13.668375)
    (xy -3.571875 -13.668375) (xy -3.571875 -10.31875)) (layer F.Paste) (width 0.01))
  (fp_poly (pts (xy -8.255 -11.659602) (xy -8.255 -2.95275) (xy -11.6205 -2.95275) (xy -11.6205 -6.969125)
    (xy -13.62075 -6.969125) (xy -13.62075 -6.592909) (xy -13.28435 -6.302376) (xy -12.28725 -6.302375)
    (xy -12.28725 -2.95275) (xy -14.962282 -2.95275) (xy -16.970375 -4.961031) (xy -16.970375 -9.652)
    (xy -11.6205 -9.652) (xy -11.6205 -13.668375) (xy -10.262849 -13.668375) (xy -9.258925 -12.663989)) (layer F.Paste) (width 0.01))
  (fp_poly (pts (xy -18.625175 -12.663989) (xy -17.62125 -11.659602) (xy -17.62125 -2.95275) (xy -20.98675 -2.95275)
    (xy -20.98675 -9.99388) (xy -21.31273 -10.31875) (xy -22.32025 -10.31875) (xy -22.32025 -13.668375)
    (xy -20.974675 -13.668376) (xy -19.629099 -13.668376) (xy -18.625175 -12.663989)) (layer F.Paste) (width 0.01))
  (fp_poly (pts (xy -22.987 -2.95275) (xy -26.336625 -2.95275) (xy -26.336625 -17.795875) (xy -22.987 -17.795875)
    (xy -22.987 -2.95275)) (layer F.Paste) (width 0.01))
  (fp_poly (pts (xy 0.587375 1.254125) (xy -4.09575 1.254125) (xy -4.09575 -2.0955) (xy 0.587375 -2.0955)
    (xy 0.587375 1.254125)) (layer F.Paste) (width 0.01))
  (fp_poly (pts (xy -14.136688 1.246187) (xy -18.161 1.254246) (xy -18.161 -2.0955) (xy -14.128605 -2.0955)) (layer F.Paste) (width 0.01))
  (fp_poly (pts (xy 14.00175 -0.086727) (xy 14.00175 2.587625) (xy 10.63625 2.587625) (xy 10.63625 1.580104)
    (xy 10.311379 1.254125) (xy 9.9695 1.254125) (xy 9.9695 -2.0955) (xy 11.993901 -2.0955)) (layer F.Paste) (width 0.01))
  (fp_poly (pts (xy 26.13025 8.620125) (xy 19.351625 8.620125) (xy 19.351625 5.2705) (xy 26.13025 5.2705)
    (xy 26.13025 8.620125)) (layer F.Paste) (width 0.01))
  (fp_poly (pts (xy 18.684875 1.254125) (xy 18.309611 1.254125) (xy 18.163868 1.420092) (xy 18.018125 1.58606)
    (xy 18.018125 1.920875) (xy 20.018375 1.920875) (xy 20.018375 1.578995) (xy 19.692395 1.254125)
    (xy 19.351625 1.254125) (xy 19.351625 -2.0955) (xy 21.376026 -2.0955) (xy 23.38398 -0.086622)
    (xy 23.379959 2.254595) (xy 23.375937 4.595812) (xy 18.018125 4.603842) (xy 18.018125 4.979966)
    (xy 18.354525 5.2705) (xy 18.684875 5.2705) (xy 18.684875 8.620125) (xy 16.676593 8.620125)
    (xy 15.672546 7.615984) (xy 14.6685 6.611844) (xy 14.6685 -0.087407) (xy 15.67264 -1.091454)
    (xy 16.67678 -2.0955) (xy 18.684875 -2.0955) (xy 18.684875 1.254125)) (layer F.Paste) (width 0.01))
  (fp_poly (pts (xy 14.00175 6.596155) (xy 12.989672 7.60814) (xy 11.977595 8.620125) (xy 9.9695 8.620125)
    (xy 9.9695 5.2705) (xy 10.31027 5.2705) (xy 10.47326 5.108064) (xy 10.63625 4.945629)
    (xy 10.63625 3.937) (xy 14.00175 3.937) (xy 14.00175 6.596155)) (layer F.Paste) (width 0.01))
  (fp_poly (pts (xy 9.30275 1.254125) (xy 8.927486 1.254125) (xy 8.781743 1.420092) (xy 8.636 1.58606)
    (xy 8.636 4.979966) (xy 8.9724 5.2705) (xy 9.30275 5.2705) (xy 9.30275 8.620125)
    (xy 7.294468 8.620125) (xy 6.290421 7.615984) (xy 5.286375 6.611844) (xy 5.286375 -0.087407)
    (xy 6.290515 -1.091454) (xy 7.294655 -2.0955) (xy 9.30275 -2.0955) (xy 9.30275 1.254125)) (layer F.Paste) (width 0.01))
  (fp_poly (pts (xy 4.619625 -0.086727) (xy 4.619625 8.620125) (xy 1.254125 8.620125) (xy 1.254125 4.60375)
    (xy -0.746125 4.60375) (xy -0.746125 4.979966) (xy -0.409725 5.2705) (xy 0.587375 5.2705)
    (xy 0.587375 8.620125) (xy -2.087657 8.620125) (xy -4.09575 6.611844) (xy -4.09575 1.920875)
    (xy 1.254125 1.920875) (xy 1.254125 -2.0955) (xy 2.611776 -2.0955)) (layer F.Paste) (width 0.01))
  (fp_poly (pts (xy -4.746625 -0.086727) (xy -4.746625 6.596155) (xy -6.77078 8.620125) (xy -9.445625 8.620125)
    (xy -9.445625 5.2705) (xy -8.438105 5.2705) (xy -8.112125 4.945629) (xy -8.112125 1.578995)
    (xy -8.438105 1.254125) (xy -9.445625 1.254125) (xy -9.445625 -2.0955) (xy -6.754474 -2.0955)) (layer F.Paste) (width 0.01))
  (fp_poly (pts (xy -18.82775 1.254125) (xy -19.203014 1.254125) (xy -19.348757 1.420092) (xy -19.4945 1.58606)
    (xy -19.4945 1.920782) (xy -14.136688 1.928812) (xy -14.132666 4.262338) (xy -14.128645 6.595864)
    (xy -15.140682 7.607994) (xy -16.15272 8.620125) (xy -18.161 8.620125) (xy -18.161 5.2705)
    (xy -17.82023 5.2705) (xy -17.65724 5.108064) (xy -17.49425 4.945629) (xy -17.49425 4.60375)
    (xy -22.844125 4.60375) (xy -22.844125 -0.087407) (xy -21.839985 -1.091454) (xy -20.835845 -2.0955)
    (xy -18.82775 -2.0955) (xy -18.82775 1.254125)) (layer F.Paste) (width 0.01))
  (fp_poly (pts (xy -18.82775 8.620125) (xy -28.22575 8.620125) (xy -28.22575 5.2705) (xy -18.82775 5.2705)
    (xy -18.82775 8.620125)) (layer F.Paste) (width 0.01))
  (fp_poly (pts (xy 7.01675 13.04925) (xy 6.016625 13.04925) (xy 6.016625 11.636375) (xy 7.01675 11.636375)
    (xy 7.01675 13.04925)) (layer F.Paste) (width 0.01))
  (fp_poly (pts (xy 1.4605 13.04925) (xy -0.8255 13.04925) (xy -0.8255 11.636375) (xy 1.4605 11.636375)
    (xy 1.4605 13.04925)) (layer F.Paste) (width 0.01))
  (fp_poly (pts (xy -2.794 12.485904) (xy -2.794 13.62075) (xy -4.22275 13.62075) (xy -4.22275 13.198868)
    (xy -4.374654 13.04925) (xy -4.651375 13.04925) (xy -4.651375 11.636375) (xy -3.643092 11.636375)) (layer F.Paste) (width 0.01))
  (fp_poly (pts (xy 10.00125 13.04925) (xy 8.715375 13.04925) (xy 8.715375 17.033875) (xy 7.3025 17.033875)
    (xy 7.3025 11.636375) (xy 10.00125 11.636375) (xy 10.00125 13.04925)) (layer F.Paste) (width 0.01))
  (fp_poly (pts (xy 5.730875 17.033875) (xy 4.302182 17.033875) (xy 3.444718 15.319177) (xy 3.448765 13.767495)
    (xy 3.452812 12.215812) (xy 3.8766 13.057187) (xy 4.300387 13.898562) (xy 4.301256 12.767468)
    (xy 4.302125 11.636375) (xy 5.730875 11.636375) (xy 5.730875 17.033875)) (layer F.Paste) (width 0.01))
  (fp_poly (pts (xy 3.175 17.033875) (xy 1.74625 17.033875) (xy 1.74625 11.636375) (xy 3.175 11.636375)
    (xy 3.175 17.033875)) (layer F.Paste) (width 0.01))
  (fp_poly (pts (xy 1.460826 17.033875) (xy -0.825827 17.033875) (xy -0.817563 15.613062) (xy 1.452562 15.613062)) (layer F.Paste) (width 0.01))
  (fp_poly (pts (xy -1.095375 17.033875) (xy -2.524125 17.033875) (xy -2.524125 11.636375) (xy -1.095375 11.636375)
    (xy -1.095375 17.033875)) (layer F.Paste) (width 0.01))
  (fp_poly (pts (xy -2.794 16.183208) (xy -3.218265 16.608541) (xy -3.64253 17.033875) (xy -4.651702 17.033875)
    (xy -4.64757 16.323468) (xy -4.643438 15.613062) (xy -4.500563 15.608446) (xy -4.357688 15.603831)
    (xy -4.290219 15.537672) (xy -4.22275 15.471514) (xy -4.22275 15.050232) (xy -4.504532 15.045897)
    (xy -4.786313 15.041562) (xy -4.790482 14.474031) (xy -4.794652 13.9065) (xy -2.794 13.9065)
    (xy -2.794 16.183208)) (layer F.Paste) (width 0.01))
  (fp_poly (pts (xy -4.937125 13.04925) (xy -5.226499 13.04925) (xy -5.287536 13.116718) (xy -5.348573 13.184187)
    (xy -5.349224 14.335871) (xy -5.349875 15.487556) (xy -5.289675 15.54634) (xy -5.229474 15.605125)
    (xy -4.937125 15.605125) (xy -4.937125 17.033875) (xy -5.929534 17.033875) (xy -6.35408 16.60911)
    (xy -6.778625 16.184345) (xy -6.778625 12.485904) (xy -6.35408 12.061139) (xy -5.929534 11.636375)
    (xy -4.937125 11.636375) (xy -4.937125 13.04925)) (layer F.Paste) (width 0.01))
  (fp_poly (pts (xy -7.072313 15.613062) (xy -7.068181 16.323468) (xy -7.064049 17.033875) (xy -8.493125 17.033875)
    (xy -8.493125 15.604798) (xy -7.072313 15.613062)) (layer F.Paste) (width 0.01))
  (fp_poly (pts (xy -10.112375 17.033875) (xy -13.462 17.033875) (xy -13.462 -2.0955) (xy -10.112375 -2.0955)
    (xy -10.112375 17.033875)) (layer F.Paste) (width 0.01))
  (fp_poly (pts (xy -0.82 13.63) (xy 0.31 13.63) (xy 0.31 15.04) (xy -0.82 15.04)) (layer F.Paste) (width 0.03))
)
