EESchema Schematic File Version 4
LIBS:lasik2-cache
EELAYER 26 0
EELAYER END
$Descr A4 11693 8268
encoding utf-8
Sheet 7 12
Title ""
Date ""
Rev ""
Comp ""
Comment1 ""
Comment2 ""
Comment3 ""
Comment4 ""
$EndDescr
Text HLabel 5350 3500 0    50   Input ~ 0
~laser
Wire Wire Line
	6050 3250 6050 3300
$Comp
L Device:R_Small R?
U 1 1 5C602A72
P 5550 3500
AR Path="/5C602347/5C602A72" Ref="R?"  Part="1" 
AR Path="/5C64728C/5C602A72" Ref="R?"  Part="1" 
AR Path="/5C647A43/5C602A72" Ref="R?"  Part="1" 
AR Path="/5C648B3B/5C602A72" Ref="R?"  Part="1" 
AR Path="/5C6A8974/5C6AB623/5C602A72" Ref="R?"  Part="1" 
AR Path="/5C6A8974/5C6AB628/5C602A72" Ref="R?"  Part="1" 
AR Path="/5C6A8974/5C6AB633/5C602A72" Ref="R?"  Part="1" 
AR Path="/5C6A8974/5C6AB640/5C602A72" Ref="R?"  Part="1" 
AR Path="/5C6A8974/5C6AC0E5/5C602A72" Ref="R?"  Part="1" 
AR Path="/5C6A8974/5C6AC0EA/5C602A72" Ref="R?"  Part="1" 
AR Path="/5C6A8974/5C6AC0EF/5C602A72" Ref="R?"  Part="1" 
AR Path="/5C959ED1/5C959ED4/5C602A72" Ref="R601"  Part="1" 
AR Path="/5C959ED1/5C95A283/5C602A72" Ref="R?"  Part="1" 
AR Path="/5C959ED1/5C95A471/5C602A72" Ref="R701"  Part="1" 
F 0 "R701" V 5354 3500 50  0000 C CNN
F 1 "open" V 5445 3500 50  0000 C CNN
F 2 "Resistor_SMD:R_0805_2012Metric" H 5550 3500 50  0001 C CNN
F 3 "~" H 5550 3500 50  0001 C CNN
	1    5550 3500
	0    1    -1   0   
$EndComp
$Comp
L Device:R_Small R?
U 1 1 5C6733E3
P 6050 4050
AR Path="/5C602347/5C6733E3" Ref="R?"  Part="1" 
AR Path="/5C64728C/5C6733E3" Ref="R?"  Part="1" 
AR Path="/5C647A43/5C6733E3" Ref="R?"  Part="1" 
AR Path="/5C648B3B/5C6733E3" Ref="R?"  Part="1" 
AR Path="/5C6A8974/5C6AB623/5C6733E3" Ref="R?"  Part="1" 
AR Path="/5C6A8974/5C6AB628/5C6733E3" Ref="R?"  Part="1" 
AR Path="/5C6A8974/5C6AB633/5C6733E3" Ref="R?"  Part="1" 
AR Path="/5C6A8974/5C6AB640/5C6733E3" Ref="R?"  Part="1" 
AR Path="/5C6A8974/5C6AC0E5/5C6733E3" Ref="R?"  Part="1" 
AR Path="/5C6A8974/5C6AC0EA/5C6733E3" Ref="R?"  Part="1" 
AR Path="/5C6A8974/5C6AC0EF/5C6733E3" Ref="R?"  Part="1" 
AR Path="/5C959ED1/5C959ED4/5C6733E3" Ref="R602"  Part="1" 
AR Path="/5C959ED1/5C95A283/5C6733E3" Ref="R?"  Part="1" 
AR Path="/5C959ED1/5C95A471/5C6733E3" Ref="R702"  Part="1" 
F 0 "R702" H 6109 4096 50  0000 L CNN
F 1 "56R" H 6109 4005 50  0000 L CNN
F 2 "Resistor_SMD:R_0805_2012Metric" H 6050 4050 50  0001 C CNN
F 3 "~" H 6050 4050 50  0001 C CNN
	1    6050 4050
	-1   0    0    1   
$EndComp
Text HLabel 6200 3750 2    50   Input ~ 0
LD+
Text HLabel 6200 3900 2    50   Input ~ 0
LD-
Wire Wire Line
	6200 3900 6050 3900
Wire Wire Line
	6050 3950 6050 3900
Wire Wire Line
	6200 3750 6050 3750
Wire Wire Line
	6050 3750 6050 3700
$Comp
L Device:Q_PMOS_GSD Q?
U 1 1 5C7292AF
P 5950 3500
AR Path="/5C67B796/5C7292AF" Ref="Q?"  Part="1" 
AR Path="/5C6A8974/5C6AB623/5C7292AF" Ref="Q?"  Part="1" 
AR Path="/5C6A8974/5C6AC0E5/5C7292AF" Ref="Q?"  Part="1" 
AR Path="/5C6A8974/5C6AC0EA/5C7292AF" Ref="Q?"  Part="1" 
AR Path="/5C6A8974/5C6AC0EF/5C7292AF" Ref="Q?"  Part="1" 
AR Path="/5C959ED1/5C959ED4/5C7292AF" Ref="Q601"  Part="1" 
AR Path="/5C959ED1/5C95A283/5C7292AF" Ref="Q?"  Part="1" 
AR Path="/5C959ED1/5C95A471/5C7292AF" Ref="Q701"  Part="1" 
F 0 "Q701" H 6300 3550 50  0000 C CNN
F 1 "DMP3099L-7" H 6400 3450 50  0000 C CNN
F 2 "Package_TO_SOT_SMD:SOT-23" H 6150 3600 50  0001 C CNN
F 3 "https://www.diodes.com/assets/Datasheets/DMP3099L.pdf" H 5950 3500 50  0001 C CNN
F 4 "" H 50  0   50  0001 C CNN "Note"
	1    5950 3500
	1    0    0    1   
$EndComp
Wire Wire Line
	5350 3500 5450 3500
$Comp
L power:Earth #PWR0602
U 1 1 5C959FFC
P 6050 4200
AR Path="/5C959ED1/5C959ED4/5C959FFC" Ref="#PWR0602"  Part="1" 
AR Path="/5C959ED1/5C95A283/5C959FFC" Ref="#PWR?"  Part="1" 
AR Path="/5C959ED1/5C95A471/5C959FFC" Ref="#PWR0702"  Part="1" 
F 0 "#PWR0702" H 6050 3950 50  0001 C CNN
F 1 "Earth" H 6050 4050 50  0001 C CNN
F 2 "" H 6050 4200 50  0001 C CNN
F 3 "~" H 6050 4200 50  0001 C CNN
	1    6050 4200
	1    0    0    -1  
$EndComp
$Comp
L power:+3V3 #PWR0601
U 1 1 5C95A16A
P 6050 3250
AR Path="/5C959ED1/5C959ED4/5C95A16A" Ref="#PWR0601"  Part="1" 
AR Path="/5C959ED1/5C95A283/5C95A16A" Ref="#PWR?"  Part="1" 
AR Path="/5C959ED1/5C95A471/5C95A16A" Ref="#PWR0701"  Part="1" 
F 0 "#PWR0701" H 6050 3100 50  0001 C CNN
F 1 "+3V3" H 6065 3423 50  0000 C CNN
F 2 "" H 6050 3250 50  0001 C CNN
F 3 "" H 6050 3250 50  0001 C CNN
	1    6050 3250
	1    0    0    -1  
$EndComp
Wire Wire Line
	5450 3500 5450 3400
Wire Wire Line
	5450 3400 5650 3400
Wire Wire Line
	5650 3400 5650 3500
Connection ~ 5450 3500
Connection ~ 5650 3500
Text Notes 5300 3350 0    50   ~ 0
cut short\nto populate
Wire Wire Line
	5650 3500 5750 3500
Wire Wire Line
	6050 4150 6050 4200
$EndSCHEMATC
