EESchema Schematic File Version 4
LIBS:lasik2-cache
EELAYER 26 0
EELAYER END
$Descr A4 11693 8268
encoding utf-8
Sheet 1 12
Title ""
Date ""
Rev ""
Comp ""
Comment1 ""
Comment2 ""
Comment3 ""
Comment4 ""
$EndDescr
$Sheet
S 2750 1950 750  500 
U 5C94BC35
F0 "2 inputs" 50
F1 "2_inputs.sch" 50
F2 "V_analog" I R 3500 2050 50 
F3 "in2+" I L 2750 2250 50 
F4 "in2-" I L 2750 2350 50 
F5 "in1+" I L 2750 2050 50 
F6 "in1-" I L 2750 2150 50 
F7 "~trig1" I R 3500 2200 50 
F8 "~trig2" I R 3500 2300 50 
$EndSheet
$Sheet
S 2750 2700 750  500 
U 5C959ED1
F0 "2 lasers" 50
F1 "2_lasers.sch" 50
F2 "~laser1" I R 3500 2850 50 
F3 "~laser2" I R 3500 3050 50 
F4 "LD1+" I L 2750 2800 50 
F5 "LD1-" I L 2750 2900 50 
F6 "LD2+" I L 2750 3000 50 
F7 "LD2-" I L 2750 3100 50 
$EndSheet
$Sheet
S 2750 1550 750  200 
U 5C95C086
F0 "VAA servo" 50
F1 "VAA-servo.sch" 50
F2 "V_analog" I R 3500 1650 50 
$EndSheet
Wire Wire Line
	3500 1650 3600 1650
Wire Wire Line
	3600 1650 3600 2050
Wire Wire Line
	3600 2050 3500 2050
Wire Wire Line
	3700 1650 3600 1650
Connection ~ 3600 1650
$Sheet
S 4600 1550 750  200 
U 5C95ED49
F0 "Bat chrg" 50
F1 "Bat_chrg.sch" 50
F2 "V_in" I L 4600 1650 50 
F3 "V_sense" I R 5350 1650 50 
$EndSheet
Wire Wire Line
	4600 1650 4400 1650
$Comp
L Lasik:BL651-BL651 BL101
U 1 1 5C964F01
P 6200 3900
F 0 "BL101" H 6550 3950 50  0000 L CNN
F 1 "BL651" H 6550 4050 50  0000 L CNN
F 2 "Lasik:BL651" H 6450 4000 50  0001 C CNN
F 3 "" H 6450 4000 50  0001 C CNN
	1    6200 3900
	1    0    0    -1  
$EndComp
Wire Wire Line
	5350 1650 5450 1650
$Sheet
S 6550 4000 600  500 
U 5C96617D
F0 "LEDs" 50
F1 "LEDs.sch" 50
F2 "LED4" I R 7150 4400 50 
F3 "LED3" I R 7150 4300 50 
F4 "LED2" I R 7150 4200 50 
F5 "LED1" I R 7150 4100 50 
$EndSheet
$Comp
L Connector:Conn_ARM_JTAG_SWD_10 J104
U 1 1 5C966ABA
P 6750 5500
F 0 "J104" H 7500 5200 50  0000 R CNN
F 1 "Conn_ARM_JTAG_SWD_10" H 8150 5050 50  0000 R CNN
F 2 "Connector_PinHeader_1.27mm:PinHeader_2x05_P1.27mm_Vertical_SMD" H 6800 4950 50  0001 L TNN
F 3 "http://infocenter.arm.com/help/topic/com.arm.doc.faqs/attached/13634/cortex_debug_connectors.pdf" V 6400 4250 50  0001 C CNN
	1    6750 5500
	1    0    0    -1  
$EndComp
$Comp
L power:Earth #PWR0107
U 1 1 5C966B1E
P 6700 6150
F 0 "#PWR0107" H 6700 5900 50  0001 C CNN
F 1 "Earth" H 6700 6000 50  0001 C CNN
F 2 "" H 6700 6150 50  0001 C CNN
F 3 "~" H 6700 6150 50  0001 C CNN
	1    6700 6150
	1    0    0    -1  
$EndComp
Wire Wire Line
	6650 6100 6650 6150
Wire Wire Line
	6650 6150 6700 6150
Wire Wire Line
	6750 6150 6750 6100
Connection ~ 6700 6150
Wire Wire Line
	6700 6150 6750 6150
NoConn ~ 7250 5700
$Comp
L power:+3V3 #PWR0108
U 1 1 5C966F4F
P 6750 4850
F 0 "#PWR0108" H 6750 4700 50  0001 C CNN
F 1 "+3V3" H 6765 5023 50  0000 C CNN
F 2 "" H 6750 4850 50  0001 C CNN
F 3 "" H 6750 4850 50  0001 C CNN
	1    6750 4850
	1    0    0    -1  
$EndComp
Wire Wire Line
	6750 4850 6750 4900
$Comp
L power:+3V3 #PWR0105
U 1 1 5C967174
P 6100 2350
F 0 "#PWR0105" H 6100 2200 50  0001 C CNN
F 1 "+3V3" V 6115 2478 50  0000 L CNN
F 2 "" H 6100 2350 50  0001 C CNN
F 3 "" H 6100 2350 50  0001 C CNN
	1    6100 2350
	0    -1   -1   0   
$EndComp
Wire Wire Line
	6100 2350 6200 2350
Wire Wire Line
	8350 3900 8350 5200
Wire Wire Line
	8350 5200 7350 5200
$Comp
L Switch:SW_Push SW102
U 1 1 5C967D64
P 7550 5000
F 0 "SW102" H 7850 5050 50  0000 C CNN
F 1 "SW_reset" H 7950 4950 50  0000 C CNN
F 2 "Button_Switch_SMD:SW_SPST_TL3305A" H 7550 5200 50  0001 C CNN
F 3 "" H 7550 5200 50  0001 C CNN
	1    7550 5000
	1    0    0    -1  
$EndComp
Wire Wire Line
	7350 5000 7350 5200
Connection ~ 7350 5200
Wire Wire Line
	7350 5200 7250 5200
$Comp
L power:Earth #PWR0110
U 1 1 5C9680A1
P 7750 5050
F 0 "#PWR0110" H 7750 4800 50  0001 C CNN
F 1 "Earth" H 7750 4900 50  0001 C CNN
F 2 "" H 7750 5050 50  0001 C CNN
F 3 "~" H 7750 5050 50  0001 C CNN
	1    7750 5050
	1    0    0    -1  
$EndComp
Wire Wire Line
	7750 5050 7750 5000
Wire Wire Line
	7250 5400 8450 5400
Wire Wire Line
	8450 5400 8450 3900
Wire Wire Line
	7250 5500 8550 5500
Wire Wire Line
	8550 5500 8550 3900
Wire Wire Line
	7250 5600 8150 5600
Wire Wire Line
	8150 5600 8150 3900
Wire Wire Line
	7550 3900 7550 4100
Wire Wire Line
	7550 4100 7150 4100
Wire Wire Line
	7650 3900 7650 4200
Wire Wire Line
	7650 4200 7150 4200
Wire Wire Line
	7750 4300 7150 4300
Wire Wire Line
	7850 4400 7150 4400
$Comp
L power:Earth #PWR0109
U 1 1 5C96D186
P 7450 3950
F 0 "#PWR0109" H 7450 3700 50  0001 C CNN
F 1 "Earth" H 7450 3800 50  0001 C CNN
F 2 "" H 7450 3950 50  0001 C CNN
F 3 "~" H 7450 3950 50  0001 C CNN
	1    7450 3950
	1    0    0    -1  
$EndComp
Wire Wire Line
	7450 3950 7450 3900
$Comp
L power:Earth #PWR0112
U 1 1 5C96DF37
P 8950 3950
F 0 "#PWR0112" H 8950 3700 50  0001 C CNN
F 1 "Earth" H 8950 3800 50  0001 C CNN
F 2 "" H 8950 3950 50  0001 C CNN
F 3 "~" H 8950 3950 50  0001 C CNN
	1    8950 3950
	1    0    0    -1  
$EndComp
Wire Wire Line
	8950 3950 8950 3900
$Comp
L power:Earth #PWR0106
U 1 1 5C96E63E
P 6350 2000
F 0 "#PWR0106" H 6350 1750 50  0001 C CNN
F 1 "Earth" H 6350 1850 50  0001 C CNN
F 2 "" H 6350 2000 50  0001 C CNN
F 3 "~" H 6350 2000 50  0001 C CNN
	1    6350 2000
	1    0    0    -1  
$EndComp
$Comp
L power:Earth #PWR0111
U 1 1 5C96EEA4
P 8650 1700
F 0 "#PWR0111" H 8650 1450 50  0001 C CNN
F 1 "Earth" H 8650 1550 50  0001 C CNN
F 2 "" H 8650 1700 50  0001 C CNN
F 3 "~" H 8650 1700 50  0001 C CNN
	1    8650 1700
	1    0    0    -1  
$EndComp
Wire Wire Line
	8650 1700 8650 1650
Wire Wire Line
	8650 1650 8550 1650
Wire Wire Line
	8550 1650 8550 1700
Wire Wire Line
	7750 4300 7750 3900
Wire Wire Line
	7850 4400 7850 3900
$Comp
L Switch:SW_Push SW101
U 1 1 5C9740FA
P 5150 2650
F 0 "SW101" H 4850 2750 50  0000 C CNN
F 1 "SW_user" H 5150 2550 50  0000 C CNN
F 2 "Button_Switch_SMD:SW_SPST_TL3305A" H 5150 2850 50  0001 C CNN
F 3 "" H 5150 2850 50  0001 C CNN
	1    5150 2650
	1    0    0    -1  
$EndComp
$Comp
L power:Earth #PWR0101
U 1 1 5C975598
P 4900 2700
F 0 "#PWR0101" H 4900 2450 50  0001 C CNN
F 1 "Earth" H 4900 2550 50  0001 C CNN
F 2 "" H 4900 2700 50  0001 C CNN
F 3 "~" H 4900 2700 50  0001 C CNN
	1    4900 2700
	1    0    0    -1  
$EndComp
Wire Wire Line
	4900 2700 4900 2650
Wire Wire Line
	4900 2650 4950 2650
Wire Wire Line
	4400 1750 4500 1750
$Sheet
S 3700 1550 700  300 
U 5C95D17D
F0 "Regs" 50
F1 "Regs.sch" 50
F2 "V_analog" I L 3700 1650 50 
F3 "V_in" I R 4400 1650 50 
F4 "V_An_EN" I R 4400 1750 50 
$EndSheet
$Comp
L Device:C_Small C101
U 1 1 5CA08CCF
P 6200 2200
F 0 "C101" H 6108 2154 50  0000 R CNN
F 1 "100n" H 6108 2245 50  0000 R CNN
F 2 "Capacitor_SMD:C_0805_2012Metric" H 6200 2200 50  0001 C CNN
F 3 "~" H 6200 2200 50  0001 C CNN
	1    6200 2200
	1    0    0    1   
$EndComp
Wire Wire Line
	6350 2150 6450 2150
Wire Wire Line
	6450 2150 6450 1950
Wire Wire Line
	6450 1950 6350 1950
Wire Wire Line
	6200 1950 6200 2100
Wire Wire Line
	6350 2150 6350 2250
Wire Wire Line
	6350 2000 6350 1950
Connection ~ 6350 1950
Wire Wire Line
	6350 1950 6200 1950
Wire Wire Line
	6200 2300 6200 2350
Connection ~ 6200 2350
Wire Wire Line
	6200 2350 6350 2350
$Comp
L Connector_Generic:Conn_01x04 J101
U 1 1 5CA1F4A9
P 2450 2250
F 0 "J101" H 2550 1850 50  0000 C CNN
F 1 "Conn_01x04" H 2450 1950 50  0000 C CNN
F 2 "TerminalBlock_Phoenix:TerminalBlock_Phoenix_MPT-0,5-4-2.54_1x04_P2.54mm_Horizontal" H 2450 2250 50  0001 C CNN
F 3 "~" H 2450 2250 50  0001 C CNN
	1    2450 2250
	-1   0    0    1   
$EndComp
Wire Wire Line
	2650 3100 2750 3100
Wire Wire Line
	2750 3000 2650 3000
Wire Wire Line
	2650 2900 2750 2900
Wire Wire Line
	2750 2800 2650 2800
$Comp
L Connector_Generic:Conn_01x04 J102
U 1 1 5CA28C79
P 2450 3000
F 0 "J102" H 2600 3300 50  0000 C CNN
F 1 "Conn_01x04" H 2450 3200 50  0000 C CNN
F 2 "TerminalBlock_Phoenix:TerminalBlock_Phoenix_MPT-0,5-4-2.54_1x04_P2.54mm_Horizontal" H 2450 3000 50  0001 C CNN
F 3 "~" H 2450 3000 50  0001 C CNN
	1    2450 3000
	-1   0    0    1   
$EndComp
Wire Wire Line
	2750 2350 2650 2350
Wire Wire Line
	2650 2250 2750 2250
Wire Wire Line
	2750 2150 2650 2150
Wire Wire Line
	2650 2050 2750 2050
Wire Wire Line
	3500 2850 4250 2850
Wire Wire Line
	5450 2750 6350 2750
Wire Wire Line
	3500 2300 3800 2300
Wire Wire Line
	3800 2300 3800 2800
Wire Wire Line
	3800 2800 4300 2800
Wire Wire Line
	3500 2200 3900 2200
Wire Wire Line
	3900 2200 3900 2750
Wire Wire Line
	3900 2750 4400 2750
NoConn ~ 7450 1700
NoConn ~ 7550 1700
NoConn ~ 7650 1700
NoConn ~ 7750 1700
NoConn ~ 7850 1700
NoConn ~ 7950 1700
NoConn ~ 8050 1700
NoConn ~ 8150 1700
NoConn ~ 8250 1700
NoConn ~ 8350 1700
NoConn ~ 8450 1700
NoConn ~ 8050 3900
NoConn ~ 8250 3900
NoConn ~ 8650 3900
NoConn ~ 8750 3900
NoConn ~ 8900 3900
NoConn ~ 8850 3900
NoConn ~ 6350 2450
Wire Wire Line
	5350 2650 6350 2650
Wire Wire Line
	4500 1750 4500 2850
Wire Wire Line
	5450 1650 5450 2750
Wire Wire Line
	5000 3050 5000 2950
Wire Wire Line
	5000 2950 5950 2950
Wire Wire Line
	3500 3050 5000 3050
Wire Wire Line
	4250 2850 4250 3100
Wire Wire Line
	4250 3100 5100 3100
Wire Wire Line
	5100 3100 5100 3050
Wire Wire Line
	5100 3050 6050 3050
Wire Wire Line
	4500 2850 5850 2850
Wire Wire Line
	4300 2800 4300 3150
Wire Wire Line
	4300 3150 6150 3150
Wire Wire Line
	4400 2750 4400 3250
Wire Wire Line
	4400 3250 6250 3250
$Comp
L Device:R_Small R?
U 1 1 5C9A9BDB
P 6200 2550
AR Path="/5C5FAFFD/5C9A9BDB" Ref="R?"  Part="1" 
AR Path="/5C661B09/5C66211D/5C9A9BDB" Ref="R?"  Part="1" 
AR Path="/5C68A269/5C68A2E7/5C9A9BDB" Ref="R?"  Part="1" 
AR Path="/5C696261/5C9A9BDB" Ref="R?"  Part="1" 
AR Path="/5C67B796/5C9A9BDB" Ref="R?"  Part="1" 
AR Path="/5C95ED49/5C9A9BDB" Ref="R?"  Part="1" 
AR Path="/5C9A9BDB" Ref="R101"  Part="1" 
F 0 "R101" V 6100 2950 50  0000 R CNN
F 1 "470R" V 6100 2700 50  0000 R CNN
F 2 "Resistor_SMD:R_0805_2012Metric" H 6200 2550 50  0001 C CNN
F 3 "~" H 6200 2550 50  0001 C CNN
	1    6200 2550
	0    -1   1    0   
$EndComp
$Comp
L power:Earth #PWR0104
U 1 1 5C9AFADD
P 6050 2550
F 0 "#PWR0104" H 6050 2300 50  0001 C CNN
F 1 "Earth" H 6050 2400 50  0001 C CNN
F 2 "" H 6050 2550 50  0001 C CNN
F 3 "~" H 6050 2550 50  0001 C CNN
	1    6050 2550
	0    1    1    0   
$EndComp
Wire Wire Line
	6050 2550 6100 2550
Wire Wire Line
	6350 2550 6300 2550
Text Notes 5600 2600 0    50   ~ 0
HW ID R
Wire Wire Line
	6250 3500 6250 3250
Connection ~ 6250 3250
Wire Wire Line
	6250 3250 6350 3250
Wire Wire Line
	6150 3500 6150 3150
Connection ~ 6150 3150
Wire Wire Line
	6150 3150 6350 3150
Wire Wire Line
	6050 3500 6050 3050
Connection ~ 6050 3050
Wire Wire Line
	6050 3050 6350 3050
Wire Wire Line
	5950 3500 5950 2950
Connection ~ 5950 2950
Wire Wire Line
	5950 2950 6350 2950
Wire Wire Line
	5850 3500 5850 2850
Connection ~ 5850 2850
Wire Wire Line
	5850 2850 6350 2850
$Comp
L Connector_Generic:Conn_01x07 J103
U 1 1 5C9D6DCB
P 5950 3700
F 0 "J103" V 6150 4050 50  0000 R CNN
F 1 "Conn_01x07" V 6050 4050 50  0000 R CNN
F 2 "Connector_PinHeader_2.54mm:PinHeader_1x07_P2.54mm_Vertical" H 5950 3700 50  0001 C CNN
F 3 "~" H 5950 3700 50  0001 C CNN
	1    5950 3700
	0    -1   1    0   
$EndComp
$Comp
L power:Earth #PWR0102
U 1 1 5C9D978A
P 5500 3500
F 0 "#PWR0102" H 5500 3250 50  0001 C CNN
F 1 "Earth" H 5500 3350 50  0001 C CNN
F 2 "" H 5500 3500 50  0001 C CNN
F 3 "~" H 5500 3500 50  0001 C CNN
	1    5500 3500
	1    0    0    -1  
$EndComp
Wire Wire Line
	5500 3500 5500 3450
Wire Wire Line
	5500 3450 5650 3450
Wire Wire Line
	5650 3450 5650 3500
$Comp
L power:+3V3 #PWR0103
U 1 1 5C9E15C9
P 5750 3450
F 0 "#PWR0103" H 5750 3300 50  0001 C CNN
F 1 "+3V3" H 5600 3600 50  0000 L CNN
F 2 "" H 5750 3450 50  0001 C CNN
F 3 "" H 5750 3450 50  0001 C CNN
	1    5750 3450
	1    0    0    -1  
$EndComp
Wire Wire Line
	5750 3450 5750 3500
NoConn ~ 7950 3900
$EndSCHEMATC
