EESchema Schematic File Version 4
LIBS:lasik2-cache
EELAYER 26 0
EELAYER END
$Descr A4 11693 8268
encoding utf-8
Sheet 10 12
Title ""
Date ""
Rev ""
Comp ""
Comment1 ""
Comment2 ""
Comment3 ""
Comment4 ""
$EndDescr
$Comp
L Device:Battery_Cell BT?
U 1 1 5C68A6FC
P 4950 3950
AR Path="/5C5FC5C6/5C68A6FC" Ref="BT?"  Part="1" 
AR Path="/5C67B796/5C68A6FC" Ref="BT?"  Part="1" 
AR Path="/5C67B796/5C68A220/5C68A6FC" Ref="BT?"  Part="1" 
AR Path="/5C95ED49/5C68A220/5C68A6FC" Ref="BT1001"  Part="1" 
F 0 "BT1001" H 4550 4100 50  0000 L CNN
F 1 "Battery_Cell" H 4450 3900 50  0000 L CNN
F 2 "Lasik:BatteryHolder_Keystone_1042_1x18650" V 4950 4010 50  0001 C CNN
F 3 "https://www.mouser.be/datasheet/2/215/042-744829.pdf" V 4950 4010 50  0001 C CNN
F 4 "TBD" H 2750 1200 50  0001 C CNN "Note"
	1    4950 3950
	1    0    0    -1  
$EndComp
Text HLabel 7250 2350 2    50   Input ~ 0
V_bat
$Comp
L Device:Q_NMOS_GSD Q?
U 1 1 5C7BE10C
P 6400 4350
AR Path="/5C602347/5C7BE10C" Ref="Q?"  Part="1" 
AR Path="/5C64728C/5C7BE10C" Ref="Q?"  Part="1" 
AR Path="/5C647A43/5C7BE10C" Ref="Q?"  Part="1" 
AR Path="/5C648B3B/5C7BE10C" Ref="Q?"  Part="1" 
AR Path="/5C6A8974/5C6AB623/5C7BE10C" Ref="Q?"  Part="1" 
AR Path="/5C6A8974/5C6AB628/5C7BE10C" Ref="Q?"  Part="1" 
AR Path="/5C6A8974/5C6AB633/5C7BE10C" Ref="Q?"  Part="1" 
AR Path="/5C6A8974/5C6AB640/5C7BE10C" Ref="Q?"  Part="1" 
AR Path="/5C6A8974/5C6AC0E5/5C7BE10C" Ref="Q?"  Part="1" 
AR Path="/5C6A8974/5C6AC0EA/5C7BE10C" Ref="Q?"  Part="1" 
AR Path="/5C6A8974/5C6AC0EF/5C7BE10C" Ref="Q?"  Part="1" 
AR Path="/5C67B796/5C68A220/5C7BE10C" Ref="Q?"  Part="1" 
AR Path="/5C95ED49/5C68A220/5C7BE10C" Ref="Q1002"  Part="1" 
F 0 "Q1002" V 6300 4050 50  0000 L CNN
F 1 "DMG2302" V 6650 4150 50  0000 L CNN
F 2 "Package_TO_SOT_SMD:SOT-23" H 6600 4450 50  0001 C CNN
F 3 "https://www.diodes.com/assets/Datasheets/DMG2302UK.pdf" H 6400 4350 50  0001 C CNN
	1    6400 4350
	0    1    1    0   
$EndComp
$Comp
L Device:Q_NMOS_GSD Q?
U 1 1 5C7BE185
P 6850 4350
AR Path="/5C602347/5C7BE185" Ref="Q?"  Part="1" 
AR Path="/5C64728C/5C7BE185" Ref="Q?"  Part="1" 
AR Path="/5C647A43/5C7BE185" Ref="Q?"  Part="1" 
AR Path="/5C648B3B/5C7BE185" Ref="Q?"  Part="1" 
AR Path="/5C6A8974/5C6AB623/5C7BE185" Ref="Q?"  Part="1" 
AR Path="/5C6A8974/5C6AB628/5C7BE185" Ref="Q?"  Part="1" 
AR Path="/5C6A8974/5C6AB633/5C7BE185" Ref="Q?"  Part="1" 
AR Path="/5C6A8974/5C6AB640/5C7BE185" Ref="Q?"  Part="1" 
AR Path="/5C6A8974/5C6AC0E5/5C7BE185" Ref="Q?"  Part="1" 
AR Path="/5C6A8974/5C6AC0EA/5C7BE185" Ref="Q?"  Part="1" 
AR Path="/5C6A8974/5C6AC0EF/5C7BE185" Ref="Q?"  Part="1" 
AR Path="/5C67B796/5C68A220/5C7BE185" Ref="Q?"  Part="1" 
AR Path="/5C95ED49/5C68A220/5C7BE185" Ref="Q1003"  Part="1" 
F 0 "Q1003" V 6750 4400 50  0000 L CNN
F 1 "DMG2302" V 7100 4150 50  0000 L CNN
F 2 "Package_TO_SOT_SMD:SOT-23" H 7050 4450 50  0001 C CNN
F 3 "https://www.diodes.com/assets/Datasheets/DMG2302UK.pdf" H 6850 4350 50  0001 C CNN
	1    6850 4350
	0    -1   1    0   
$EndComp
Wire Wire Line
	6650 4450 6600 4450
Wire Wire Line
	6400 4150 6400 4100
Wire Wire Line
	6400 4100 6500 4100
Wire Wire Line
	6850 4150 6850 4100
Wire Wire Line
	6850 4100 6750 4100
$Comp
L Device:C_Small C?
U 1 1 5C7BE4B8
P 5600 3900
AR Path="/5C696261/5C7BE4B8" Ref="C?"  Part="1" 
AR Path="/5C67B796/5C7BE4B8" Ref="C?"  Part="1" 
AR Path="/5C67B796/5C68A220/5C7BE4B8" Ref="C?"  Part="1" 
AR Path="/5C95ED49/5C68A220/5C7BE4B8" Ref="C1001"  Part="1" 
F 0 "C1001" H 5650 4000 50  0000 L CNN
F 1 "100n" H 5650 3800 50  0000 L CNN
F 2 "Capacitor_SMD:C_0805_2012Metric" H 5600 3900 50  0001 C CNN
F 3 "~" H 5600 3900 50  0001 C CNN
F 4 "" H 2950 1200 50  0001 C CNN "Note"
	1    5600 3900
	-1   0    0    -1  
$EndComp
Wire Wire Line
	6000 3800 6000 4450
Wire Wire Line
	6000 4450 6200 4450
Connection ~ 6000 4450
$Comp
L Device:R_Small R?
U 1 1 5C7BE80C
P 5400 3550
AR Path="/5C5FAFFD/5C7BE80C" Ref="R?"  Part="1" 
AR Path="/5C661B09/5C66211D/5C7BE80C" Ref="R?"  Part="1" 
AR Path="/5C68A269/5C68A2E7/5C7BE80C" Ref="R?"  Part="1" 
AR Path="/5C696261/5C7BE80C" Ref="R?"  Part="1" 
AR Path="/5C67B796/5C7BE80C" Ref="R?"  Part="1" 
AR Path="/5C67B796/5C68A220/5C7BE80C" Ref="R?"  Part="1" 
AR Path="/5C95ED49/5C68A220/5C7BE80C" Ref="R1001"  Part="1" 
F 0 "R1001" V 5300 3550 50  0000 R CNN
F 1 "470R" V 5500 3650 50  0000 R CNN
F 2 "Resistor_SMD:R_0805_2012Metric" H 5400 3550 50  0001 C CNN
F 3 "~" H 5400 3550 50  0001 C CNN
	1    5400 3550
	0    1    1    0   
$EndComp
Wire Wire Line
	4950 4050 4950 4450
Wire Wire Line
	4950 3750 4950 3550
Wire Wire Line
	4950 3550 5200 3550
Wire Wire Line
	5500 3550 5600 3550
Wire Wire Line
	5600 4000 5600 4450
Wire Wire Line
	5600 4450 5800 4450
Wire Wire Line
	5600 3800 5600 3550
Wire Wire Line
	5600 3550 6000 3550
Wire Wire Line
	4950 3550 4950 2350
Wire Wire Line
	4950 2350 6900 2350
Connection ~ 4950 3550
Wire Wire Line
	7100 3650 7250 3650
$Comp
L Device:R_Small R?
U 1 1 5C7BFDFB
P 7250 4050
AR Path="/5C5FAFFD/5C7BFDFB" Ref="R?"  Part="1" 
AR Path="/5C661B09/5C66211D/5C7BFDFB" Ref="R?"  Part="1" 
AR Path="/5C68A269/5C68A2E7/5C7BFDFB" Ref="R?"  Part="1" 
AR Path="/5C696261/5C7BFDFB" Ref="R?"  Part="1" 
AR Path="/5C67B796/5C7BFDFB" Ref="R?"  Part="1" 
AR Path="/5C67B796/5C68A220/5C7BFDFB" Ref="R?"  Part="1" 
AR Path="/5C95ED49/5C68A220/5C7BFDFB" Ref="R1003"  Part="1" 
F 0 "R1003" H 7200 4100 50  0000 R CNN
F 1 "2K2" H 7200 4000 50  0000 R CNN
F 2 "Resistor_SMD:R_0805_2012Metric" H 7250 4050 50  0001 C CNN
F 3 "~" H 7250 4050 50  0001 C CNN
	1    7250 4050
	-1   0    0    -1  
$EndComp
Wire Wire Line
	7250 3950 7250 3650
$Comp
L Lasik:AP9101C-SOT26 U1001
U 1 1 5C67EF28
P 5850 3300
F 0 "U1001" H 6550 3315 50  0000 C CNN
F 1 "AP9101C-SOT26" H 6550 3224 50  0000 C CNN
F 2 "Package_TO_SOT_SMD:SOT-23-6" H 5850 3300 50  0001 C CNN
F 3 "https://www.diodes.com/assets/Datasheets/AP9101C.pdf" H 5850 3300 50  0001 C CNN
	1    5850 3300
	1    0    0    -1  
$EndComp
$Comp
L Connector:Conn_01x02_Male J1001
U 1 1 5CCF8B85
P 4150 3950
F 0 "J1001" H 3700 3550 50  0000 C CNN
F 1 "Conn_01x02_Male" H 3950 3700 50  0000 C CNN
F 2 "Connector_JST:JST_XH_B02B-XH-A_1x02_P2.50mm_Vertical" H 4150 3950 50  0001 C CNN
F 3 "~" H 4150 3950 50  0001 C CNN
	1    4150 3950
	1    0    0    1   
$EndComp
Wire Wire Line
	4350 3550 4950 3550
Wire Wire Line
	4350 3950 4350 4450
Wire Wire Line
	4350 4450 4950 4450
Text Notes 3950 4100 0    50   ~ 0
Ext. cell
Wire Wire Line
	4350 3550 4350 3850
$Comp
L power:Earth #PWR01001
U 1 1 5C95FDF1
P 7250 4800
F 0 "#PWR01001" H 7250 4550 50  0001 C CNN
F 1 "Earth" H 7250 4650 50  0001 C CNN
F 2 "" H 7250 4800 50  0001 C CNN
F 3 "~" H 7250 4800 50  0001 C CNN
	1    7250 4800
	1    0    0    -1  
$EndComp
$Comp
L Switch:SW_Push SW1001
U 1 1 5C979D31
P 6600 4750
F 0 "SW1001" H 7050 4850 50  0000 C CNN
F 1 "SW_Push" H 6250 4850 50  0000 C CNN
F 2 "Button_Switch_SMD:SW_SPST_TL3305A" H 6600 4950 50  0001 C CNN
F 3 "" H 6600 4950 50  0001 C CNN
F 4 "optional" H 6600 4750 50  0001 C CNN "Note"
	1    6600 4750
	-1   0    0    1   
$EndComp
Wire Wire Line
	6400 4750 6000 4750
Wire Wire Line
	6000 4750 6000 4450
Connection ~ 5600 3550
$Comp
L Device:Q_NMOS_GSD Q?
U 1 1 5C97C5C1
P 6900 2900
AR Path="/5C602347/5C97C5C1" Ref="Q?"  Part="1" 
AR Path="/5C64728C/5C97C5C1" Ref="Q?"  Part="1" 
AR Path="/5C647A43/5C97C5C1" Ref="Q?"  Part="1" 
AR Path="/5C648B3B/5C97C5C1" Ref="Q?"  Part="1" 
AR Path="/5C6A8974/5C6AB623/5C97C5C1" Ref="Q?"  Part="1" 
AR Path="/5C6A8974/5C6AB628/5C97C5C1" Ref="Q?"  Part="1" 
AR Path="/5C6A8974/5C6AB633/5C97C5C1" Ref="Q?"  Part="1" 
AR Path="/5C6A8974/5C6AB640/5C97C5C1" Ref="Q?"  Part="1" 
AR Path="/5C6A8974/5C6AC0E5/5C97C5C1" Ref="Q?"  Part="1" 
AR Path="/5C6A8974/5C6AC0EA/5C97C5C1" Ref="Q?"  Part="1" 
AR Path="/5C6A8974/5C6AC0EF/5C97C5C1" Ref="Q?"  Part="1" 
AR Path="/5C67B796/5C68A220/5C97C5C1" Ref="Q?"  Part="1" 
AR Path="/5C95ED49/5C68A220/5C97C5C1" Ref="Q1004"  Part="1" 
F 0 "Q1004" V 7250 2750 50  0000 L CNN
F 1 "DMG2302" V 7150 2700 50  0000 L CNN
F 2 "Package_TO_SOT_SMD:SOT-23" H 7100 3000 50  0001 C CNN
F 3 "https://www.diodes.com/assets/Datasheets/DMG2302UK.pdf" H 6900 2900 50  0001 C CNN
	1    6900 2900
	0    1    1    0   
$EndComp
$Comp
L Device:C_Small C?
U 1 1 5C97CF32
P 6900 2500
AR Path="/5C696261/5C97CF32" Ref="C?"  Part="1" 
AR Path="/5C67B796/5C97CF32" Ref="C?"  Part="1" 
AR Path="/5C67B796/5C68A220/5C97CF32" Ref="C?"  Part="1" 
AR Path="/5C95ED49/5C68A220/5C97CF32" Ref="C1002"  Part="1" 
F 0 "C1002" H 6550 2500 50  0000 L CNN
F 1 "4u7" H 6700 2400 50  0000 L CNN
F 2 "Capacitor_SMD:C_0805_2012Metric" H 6900 2500 50  0001 C CNN
F 3 "~" H 6900 2500 50  0001 C CNN
F 4 "" H 4250 -200 50  0001 C CNN "Note"
	1    6900 2500
	-1   0    0    -1  
$EndComp
$Comp
L Device:R_Small R?
U 1 1 5C97D41E
P 6700 2650
AR Path="/5C5FAFFD/5C97D41E" Ref="R?"  Part="1" 
AR Path="/5C661B09/5C66211D/5C97D41E" Ref="R?"  Part="1" 
AR Path="/5C68A269/5C68A2E7/5C97D41E" Ref="R?"  Part="1" 
AR Path="/5C696261/5C97D41E" Ref="R?"  Part="1" 
AR Path="/5C67B796/5C97D41E" Ref="R?"  Part="1" 
AR Path="/5C67B796/5C68A220/5C97D41E" Ref="R?"  Part="1" 
AR Path="/5C95ED49/5C68A220/5C97D41E" Ref="R1002"  Part="1" 
F 0 "R1002" V 6600 2650 50  0000 R CNN
F 1 "47K" V 6800 2700 50  0000 R CNN
F 2 "Resistor_SMD:R_0805_2012Metric" H 6700 2650 50  0001 C CNN
F 3 "~" H 6700 2650 50  0001 C CNN
	1    6700 2650
	0    1    1    0   
$EndComp
Wire Wire Line
	6900 2700 6900 2650
Wire Wire Line
	7100 3000 7250 3000
Wire Wire Line
	7250 3000 7250 3650
Connection ~ 7250 3650
Wire Wire Line
	5800 3000 5800 4450
Connection ~ 5800 4450
Wire Wire Line
	5800 4450 6000 4450
Wire Wire Line
	6900 2400 6900 2350
Connection ~ 6900 2350
Wire Wire Line
	6900 2350 7250 2350
$Comp
L Device:Q_NMOS_GSD Q?
U 1 1 5C982265
P 5200 4350
AR Path="/5C602347/5C982265" Ref="Q?"  Part="1" 
AR Path="/5C64728C/5C982265" Ref="Q?"  Part="1" 
AR Path="/5C647A43/5C982265" Ref="Q?"  Part="1" 
AR Path="/5C648B3B/5C982265" Ref="Q?"  Part="1" 
AR Path="/5C6A8974/5C6AB623/5C982265" Ref="Q?"  Part="1" 
AR Path="/5C6A8974/5C6AB628/5C982265" Ref="Q?"  Part="1" 
AR Path="/5C6A8974/5C6AB633/5C982265" Ref="Q?"  Part="1" 
AR Path="/5C6A8974/5C6AB640/5C982265" Ref="Q?"  Part="1" 
AR Path="/5C6A8974/5C6AC0E5/5C982265" Ref="Q?"  Part="1" 
AR Path="/5C6A8974/5C6AC0EA/5C982265" Ref="Q?"  Part="1" 
AR Path="/5C6A8974/5C6AC0EF/5C982265" Ref="Q?"  Part="1" 
AR Path="/5C67B796/5C68A220/5C982265" Ref="Q?"  Part="1" 
AR Path="/5C95ED49/5C68A220/5C982265" Ref="Q1001"  Part="1" 
F 0 "Q1001" V 5100 4400 50  0000 L CNN
F 1 "DMG2302" V 5450 4150 50  0000 L CNN
F 2 "Package_TO_SOT_SMD:SOT-23" H 5400 4450 50  0001 C CNN
F 3 "https://www.diodes.com/assets/Datasheets/DMG2302UK.pdf" H 5200 4350 50  0001 C CNN
	1    5200 4350
	0    -1   1    0   
$EndComp
Wire Wire Line
	5400 4450 5600 4450
Connection ~ 5600 4450
Wire Wire Line
	5200 4150 5200 3550
Connection ~ 5200 3550
Wire Wire Line
	5200 3550 5300 3550
Wire Wire Line
	5000 4450 4950 4450
Connection ~ 4950 4450
Wire Wire Line
	7250 4150 7250 4450
Wire Wire Line
	6800 4750 7250 4750
Wire Wire Line
	7050 4450 7250 4450
Connection ~ 7250 4450
Wire Wire Line
	7250 4450 7250 4750
Wire Wire Line
	7250 4800 7250 4750
Connection ~ 7250 4750
Wire Wire Line
	6800 2650 6900 2650
Connection ~ 6900 2650
Wire Wire Line
	6900 2650 6900 2600
Wire Wire Line
	5800 3000 6550 3000
Wire Wire Line
	6600 2650 6550 2650
Wire Wire Line
	6550 2650 6550 3000
Connection ~ 6550 3000
Wire Wire Line
	6550 3000 6700 3000
$EndSCHEMATC
