(module MountingHole_3mm_Pad_Via_3mm-paste (layer F.Cu) (tedit 5C74208D)
  (descr "Mounting Hole 3mm")
  (tags "mounting hole 3mm")
  (attr virtual)
  (fp_text reference GND (at -0.07 -3.75) (layer B.SilkS) hide
    (effects (font (size 1 1) (thickness 0.15)) (justify mirror))
  )
  (fp_text value TestPoint (at -0.01 3.97) (layer F.Fab)
    (effects (font (size 1 1) (thickness 0.15)))
  )
  (fp_text user %R (at -0.06 -3.72) (layer F.Fab)
    (effects (font (size 1 1) (thickness 0.15)))
  )
  (fp_circle (center 0 0) (end 3 0) (layer Cmts.User) (width 0.15))
  (fp_circle (center 0 0) (end 3.25 0) (layer F.CrtYd) (width 0.05))
  (fp_circle (center 0 0) (end 0.75 0.01) (layer F.Paste) (width 1.5))
  (fp_circle (center 0 0) (end 0.750067 0) (layer B.Paste) (width 1.5))
  (pad 1 thru_hole circle (at 0 0) (size 6 6) (drill 3) (layers *.Cu *.Mask))
  (pad 1 thru_hole circle (at 2.25 0) (size 0.8 0.8) (drill 0.5) (layers *.Cu *.Mask))
  (pad 1 thru_hole circle (at 1.59099 1.59099) (size 0.8 0.8) (drill 0.5) (layers *.Cu *.Mask))
  (pad 1 thru_hole circle (at 0 2.25) (size 0.8 0.8) (drill 0.5) (layers *.Cu *.Mask))
  (pad 1 thru_hole circle (at -1.59099 1.59099) (size 0.8 0.8) (drill 0.5) (layers *.Cu *.Mask))
  (pad 1 thru_hole circle (at -2.25 0) (size 0.8 0.8) (drill 0.5) (layers *.Cu *.Mask))
  (pad 1 thru_hole circle (at -1.59099 -1.59099) (size 0.8 0.8) (drill 0.5) (layers *.Cu *.Mask))
  (pad 1 thru_hole circle (at 0 -2.25) (size 0.8 0.8) (drill 0.5) (layers *.Cu *.Mask))
  (pad 1 thru_hole circle (at 1.59099 -1.59099) (size 0.8 0.8) (drill 0.5) (layers *.Cu *.Mask))
)
